<?xml version="1.0" encoding="UTF-8" standalone="no"?>
<!-- Created with Inkscape (http://www.inkscape.org/) -->

<svg
   xmlns:dc="http://purl.org/dc/elements/1.1/"
   xmlns:cc="http://creativecommons.org/ns#"
   xmlns:rdf="http://www.w3.org/1999/02/22-rdf-syntax-ns#"
   xmlns:svg="http://www.w3.org/2000/svg"
   xmlns="http://www.w3.org/2000/svg"
   xmlns:sodipodi="http://sodipodi.sourceforge.net/DTD/sodipodi-0.dtd"
   xmlns:inkscape="http://www.inkscape.org/namespaces/inkscape"
   width="1052.3622"
   height="744.09448"
   id="svg10246"
   version="1.1"
   inkscape:version="0.48.2 r9819"
   sodipodi:docname="New document 51">
  <defs
     id="defs10248" />
  <sodipodi:namedview
     id="base"
     pagecolor="#ffffff"
     bordercolor="#666666"
     borderopacity="1.0"
     inkscape:pageopacity="0.0"
     inkscape:pageshadow="2"
     inkscape:zoom="0.98994949"
     inkscape:cx="378.69629"
     inkscape:cy="379.3411"
     inkscape:document-units="px"
     inkscape:current-layer="layer1"
     showgrid="true"
     showguides="true"
     inkscape:guide-bbox="true"
     inkscape:window-width="1920"
     inkscape:window-height="996"
     inkscape:window-x="-8"
     inkscape:window-y="-8"
     inkscape:window-maximized="1">
    <inkscape:grid
       type="xygrid"
       id="grid10828"
       empspacing="5"
       visible="true"
       enabled="true"
       snapvisiblegridlinesonly="true" />
  </sodipodi:namedview>
  <metadata
     id="metadata10251">
    <rdf:RDF>
      <cc:Work
         rdf:about="">
        <dc:format>image/svg+xml</dc:format>
        <dc:type
           rdf:resource="http://purl.org/dc/dcmitype/StillImage" />
        <dc:title></dc:title>
      </cc:Work>
    </rdf:RDF>
  </metadata>
  <g
     inkscape:label="Base"
     inkscape:groupmode="layer"
     id="layer1"
     transform="translate(0,-308.2677)">
    <path
       sodipodi:type="arc"
       style="fill:none;stroke:#000000;stroke-width:3;stroke-miterlimit:4;stroke-opacity:1;stroke-dasharray:none"
       id="path10258"
       sodipodi:cx="411.88971"
       sodipodi:cy="179.16667"
       sodipodi:rx="137.1282"
       sodipodi:ry="66.417526"
       d="m 343.32561,236.68594 a 137.1282,66.417526 0 1 1 0.11292,0.0315"
       transform="matrix(0.35805692,0,0,0.33901402,422.52004,314.13864)"
       sodipodi:start="2.0943951"
       sodipodi:end="8.3766298"
       sodipodi:open="true" />
    <text
       xml:space="preserve"
       style="font-size:24px;font-style:normal;font-weight:normal;line-height:125%;letter-spacing:0px;word-spacing:0px;fill:#000000;fill-opacity:1;stroke:none;font-family:Sans;-inkscape-font-specification:Sans"
       x="545.94067"
       y="382.27139"
       id="text10768"
       sodipodi:linespacing="125%"><tspan
         sodipodi:role="line"
         id="tspan10770"
         x="545.94067"
         y="382.27139">Text</tspan></text>
    <g
       id="g10796"
       transform="translate(-13.33018,-139.66035)">
      <path
         sodipodi:open="true"
         sodipodi:end="8.3766298"
         sodipodi:start="2.0943951"
         transform="matrix(0.45279698,0,0,0.42871542,153.919,540.21102)"
         d="m 343.32561,236.68594 c -65.58741,-18.3407 -88.05932,-58.96102 -50.19241,-90.72803 37.86691,-31.76701 121.7332,-42.6512 187.32061,-24.3105 65.58741,18.34069 88.05932,58.96101 50.19241,90.72802 -37.84146,31.74567 -121.62842,42.64023 -187.20769,24.34205"
         sodipodi:ry="66.417526"
         sodipodi:rx="137.1282"
         sodipodi:cy="179.16667"
         sodipodi:cx="411.88971"
         id="path10258-4"
         style="fill:none;stroke:#000000;stroke-width:3;stroke-miterlimit:4;stroke-opacity:1;stroke-dasharray:none"
         sodipodi:type="arc" />
      <text
         sodipodi:linespacing="125%"
         id="text10768-1"
         y="623.36902"
         x="288.07779"
         style="font-size:24px;font-style:normal;font-weight:normal;line-height:125%;letter-spacing:0px;word-spacing:0px;fill:#000000;fill-opacity:1;stroke:none;font-family:Sans;-inkscape-font-specification:Sans"
         xml:space="preserve"><tspan
           y="623.36902"
           x="288.07779"
           id="tspan10770-2"
           sodipodi:role="line">Sentence</tspan></text>
    </g>
    <g
       id="g10796-0"
       transform="translate(486.36038,-140.53642)">
      <g
         id="g10943"
         transform="translate(0.30944026,0.87606749)">
        <path
           sodipodi:type="arc"
           style="fill:none;stroke:#000000;stroke-width:3;stroke-miterlimit:4;stroke-opacity:1;stroke-dasharray:none"
           id="path10258-4-0"
           sodipodi:cx="411.88971"
           sodipodi:cy="179.16667"
           sodipodi:rx="137.1282"
           sodipodi:ry="66.417526"
           d="m 343.32561,236.68594 c -65.58741,-18.3407 -88.05932,-58.96102 -50.19241,-90.72803 37.86691,-31.76701 121.7332,-42.6512 187.32061,-24.3105 65.58741,18.34069 88.05932,58.96101 50.19241,90.72802 -37.84146,31.74567 -121.62842,42.64023 -187.20769,24.34205"
           transform="matrix(0.45279698,0,0,0.42871542,153.919,540.21102)"
           sodipodi:start="2.0943951"
           sodipodi:end="8.3766298"
           sodipodi:open="true" />
        <text
           xml:space="preserve"
           style="font-size:24px;font-style:normal;font-weight:normal;line-height:125%;letter-spacing:0px;word-spacing:0px;fill:#000000;fill-opacity:1;stroke:none;font-family:Sans;-inkscape-font-specification:Sans"
           x="288.07779"
           y="623.36902"
           id="text10768-1-1"
           sodipodi:linespacing="125%"><tspan
             sodipodi:role="line"
             id="tspan10770-2-4"
             x="288.07779"
             y="623.36902">Sentence</tspan></text>
      </g>
    </g>
    <g
       id="g10796-6"
       transform="matrix(0.82293014,0,0,0.82293014,-204.63675,214.29165)">
      <path
         sodipodi:open="true"
         sodipodi:end="8.3766298"
         sodipodi:start="2.0943951"
         transform="matrix(0.45279698,0,0,0.42871542,153.919,540.21102)"
         d="m 343.32561,236.68594 c -65.58741,-18.3407 -88.05932,-58.96102 -50.19241,-90.72803 37.86691,-31.76701 121.7332,-42.6512 187.32061,-24.3105 65.58741,18.34069 88.05932,58.96101 50.19241,90.72802 -37.84146,31.74567 -121.62842,42.64023 -187.20769,24.34205"
         sodipodi:ry="66.417526"
         sodipodi:rx="137.1282"
         sodipodi:cy="179.16667"
         sodipodi:cx="411.88971"
         id="path10258-4-07"
         style="fill:none;stroke:#000000;stroke-width:3;stroke-miterlimit:4;stroke-opacity:1;stroke-dasharray:none"
         sodipodi:type="arc" />
      <text
         sodipodi:linespacing="125%"
         id="text10768-1-17"
         y="625.20386"
         x="294.6713"
         style="font-size:24px;font-style:normal;font-weight:normal;line-height:125%;letter-spacing:0px;word-spacing:0px;fill:#000000;fill-opacity:1;stroke:none;font-family:Sans;-inkscape-font-specification:Sans"
         xml:space="preserve"><tspan
           y="625.20386"
           x="294.6713"
           id="tspan10770-2-7"
           sodipodi:role="line">Villain#n</tspan></text>
    </g>
    <g
       id="g10796-6-7"
       transform="matrix(0.82293014,0,0,0.82293014,9.856956,218.02803)">
      <g
         id="g10884"
         transform="translate(-89.401791,-4.3398928)">
        <path
           sodipodi:type="arc"
           style="fill:none;stroke:#000000;stroke-width:3;stroke-miterlimit:4;stroke-opacity:1;stroke-dasharray:none"
           id="path10258-4-07-7"
           sodipodi:cx="411.88971"
           sodipodi:cy="179.16667"
           sodipodi:rx="137.1282"
           sodipodi:ry="66.417526"
           d="m 343.32561,236.68594 c -65.58741,-18.3407 -88.05932,-58.96102 -50.19241,-90.72803 37.86691,-31.76701 121.7332,-42.6512 187.32061,-24.3105 65.58741,18.34069 88.05932,58.96101 50.19241,90.72802 -37.84146,31.74567 -121.62842,42.64023 -187.20769,24.34205"
           transform="matrix(0.45279698,0,0,0.42871542,153.919,540.21102)"
           sodipodi:start="2.0943951"
           sodipodi:end="8.3766298"
           sodipodi:open="true" />
        <text
           xml:space="preserve"
           style="font-size:24px;font-style:normal;font-weight:normal;line-height:125%;letter-spacing:0px;word-spacing:0px;fill:#000000;fill-opacity:1;stroke:none;font-family:Sans;-inkscape-font-specification:Sans"
           x="310.04218"
           y="625.00342"
           id="text10768-1-17-3"
           sodipodi:linespacing="125%"><tspan
             sodipodi:role="line"
             id="tspan10770-2-7-3"
             x="310.04218"
             y="625.00342">run#v</tspan></text>
      </g>
      <g
         id="g10884-5"
         transform="translate(84.193917,-7.6427248)">
        <path
           sodipodi:type="arc"
           style="fill:none;stroke:#000000;stroke-width:3;stroke-miterlimit:4;stroke-opacity:1;stroke-dasharray:none"
           id="path10258-4-07-7-9"
           sodipodi:cx="411.88971"
           sodipodi:cy="179.16667"
           sodipodi:rx="137.1282"
           sodipodi:ry="66.417526"
           d="m 343.32561,236.68594 c -65.58741,-18.3407 -88.05932,-58.96102 -50.19241,-90.72803 37.86691,-31.76701 121.7332,-42.6512 187.32061,-24.3105 65.58741,18.34069 88.05932,58.96101 50.19241,90.72802 -37.84146,31.74567 -121.62842,42.64023 -187.20769,24.34205"
           transform="matrix(0.45279698,0,0,0.42871542,153.919,540.21102)"
           sodipodi:start="2.0943951"
           sodipodi:end="8.3766298"
           sodipodi:open="true" />
        <text
           xml:space="preserve"
           style="font-size:24px;font-style:normal;font-weight:normal;line-height:125%;letter-spacing:0px;word-spacing:0px;fill:#000000;fill-opacity:1;stroke:none;font-family:Sans;-inkscape-font-specification:Sans"
           x="293.55057"
           y="625.8714"
           id="text10768-1-17-3-9"
           sodipodi:linespacing="125%"><tspan
             sodipodi:role="line"
             id="tspan10770-2-7-3-8"
             x="293.55057"
             y="625.8714">toward#r</tspan></text>
      </g>
      <g
         id="g10884-5-1"
         transform="translate(279.48909,-10.246664)">
        <path
           sodipodi:type="arc"
           style="fill:none;stroke:#000000;stroke-width:3;stroke-miterlimit:4;stroke-opacity:1;stroke-dasharray:none"
           id="path10258-4-07-7-9-8"
           sodipodi:cx="411.88971"
           sodipodi:cy="179.16667"
           sodipodi:rx="137.1282"
           sodipodi:ry="66.417526"
           d="m 343.32561,236.68594 c -65.58741,-18.3407 -88.05932,-58.96102 -50.19241,-90.72803 37.86691,-31.76701 121.7332,-42.6512 187.32061,-24.3105 65.58741,18.34069 88.05932,58.96101 50.19241,90.72802 -37.84146,31.74567 -121.62842,42.64023 -187.20769,24.34205"
           transform="matrix(0.45279698,0,0,0.42871542,153.919,540.21102)"
           sodipodi:start="2.0943951"
           sodipodi:end="8.3766298"
           sodipodi:open="true" />
        <text
           xml:space="preserve"
           style="font-size:24px;font-style:normal;font-weight:normal;line-height:125%;letter-spacing:0px;word-spacing:0px;fill:#000000;fill-opacity:1;stroke:none;font-family:Sans;-inkscape-font-specification:Sans"
           x="305.70227"
           y="625.8714"
           id="text10768-1-17-3-9-2"
           sodipodi:linespacing="125%"><tspan
             sodipodi:role="line"
             id="tspan10770-2-7-3-8-6"
             x="305.70227"
             y="625.8714">bank#n</tspan></text>
      </g>
    </g>
  </g>
</svg>
