<?xml version="1.0" encoding="UTF-8" standalone="no"?>
<!-- Created with Inkscape (http://www.inkscape.org/) -->

<svg
   xmlns:dc="http://purl.org/dc/elements/1.1/"
   xmlns:cc="http://creativecommons.org/ns#"
   xmlns:rdf="http://www.w3.org/1999/02/22-rdf-syntax-ns#"
   xmlns:svg="http://www.w3.org/2000/svg"
   xmlns="http://www.w3.org/2000/svg"
   xmlns:sodipodi="http://sodipodi.sourceforge.net/DTD/sodipodi-0.dtd"
   xmlns:inkscape="http://www.inkscape.org/namespaces/inkscape"
   width="155.83717mm"
   height="96.406029mm"
   viewBox="0 0 155.83717 96.406027"
   id="svg2"
   version="1.1"
   inkscape:version="0.91+devel+osxmenu r12876"
   sodipodi:docname="mid_case.svg">
  <defs
     id="defs4">
    <marker
       inkscape:isstock="true"
       style="overflow:visible;"
       id="marker23257"
       refX="0.0"
       refY="0.0"
       orient="auto"
       inkscape:stockid="Arrow1Lend">
      <path
         transform="scale(0.8) rotate(180) translate(12.5,0)"
         style="fill-rule:evenodd;stroke:#000000;stroke-width:1pt;stroke-opacity:1;fill:#000000;fill-opacity:1"
         d="M 0.0,0.0 L 5.0,-5.0 L -12.5,0.0 L 5.0,5.0 L 0.0,0.0 z "
         id="path23259" />
    </marker>
    <marker
       inkscape:stockid="Arrow1Lend"
       orient="auto"
       refY="0.0"
       refX="0.0"
       id="marker22933"
       style="overflow:visible;"
       inkscape:isstock="true"
       inkscape:collect="always">
      <path
         id="path22935"
         d="M 0.0,0.0 L 5.0,-5.0 L -12.5,0.0 L 5.0,5.0 L 0.0,0.0 z "
         style="fill-rule:evenodd;stroke:#000000;stroke-width:1pt;stroke-opacity:1;fill:#000000;fill-opacity:1"
         transform="scale(0.8) rotate(180) translate(12.5,0)" />
    </marker>
    <marker
       inkscape:isstock="true"
       style="overflow:visible;"
       id="marker22609"
       refX="0.0"
       refY="0.0"
       orient="auto"
       inkscape:stockid="Arrow1Lend"
       inkscape:collect="always">
      <path
         transform="scale(0.8) rotate(180) translate(12.5,0)"
         style="fill-rule:evenodd;stroke:#000000;stroke-width:1pt;stroke-opacity:1;fill:#000000;fill-opacity:1"
         d="M 0.0,0.0 L 5.0,-5.0 L -12.5,0.0 L 5.0,5.0 L 0.0,0.0 z "
         id="path22611" />
    </marker>
    <marker
       inkscape:stockid="Arrow1Lend"
       orient="auto"
       refY="0.0"
       refX="0.0"
       id="marker22315"
       style="overflow:visible;"
       inkscape:isstock="true"
       inkscape:collect="always">
      <path
         id="path22317"
         d="M 0.0,0.0 L 5.0,-5.0 L -12.5,0.0 L 5.0,5.0 L 0.0,0.0 z "
         style="fill-rule:evenodd;stroke:#000000;stroke-width:1pt;stroke-opacity:1;fill:#000000;fill-opacity:1"
         transform="scale(0.8) rotate(180) translate(12.5,0)" />
    </marker>
    <marker
       inkscape:isstock="true"
       style="overflow:visible;"
       id="marker21841"
       refX="0.0"
       refY="0.0"
       orient="auto"
       inkscape:stockid="Arrow1Lend"
       inkscape:collect="always">
      <path
         transform="scale(0.8) rotate(180) translate(12.5,0)"
         style="fill-rule:evenodd;stroke:#000000;stroke-width:1pt;stroke-opacity:1;fill:#000000;fill-opacity:1"
         d="M 0.0,0.0 L 5.0,-5.0 L -12.5,0.0 L 5.0,5.0 L 0.0,0.0 z "
         id="path21843" />
    </marker>
    <marker
       inkscape:stockid="Arrow1Lend"
       orient="auto"
       refY="0.0"
       refX="0.0"
       id="marker21343"
       style="overflow:visible;"
       inkscape:isstock="true"
       inkscape:collect="always">
      <path
         id="path21345"
         d="M 0.0,0.0 L 5.0,-5.0 L -12.5,0.0 L 5.0,5.0 L 0.0,0.0 z "
         style="fill-rule:evenodd;stroke:#000000;stroke-width:1pt;stroke-opacity:1;fill:#000000;fill-opacity:1"
         transform="scale(0.8) rotate(180) translate(12.5,0)" />
    </marker>
    <marker
       inkscape:isstock="true"
       style="overflow:visible;"
       id="marker20977"
       refX="0.0"
       refY="0.0"
       orient="auto"
       inkscape:stockid="Arrow1Lend">
      <path
         transform="scale(0.8) rotate(180) translate(12.5,0)"
         style="fill-rule:evenodd;stroke:#000000;stroke-width:1pt;stroke-opacity:1;fill:#000000;fill-opacity:1"
         d="M 0.0,0.0 L 5.0,-5.0 L -12.5,0.0 L 5.0,5.0 L 0.0,0.0 z "
         id="path20979" />
    </marker>
    <marker
       inkscape:isstock="true"
       style="overflow:visible;"
       id="marker20459"
       refX="0.0"
       refY="0.0"
       orient="auto"
       inkscape:stockid="Arrow1Lend">
      <path
         transform="scale(0.8) rotate(180) translate(12.5,0)"
         style="fill-rule:evenodd;stroke:#000000;stroke-width:1pt;stroke-opacity:1;fill:#000000;fill-opacity:1"
         d="M 0.0,0.0 L 5.0,-5.0 L -12.5,0.0 L 5.0,5.0 L 0.0,0.0 z "
         id="path20461" />
    </marker>
    <marker
       inkscape:stockid="Arrow1Lend"
       orient="auto"
       refY="0.0"
       refX="0.0"
       id="marker20231"
       style="overflow:visible;"
       inkscape:isstock="true">
      <path
         id="path20233"
         d="M 0.0,0.0 L 5.0,-5.0 L -12.5,0.0 L 5.0,5.0 L 0.0,0.0 z "
         style="fill-rule:evenodd;stroke:#000000;stroke-width:1pt;stroke-opacity:1;fill:#000000;fill-opacity:1"
         transform="scale(0.8) rotate(180) translate(12.5,0)" />
    </marker>
    <marker
       inkscape:stockid="Arrow1Lend"
       orient="auto"
       refY="0.0"
       refX="0.0"
       id="marker19955"
       style="overflow:visible;"
       inkscape:isstock="true"
       inkscape:collect="always">
      <path
         id="path19957"
         d="M 0.0,0.0 L 5.0,-5.0 L -12.5,0.0 L 5.0,5.0 L 0.0,0.0 z "
         style="fill-rule:evenodd;stroke:#000000;stroke-width:1pt;stroke-opacity:1;fill:#000000;fill-opacity:1"
         transform="scale(0.8) rotate(180) translate(12.5,0)" />
    </marker>
    <marker
       inkscape:isstock="true"
       style="overflow:visible;"
       id="marker19757"
       refX="0.0"
       refY="0.0"
       orient="auto"
       inkscape:stockid="Arrow1Lend"
       inkscape:collect="always">
      <path
         transform="scale(0.8) rotate(180) translate(12.5,0)"
         style="fill-rule:evenodd;stroke:#000000;stroke-width:1pt;stroke-opacity:1;fill:#000000;fill-opacity:1"
         d="M 0.0,0.0 L 5.0,-5.0 L -12.5,0.0 L 5.0,5.0 L 0.0,0.0 z "
         id="path19759" />
    </marker>
    <marker
       inkscape:stockid="Arrow1Lend"
       orient="auto"
       refY="0.0"
       refX="0.0"
       id="Arrow1Lend"
       style="overflow:visible;"
       inkscape:isstock="true"
       inkscape:collect="always">
      <path
         id="path12050"
         d="M 0.0,0.0 L 5.0,-5.0 L -12.5,0.0 L 5.0,5.0 L 0.0,0.0 z "
         style="fill-rule:evenodd;stroke:#000000;stroke-width:1pt;stroke-opacity:1;fill:#000000;fill-opacity:1"
         transform="scale(0.8) rotate(180) translate(12.5,0)" />
    </marker>
    <marker
       inkscape:isstock="true"
       style="overflow:visible"
       id="marker7447"
       refX="0"
       refY="0"
       orient="auto"
       inkscape:stockid="Arrow1Lend">
      <path
         inkscape:connector-curvature="0"
         transform="matrix(-0.8,0,0,-0.8,-10,0)"
         style="fill:#000000;fill-opacity:1;fill-rule:evenodd;stroke:#000000;stroke-width:1.00000003pt;stroke-opacity:1"
         d="M 0,0 5,-5 -12.5,0 5,5 0,0 Z"
         id="path7449" />
    </marker>
    <marker
       inkscape:stockid="Arrow1Lend"
       orient="auto"
       refY="0"
       refX="0"
       id="marker7159"
       style="overflow:visible"
       inkscape:isstock="true">
      <path
         id="path7161"
         d="M 0,0 5,-5 -12.5,0 5,5 0,0 Z"
         style="fill:#000000;fill-opacity:1;fill-rule:evenodd;stroke:#000000;stroke-width:1.00000003pt;stroke-opacity:1"
         transform="matrix(-0.8,0,0,-0.8,-10,0)"
         inkscape:connector-curvature="0" />
    </marker>
  </defs>
  <sodipodi:namedview
     id="base"
     pagecolor="#ffffff"
     bordercolor="#666666"
     borderopacity="1.0"
     inkscape:pageopacity="0.0"
     inkscape:pageshadow="2"
     inkscape:zoom="1.4142136"
     inkscape:cx="300.96165"
     inkscape:cy="94.55873"
     inkscape:document-units="mm"
     inkscape:current-layer="layer1"
     showgrid="false"
     inkscape:window-width="1731"
     inkscape:window-height="1151"
     inkscape:window-x="184"
     inkscape:window-y="95"
     inkscape:window-maximized="0"
     fit-margin-top="0"
     fit-margin-left="0"
     fit-margin-right="0"
     fit-margin-bottom="0" />
  <metadata
     id="metadata7">
    <rdf:RDF>
      <cc:Work
         rdf:about="">
        <dc:format>image/svg+xml</dc:format>
        <dc:type
           rdf:resource="http://purl.org/dc/dcmitype/StillImage" />
        <dc:title></dc:title>
      </cc:Work>
    </rdf:RDF>
  </metadata>
  <g
     inkscape:label="Layer 1"
     inkscape:groupmode="layer"
     id="layer1"
     transform="translate(23.77895,-50.687508)">
    <rect
       y="83.216698"
       x="29.954613"
       height="63.626839"
       width="25.124382"
       id="rect4554"
       style="fill:#000000;fill-opacity:0.06441716;stroke:#000000;stroke-width:0.5;stroke-miterlimit:4;stroke-dasharray:none;stroke-dashoffset:0;stroke-opacity:1" />
    <text
       xml:space="preserve"
       style="font-style:normal;font-variant:normal;font-weight:bold;font-stretch:normal;font-size:4.23333359px;line-height:100%;font-family:'Century Gothic';-inkscape-font-specification:'Century Gothic Bold';text-align:end;letter-spacing:0px;word-spacing:0px;writing-mode:lr-tb;text-anchor:end;fill:#000000;fill-opacity:1;stroke:none;stroke-width:1px;stroke-linecap:butt;stroke-linejoin:miter;stroke-opacity:1"
       x="7.1815476"
       y="72.860123"
       id="text4528"
       sodipodi:linespacing="100%"><tspan
         sodipodi:role="line"
         id="tspan4530"
         x="7.1815476"
         y="72.860123" /></text>
    <text
       xml:space="preserve"
       style="font-style:normal;font-variant:normal;font-weight:bold;font-stretch:normal;font-size:4.23333359px;line-height:100%;font-family:sans-serif;-inkscape-font-specification:'sans-serif, Bold';text-align:end;letter-spacing:0px;word-spacing:0px;writing-mode:lr-tb;text-anchor:end;fill:#000000;fill-opacity:1;stroke:none;stroke-width:1px;stroke-linecap:butt;stroke-linejoin:miter;stroke-opacity:1"
       x="42.711311"
       y="74.372025"
       id="text4534"
       sodipodi:linespacing="100%"><tspan
         sodipodi:role="line"
         id="tspan4536"
         x="42.711311"
         y="74.372025" /></text>
    <text
       sodipodi:linespacing="100%"
       id="text4546"
       y="88.130386"
       x="44.166531"
       style="font-style:normal;font-variant:normal;font-weight:normal;font-stretch:normal;font-size:4.93888903px;line-height:100%;font-family:'Century Gothic';-inkscape-font-specification:'Century Gothic, Normal';text-align:end;letter-spacing:0px;word-spacing:0px;writing-mode:lr-tb;text-anchor:end;fill:#000000;fill-opacity:1;stroke:none;stroke-width:1px;stroke-linecap:butt;stroke-linejoin:miter;stroke-opacity:1"
       xml:space="preserve"><tspan
         y="88.130386"
         x="44.166531"
         id="tspan4548"
         sodipodi:role="line">L1 -V<tspan
   id="tspan4550"
   style="font-style:normal;font-variant:normal;font-weight:normal;font-stretch:normal;font-size:3.52777791px;line-height:100%;font-family:'Century Gothic';-inkscape-font-specification:'Century Gothic, Normal';text-align:end;writing-mode:lr-tb;baseline-shift:sub;text-anchor:end">1</tspan></tspan></text>
    <g
       id="g4602"
       transform="translate(0,32.279181)">
      <rect
         y="59.101784"
         x="34.64151"
         height="23.906998"
         width="16.63096"
         id="rect4544"
         style="fill:#000000;fill-opacity:0.06441716;stroke:#000000;stroke-width:0.25;stroke-miterlimit:4;stroke-dasharray:none;stroke-dashoffset:0;stroke-opacity:1" />
      <text
         sodipodi:linespacing="100%"
         id="text4538"
         y="62.614799"
         x="38.675079"
         style="font-style:normal;font-variant:normal;font-weight:normal;font-stretch:normal;font-size:3.83077717px;line-height:100%;font-family:'Century Gothic';-inkscape-font-specification:'Century Gothic, Normal';text-align:end;letter-spacing:0px;word-spacing:0px;writing-mode:lr-tb;text-anchor:end;fill:#000000;fill-opacity:1;stroke:none;stroke-width:1px;stroke-linecap:butt;stroke-linejoin:miter;stroke-opacity:1"
         xml:space="preserve"><tspan
           y="62.614799"
           x="38.675079"
           id="tspan4540"
           sodipodi:role="line">E<tspan
   id="tspan4542"
   style="font-style:normal;font-variant:normal;font-weight:normal;font-stretch:normal;font-size:2.73626947px;line-height:100%;font-family:'Century Gothic';-inkscape-font-specification:'Century Gothic, Normal';text-align:end;writing-mode:lr-tb;baseline-shift:sub;text-anchor:end">1</tspan></tspan></text>
      <g
         id="g4566">
        <rect
           y="60.575897"
           x="40.254459"
           height="5.7743149"
           width="6.0418124"
           id="rect4558"
           style="fill:#000000;fill-opacity:0.06441716;stroke:#000000;stroke-width:0.1;stroke-miterlimit:4;stroke-dasharray:none;stroke-dashoffset:0;stroke-opacity:1" />
        <text
           sodipodi:linespacing="100%"
           id="text4560"
           y="64.844856"
           x="44.439213"
           style="font-style:normal;font-variant:normal;font-weight:normal;font-stretch:normal;font-size:3.83077717px;line-height:100%;font-family:'Century Gothic';-inkscape-font-specification:'Century Gothic, Normal';text-align:end;letter-spacing:0px;word-spacing:0px;writing-mode:lr-tb;text-anchor:end;fill:#000000;fill-opacity:1;stroke:none;stroke-width:1px;stroke-linecap:butt;stroke-linejoin:miter;stroke-opacity:1"
           xml:space="preserve"><tspan
             y="64.844856"
             x="44.439213"
             id="tspan4562"
             sodipodi:role="line">S<tspan
   id="tspan4564"
   style="font-style:normal;font-variant:normal;font-weight:normal;font-stretch:normal;font-size:2.73626947px;line-height:100%;font-family:'Century Gothic';-inkscape-font-specification:'Century Gothic, Normal';text-align:end;writing-mode:lr-tb;baseline-shift:sub;text-anchor:end">1</tspan></tspan></text>
      </g>
      <g
         transform="translate(0,6.8791671)"
         id="g4572" />
      <g
         id="g4582"
         transform="translate(0,15.875004)">
        <rect
           y="60.575897"
           x="40.254459"
           height="5.7743149"
           width="6.0418124"
           id="rect4584"
           style="fill:#000000;fill-opacity:0.06441716;stroke:#000000;stroke-width:0.1;stroke-miterlimit:4;stroke-dasharray:none;stroke-dashoffset:0;stroke-opacity:1" />
        <text
           sodipodi:linespacing="100%"
           id="text4586"
           y="64.844856"
           x="44.439213"
           style="font-style:normal;font-variant:normal;font-weight:normal;font-stretch:normal;font-size:3.83077717px;line-height:100%;font-family:'Century Gothic';-inkscape-font-specification:'Century Gothic, Normal';text-align:end;letter-spacing:0px;word-spacing:0px;writing-mode:lr-tb;text-anchor:end;fill:#000000;fill-opacity:1;stroke:none;stroke-width:1px;stroke-linecap:butt;stroke-linejoin:miter;stroke-opacity:1"
           xml:space="preserve"><tspan
             y="64.844856"
             x="44.439213"
             id="tspan4588"
             sodipodi:role="line">S<tspan
   id="tspan4590"
   style="font-style:normal;font-variant:normal;font-weight:normal;font-stretch:normal;font-size:2.73626947px;line-height:100%;font-family:'Century Gothic';-inkscape-font-specification:'Century Gothic, Normal';text-align:end;writing-mode:lr-tb;baseline-shift:sub;text-anchor:end">n</tspan></tspan></text>
        <text
           xml:space="preserve"
           style="font-style:normal;font-variant:normal;font-weight:normal;font-stretch:normal;font-size:3.83077717px;line-height:100%;font-family:'Century Gothic';-inkscape-font-specification:'Century Gothic, Normal';text-align:end;letter-spacing:0px;word-spacing:0px;writing-mode:lr-tb;text-anchor:end;fill:#000000;fill-opacity:1;stroke:none;stroke-width:1px;stroke-linecap:butt;stroke-linejoin:miter;stroke-opacity:1"
           x="44.439213"
           y="55.849014"
           id="text4596"
           sodipodi:linespacing="100%"><tspan
             sodipodi:role="line"
             id="tspan4598"
             x="44.439213"
             y="55.849014">...</tspan></text>
        <text
           sodipodi:linespacing="100%"
           id="text7360"
           y="-47.991322"
           x="57.229443"
           style="font-style:normal;font-variant:normal;font-weight:normal;font-stretch:normal;font-size:3.83077717px;line-height:100%;font-family:'Century Gothic';-inkscape-font-specification:'Century Gothic, Normal';text-align:end;letter-spacing:0px;word-spacing:0px;writing-mode:lr-tb;text-anchor:end;fill:#000000;fill-opacity:1;stroke:none;stroke-width:1px;stroke-linecap:butt;stroke-linejoin:miter;stroke-opacity:1"
           xml:space="preserve"
           transform="rotate(90)"><tspan
             y="-47.991322"
             x="57.229443"
             id="tspan7362"
             sodipodi:role="line">...</tspan></text>
      </g>
    </g>
    <g
       id="g4625"
       transform="translate(0,65.616702)">
      <rect
         style="fill:#000000;fill-opacity:0.06441716;stroke:#000000;stroke-width:0.25;stroke-miterlimit:4;stroke-dasharray:none;stroke-dashoffset:0;stroke-opacity:1"
         id="rect4627"
         width="16.63096"
         height="23.906998"
         x="34.64151"
         y="54.868446" />
      <text
         xml:space="preserve"
         style="font-style:normal;font-variant:normal;font-weight:normal;font-stretch:normal;font-size:3.83077717px;line-height:100%;font-family:'Century Gothic';-inkscape-font-specification:'Century Gothic, Normal';text-align:end;letter-spacing:0px;word-spacing:0px;writing-mode:lr-tb;text-anchor:end;fill:#000000;fill-opacity:1;stroke:none;stroke-width:1px;stroke-linecap:butt;stroke-linejoin:miter;stroke-opacity:1"
         x="38.675079"
         y="58.381462"
         id="text4629"
         sodipodi:linespacing="100%"><tspan
           sodipodi:role="line"
           id="tspan4631"
           x="38.675079"
           y="58.381462">E<tspan
   style="font-style:normal;font-variant:normal;font-weight:normal;font-stretch:normal;font-size:2.73626947px;line-height:100%;font-family:'Century Gothic';-inkscape-font-specification:'Century Gothic, Normal';text-align:end;writing-mode:lr-tb;baseline-shift:sub;text-anchor:end"
   id="tspan4633">n</tspan></tspan></text>
      <g
         id="g4635"
         transform="translate(0,-4.2333336)">
        <rect
           style="fill:#000000;fill-opacity:0.06441716;stroke:#000000;stroke-width:0.1;stroke-miterlimit:4;stroke-dasharray:none;stroke-dashoffset:0;stroke-opacity:1"
           id="rect4637"
           width="6.0418124"
           height="5.7743149"
           x="40.254459"
           y="60.575897" />
        <text
           xml:space="preserve"
           style="font-style:normal;font-variant:normal;font-weight:normal;font-stretch:normal;font-size:3.83077717px;line-height:100%;font-family:'Century Gothic';-inkscape-font-specification:'Century Gothic, Normal';text-align:end;letter-spacing:0px;word-spacing:0px;writing-mode:lr-tb;text-anchor:end;fill:#000000;fill-opacity:1;stroke:none;stroke-width:1px;stroke-linecap:butt;stroke-linejoin:miter;stroke-opacity:1"
           x="44.439213"
           y="64.844856"
           id="text4639"
           sodipodi:linespacing="100%"><tspan
             sodipodi:role="line"
             id="tspan4641"
             x="44.439213"
             y="64.844856">S<tspan
   style="font-style:normal;font-variant:normal;font-weight:normal;font-stretch:normal;font-size:2.73626947px;line-height:100%;font-family:'Century Gothic';-inkscape-font-specification:'Century Gothic, Normal';text-align:end;writing-mode:lr-tb;baseline-shift:sub;text-anchor:end"
   id="tspan4643">1</tspan></tspan></text>
      </g>
      <g
         id="g4645"
         transform="translate(0,2.6458335)">
        <rect
           y="60.575897"
           x="40.254459"
           height="5.7743149"
           width="6.0418124"
           id="rect4647"
           style="fill:#000000;fill-opacity:0.06441716;stroke:#000000;stroke-width:0.1;stroke-miterlimit:4;stroke-dasharray:none;stroke-dashoffset:0;stroke-opacity:1" />
        <text
           sodipodi:linespacing="100%"
           id="text4649"
           y="64.844856"
           x="44.439213"
           style="font-style:normal;font-variant:normal;font-weight:normal;font-stretch:normal;font-size:3.83077717px;line-height:100%;font-family:'Century Gothic';-inkscape-font-specification:'Century Gothic, Normal';text-align:end;letter-spacing:0px;word-spacing:0px;writing-mode:lr-tb;text-anchor:end;fill:#000000;fill-opacity:1;stroke:none;stroke-width:1px;stroke-linecap:butt;stroke-linejoin:miter;stroke-opacity:1"
           xml:space="preserve"><tspan
             y="64.844856"
             x="44.439213"
             id="tspan4651"
             sodipodi:role="line">S<tspan
   id="tspan4653"
   style="font-style:normal;font-variant:normal;font-weight:normal;font-stretch:normal;font-size:2.73626947px;line-height:100%;font-family:'Century Gothic';-inkscape-font-specification:'Century Gothic, Normal';text-align:end;writing-mode:lr-tb;baseline-shift:sub;text-anchor:end">2</tspan></tspan></text>
      </g>
      <g
         transform="translate(0,11.641668)"
         id="g4655">
        <rect
           style="fill:#000000;fill-opacity:0.06441716;stroke:#000000;stroke-width:0.1;stroke-miterlimit:4;stroke-dasharray:none;stroke-dashoffset:0;stroke-opacity:1"
           id="rect4657"
           width="6.0418124"
           height="5.7743149"
           x="40.254459"
           y="60.575897" />
        <text
           xml:space="preserve"
           style="font-style:normal;font-variant:normal;font-weight:normal;font-stretch:normal;font-size:3.83077717px;line-height:100%;font-family:'Century Gothic';-inkscape-font-specification:'Century Gothic, Normal';text-align:end;letter-spacing:0px;word-spacing:0px;writing-mode:lr-tb;text-anchor:end;fill:#000000;fill-opacity:1;stroke:none;stroke-width:1px;stroke-linecap:butt;stroke-linejoin:miter;stroke-opacity:1"
           x="44.439213"
           y="64.844856"
           id="text4659"
           sodipodi:linespacing="100%"><tspan
             sodipodi:role="line"
             id="tspan4661"
             x="44.439213"
             y="64.844856">S<tspan
   style="font-style:normal;font-variant:normal;font-weight:normal;font-stretch:normal;font-size:2.73626947px;line-height:100%;font-family:'Century Gothic';-inkscape-font-specification:'Century Gothic, Normal';text-align:end;writing-mode:lr-tb;baseline-shift:sub;text-anchor:end"
   id="tspan4663">n</tspan></tspan></text>
        <text
           sodipodi:linespacing="100%"
           id="text4665"
           y="59.024017"
           x="44.439213"
           style="font-style:normal;font-variant:normal;font-weight:normal;font-stretch:normal;font-size:3.83077717px;line-height:100%;font-family:'Century Gothic';-inkscape-font-specification:'Century Gothic, Normal';text-align:end;letter-spacing:0px;word-spacing:0px;writing-mode:lr-tb;text-anchor:end;fill:#000000;fill-opacity:1;stroke:none;stroke-width:1px;stroke-linecap:butt;stroke-linejoin:miter;stroke-opacity:1"
           xml:space="preserve"><tspan
             y="59.024017"
             x="44.439213"
             id="tspan4667"
             sodipodi:role="line">...</tspan></text>
      </g>
    </g>
    <text
       xml:space="preserve"
       style="font-style:normal;font-variant:normal;font-weight:normal;font-stretch:normal;font-size:4.93888903px;line-height:100%;font-family:'Century Gothic';-inkscape-font-specification:'Century Gothic, Normal';text-align:end;letter-spacing:0px;word-spacing:0px;writing-mode:lr-tb;text-anchor:end;fill:#000000;fill-opacity:1;stroke:none;stroke-width:1px;stroke-linecap:butt;stroke-linejoin:miter;stroke-opacity:1"
       x="45.224865"
       y="118.2929"
       id="text4669"
       sodipodi:linespacing="100%"><tspan
         sodipodi:role="line"
         id="tspan4671"
         x="45.224865"
         y="118.2929">...</tspan></text>
    <rect
       style="fill:#000000;fill-opacity:0.06441716;stroke:#000000;stroke-width:0.5;stroke-miterlimit:4;stroke-dasharray:none;stroke-dashoffset:0;stroke-opacity:1"
       id="rect4675"
       width="25.124382"
       height="63.626839"
       x="106.68385"
       y="50.9375" />
    <text
       xml:space="preserve"
       style="font-style:normal;font-variant:normal;font-weight:normal;font-stretch:normal;font-size:4.93888903px;line-height:100%;font-family:'Century Gothic';-inkscape-font-specification:'Century Gothic, Normal';text-align:end;letter-spacing:0px;word-spacing:0px;writing-mode:lr-tb;text-anchor:end;fill:#000000;fill-opacity:1;stroke:none;stroke-width:1px;stroke-linecap:butt;stroke-linejoin:miter;stroke-opacity:1"
       x="122.48322"
       y="56.38036"
       id="text4677"
       sodipodi:linespacing="100%"><tspan
         sodipodi:role="line"
         id="tspan4679"
         x="122.48322"
         y="56.38036">L2 - V<tspan
   style="font-style:normal;font-variant:normal;font-weight:normal;font-stretch:normal;font-size:3.52777791px;line-height:100%;font-family:'Century Gothic';-inkscape-font-specification:'Century Gothic, Normal';text-align:end;writing-mode:lr-tb;baseline-shift:sub;text-anchor:end"
   id="tspan4681">1</tspan></tspan></text>
    <g
       id="g4683"
       transform="translate(76.729209)">
      <rect
         style="fill:#000000;fill-opacity:0.06441716;stroke:#000000;stroke-width:0.25;stroke-miterlimit:4;stroke-dasharray:none;stroke-dashoffset:0;stroke-opacity:1"
         id="rect4685"
         width="16.63096"
         height="23.906998"
         x="35.170677"
         y="59.101784" />
      <text
         xml:space="preserve"
         style="font-style:normal;font-variant:normal;font-weight:normal;font-stretch:normal;font-size:3.83077717px;line-height:100%;font-family:'Century Gothic';-inkscape-font-specification:'Century Gothic, Normal';text-align:end;letter-spacing:0px;word-spacing:0px;writing-mode:lr-tb;text-anchor:end;fill:#000000;fill-opacity:1;stroke:none;stroke-width:1px;stroke-linecap:butt;stroke-linejoin:miter;stroke-opacity:1"
         x="50.845924"
         y="62.614799"
         id="text4687"
         sodipodi:linespacing="100%"><tspan
           sodipodi:role="line"
           id="tspan4689"
           x="50.845924"
           y="62.614799">E<tspan
   style="font-style:normal;font-variant:normal;font-weight:normal;font-stretch:normal;font-size:2.73626947px;line-height:100%;font-family:'Century Gothic';-inkscape-font-specification:'Century Gothic, Normal';text-align:end;writing-mode:lr-tb;baseline-shift:sub;text-anchor:end"
   id="tspan4691">1</tspan></tspan></text>
      <g
         id="g4693">
        <rect
           style="fill:#000000;fill-opacity:0.06441716;stroke:#000000;stroke-width:0.1;stroke-miterlimit:4;stroke-dasharray:none;stroke-dashoffset:0;stroke-opacity:1"
           id="rect4695"
           width="6.0418124"
           height="5.7743149"
           x="40.254459"
           y="60.575897" />
        <text
           xml:space="preserve"
           style="font-style:normal;font-variant:normal;font-weight:normal;font-stretch:normal;font-size:3.83077717px;line-height:100%;font-family:'Century Gothic';-inkscape-font-specification:'Century Gothic, Normal';text-align:end;letter-spacing:0px;word-spacing:0px;writing-mode:lr-tb;text-anchor:end;fill:#000000;fill-opacity:1;stroke:none;stroke-width:1px;stroke-linecap:butt;stroke-linejoin:miter;stroke-opacity:1"
           x="44.439213"
           y="64.844856"
           id="text4697"
           sodipodi:linespacing="100%"><tspan
             sodipodi:role="line"
             id="tspan4699"
             x="44.439213"
             y="64.844856">S<tspan
   style="font-style:normal;font-variant:normal;font-weight:normal;font-stretch:normal;font-size:2.73626947px;line-height:100%;font-family:'Century Gothic';-inkscape-font-specification:'Century Gothic, Normal';text-align:end;writing-mode:lr-tb;baseline-shift:sub;text-anchor:end"
   id="tspan4701">1</tspan></tspan></text>
      </g>
      <g
         id="g4703"
         transform="translate(0,6.8791671)">
        <rect
           y="60.575897"
           x="40.254459"
           height="5.7743149"
           width="6.0418124"
           id="rect4705"
           style="fill:#000000;fill-opacity:0.06441716;stroke:#000000;stroke-width:0.1;stroke-miterlimit:4;stroke-dasharray:none;stroke-dashoffset:0;stroke-opacity:1" />
        <text
           sodipodi:linespacing="100%"
           id="text4707"
           y="64.844856"
           x="44.439213"
           style="font-style:normal;font-variant:normal;font-weight:normal;font-stretch:normal;font-size:3.83077717px;line-height:100%;font-family:'Century Gothic';-inkscape-font-specification:'Century Gothic, Normal';text-align:end;letter-spacing:0px;word-spacing:0px;writing-mode:lr-tb;text-anchor:end;fill:#000000;fill-opacity:1;stroke:none;stroke-width:1px;stroke-linecap:butt;stroke-linejoin:miter;stroke-opacity:1"
           xml:space="preserve"><tspan
             y="64.844856"
             x="44.439213"
             id="tspan4709"
             sodipodi:role="line">S<tspan
   id="tspan4711"
   style="font-style:normal;font-variant:normal;font-weight:normal;font-stretch:normal;font-size:2.73626947px;line-height:100%;font-family:'Century Gothic';-inkscape-font-specification:'Century Gothic, Normal';text-align:end;writing-mode:lr-tb;baseline-shift:sub;text-anchor:end">2</tspan></tspan></text>
      </g>
      <g
         transform="translate(0,15.875004)"
         id="g4713">
        <rect
           style="fill:#000000;fill-opacity:0.06441716;stroke:#000000;stroke-width:0.1;stroke-miterlimit:4;stroke-dasharray:none;stroke-dashoffset:0;stroke-opacity:1"
           id="rect4715"
           width="6.0418124"
           height="5.7743149"
           x="40.254459"
           y="60.575897" />
        <text
           xml:space="preserve"
           style="font-style:normal;font-variant:normal;font-weight:normal;font-stretch:normal;font-size:3.83077717px;line-height:100%;font-family:'Century Gothic';-inkscape-font-specification:'Century Gothic, Normal';text-align:end;letter-spacing:0px;word-spacing:0px;writing-mode:lr-tb;text-anchor:end;fill:#000000;fill-opacity:1;stroke:none;stroke-width:1px;stroke-linecap:butt;stroke-linejoin:miter;stroke-opacity:1"
           x="44.439213"
           y="64.844856"
           id="text4717"
           sodipodi:linespacing="100%"><tspan
             sodipodi:role="line"
             id="tspan4719"
             x="44.439213"
             y="64.844856">S<tspan
   style="font-style:normal;font-variant:normal;font-weight:normal;font-stretch:normal;font-size:2.73626947px;line-height:100%;font-family:'Century Gothic';-inkscape-font-specification:'Century Gothic, Normal';text-align:end;writing-mode:lr-tb;baseline-shift:sub;text-anchor:end"
   id="tspan4721">n</tspan></tspan></text>
        <text
           sodipodi:linespacing="100%"
           id="text4723"
           y="59.024017"
           x="44.439213"
           style="font-style:normal;font-variant:normal;font-weight:normal;font-stretch:normal;font-size:3.83077717px;line-height:100%;font-family:'Century Gothic';-inkscape-font-specification:'Century Gothic, Normal';text-align:end;letter-spacing:0px;word-spacing:0px;writing-mode:lr-tb;text-anchor:end;fill:#000000;fill-opacity:1;stroke:none;stroke-width:1px;stroke-linecap:butt;stroke-linejoin:miter;stroke-opacity:1"
           xml:space="preserve"><tspan
             y="59.024017"
             x="44.439213"
             id="tspan4725"
             sodipodi:role="line">...</tspan></text>
      </g>
    </g>
    <g
       transform="translate(76.729209,33.337515)"
       id="g4727">
      <rect
         y="54.868446"
         x="35.170677"
         height="23.906998"
         width="16.63096"
         id="rect4729"
         style="fill:#000000;fill-opacity:0.06441716;stroke:#000000;stroke-width:0.25;stroke-miterlimit:4;stroke-dasharray:none;stroke-dashoffset:0;stroke-opacity:1" />
      <text
         sodipodi:linespacing="100%"
         id="text4731"
         y="58.381462"
         x="50.845924"
         style="font-style:normal;font-variant:normal;font-weight:normal;font-stretch:normal;font-size:3.83077717px;line-height:100%;font-family:'Century Gothic';-inkscape-font-specification:'Century Gothic, Normal';text-align:end;letter-spacing:0px;word-spacing:0px;writing-mode:lr-tb;text-anchor:end;fill:#000000;fill-opacity:1;stroke:none;stroke-width:1px;stroke-linecap:butt;stroke-linejoin:miter;stroke-opacity:1"
         xml:space="preserve"><tspan
           y="58.381462"
           x="50.845924"
           id="tspan4733"
           sodipodi:role="line">E<tspan
   id="tspan4735"
   style="font-style:normal;font-variant:normal;font-weight:normal;font-stretch:normal;font-size:2.73626947px;line-height:100%;font-family:'Century Gothic';-inkscape-font-specification:'Century Gothic, Normal';text-align:end;writing-mode:lr-tb;baseline-shift:sub;text-anchor:end">n</tspan></tspan></text>
      <g
         transform="translate(0,-4.2333336)"
         id="g4737">
        <rect
           y="60.575897"
           x="40.254459"
           height="5.7743149"
           width="6.0418124"
           id="rect4739"
           style="fill:#000000;fill-opacity:0.06441716;stroke:#000000;stroke-width:0.1;stroke-miterlimit:4;stroke-dasharray:none;stroke-dashoffset:0;stroke-opacity:1" />
        <text
           sodipodi:linespacing="100%"
           id="text4741"
           y="64.844856"
           x="44.439213"
           style="font-style:normal;font-variant:normal;font-weight:normal;font-stretch:normal;font-size:3.83077717px;line-height:100%;font-family:'Century Gothic';-inkscape-font-specification:'Century Gothic, Normal';text-align:end;letter-spacing:0px;word-spacing:0px;writing-mode:lr-tb;text-anchor:end;fill:#000000;fill-opacity:1;stroke:none;stroke-width:1px;stroke-linecap:butt;stroke-linejoin:miter;stroke-opacity:1"
           xml:space="preserve"><tspan
             y="64.844856"
             x="44.439213"
             id="tspan4743"
             sodipodi:role="line">S<tspan
   id="tspan4745"
   style="font-style:normal;font-variant:normal;font-weight:normal;font-stretch:normal;font-size:2.73626947px;line-height:100%;font-family:'Century Gothic';-inkscape-font-specification:'Century Gothic, Normal';text-align:end;writing-mode:lr-tb;baseline-shift:sub;text-anchor:end">1</tspan></tspan></text>
      </g>
      <g
         transform="translate(0,2.6458335)"
         id="g4747">
        <rect
           style="fill:#000000;fill-opacity:0.06441716;stroke:#000000;stroke-width:0.1;stroke-miterlimit:4;stroke-dasharray:none;stroke-dashoffset:0;stroke-opacity:1"
           id="rect4749"
           width="6.0418124"
           height="5.7743149"
           x="40.254459"
           y="60.575897" />
        <text
           xml:space="preserve"
           style="font-style:normal;font-variant:normal;font-weight:normal;font-stretch:normal;font-size:3.83077717px;line-height:100%;font-family:'Century Gothic';-inkscape-font-specification:'Century Gothic, Normal';text-align:end;letter-spacing:0px;word-spacing:0px;writing-mode:lr-tb;text-anchor:end;fill:#000000;fill-opacity:1;stroke:none;stroke-width:1px;stroke-linecap:butt;stroke-linejoin:miter;stroke-opacity:1"
           x="44.439213"
           y="64.844856"
           id="text4751"
           sodipodi:linespacing="100%"><tspan
             sodipodi:role="line"
             id="tspan4753"
             x="44.439213"
             y="64.844856">S<tspan
   style="font-style:normal;font-variant:normal;font-weight:normal;font-stretch:normal;font-size:2.73626947px;line-height:100%;font-family:'Century Gothic';-inkscape-font-specification:'Century Gothic, Normal';text-align:end;writing-mode:lr-tb;baseline-shift:sub;text-anchor:end"
   id="tspan4755">2</tspan></tspan></text>
      </g>
      <g
         id="g4757"
         transform="translate(0,11.641668)">
        <rect
           y="60.575897"
           x="40.254459"
           height="5.7743149"
           width="6.0418124"
           id="rect4759"
           style="fill:#000000;fill-opacity:0.06441716;stroke:#000000;stroke-width:0.1;stroke-miterlimit:4;stroke-dasharray:none;stroke-dashoffset:0;stroke-opacity:1" />
        <text
           sodipodi:linespacing="100%"
           id="text4761"
           y="64.844856"
           x="44.439213"
           style="font-style:normal;font-variant:normal;font-weight:normal;font-stretch:normal;font-size:3.83077717px;line-height:100%;font-family:'Century Gothic';-inkscape-font-specification:'Century Gothic, Normal';text-align:end;letter-spacing:0px;word-spacing:0px;writing-mode:lr-tb;text-anchor:end;fill:#000000;fill-opacity:1;stroke:none;stroke-width:1px;stroke-linecap:butt;stroke-linejoin:miter;stroke-opacity:1"
           xml:space="preserve"><tspan
             y="64.844856"
             x="44.439213"
             id="tspan4763"
             sodipodi:role="line">S<tspan
   id="tspan4765"
   style="font-style:normal;font-variant:normal;font-weight:normal;font-stretch:normal;font-size:2.73626947px;line-height:100%;font-family:'Century Gothic';-inkscape-font-specification:'Century Gothic, Normal';text-align:end;writing-mode:lr-tb;baseline-shift:sub;text-anchor:end">n</tspan></tspan></text>
        <text
           xml:space="preserve"
           style="font-style:normal;font-variant:normal;font-weight:normal;font-stretch:normal;font-size:3.83077717px;line-height:100%;font-family:'Century Gothic';-inkscape-font-specification:'Century Gothic, Normal';text-align:end;letter-spacing:0px;word-spacing:0px;writing-mode:lr-tb;text-anchor:end;fill:#000000;fill-opacity:1;stroke:none;stroke-width:1px;stroke-linecap:butt;stroke-linejoin:miter;stroke-opacity:1"
           x="44.439213"
           y="59.024017"
           id="text4767"
           sodipodi:linespacing="100%"><tspan
             sodipodi:role="line"
             id="tspan4769"
             x="44.439213"
             y="59.024017">...</tspan></text>
      </g>
    </g>
    <text
       sodipodi:linespacing="100%"
       id="text4771"
       y="86.013718"
       x="121.95406"
       style="font-style:normal;font-variant:normal;font-weight:normal;font-stretch:normal;font-size:4.93888903px;line-height:100%;font-family:'Century Gothic';-inkscape-font-specification:'Century Gothic, Normal';text-align:end;letter-spacing:0px;word-spacing:0px;writing-mode:lr-tb;text-anchor:end;fill:#000000;fill-opacity:1;stroke:none;stroke-width:1px;stroke-linecap:butt;stroke-linejoin:miter;stroke-opacity:1"
       xml:space="preserve"><tspan
         y="86.013718"
         x="121.95406"
         id="tspan4773"
         sodipodi:role="line">...</tspan></text>
    <rect
       y="61.634266"
       x="-23.52895"
       height="63.626839"
       width="25.124382"
       id="rect5498"
       style="fill:#000000;fill-opacity:0.06441716;stroke:#000000;stroke-width:0.5;stroke-miterlimit:4;stroke-dasharray:none;stroke-dashoffset:0;stroke-opacity:1" />
    <text
       sodipodi:linespacing="100%"
       id="text5500"
       y="67.077095"
       x="-7.7295794"
       style="font-style:normal;font-variant:normal;font-weight:normal;font-stretch:normal;font-size:4.93888903px;line-height:100%;font-family:'Century Gothic';-inkscape-font-specification:'Century Gothic, Normal';text-align:end;letter-spacing:0px;word-spacing:0px;writing-mode:lr-tb;text-anchor:end;fill:#000000;fill-opacity:1;stroke:none;stroke-width:1px;stroke-linecap:butt;stroke-linejoin:miter;stroke-opacity:1"
       xml:space="preserve"><tspan
         y="67.077095"
         x="-7.7295794"
         id="tspan5502"
         sodipodi:role="line">L2 - V<tspan
   id="tspan5504"
   style="font-style:normal;font-variant:normal;font-weight:normal;font-stretch:normal;font-size:3.52777791px;line-height:100%;font-family:'Century Gothic';-inkscape-font-specification:'Century Gothic, Normal';text-align:end;writing-mode:lr-tb;baseline-shift:sub;text-anchor:end">k</tspan></tspan></text>
    <g
       transform="translate(-53.483593,10.69676)"
       id="g5506">
      <rect
         y="59.101784"
         x="35.170677"
         height="23.906998"
         width="16.63096"
         id="rect5508"
         style="fill:#000000;fill-opacity:0.06441716;stroke:#000000;stroke-width:0.25;stroke-miterlimit:4;stroke-dasharray:none;stroke-dashoffset:0;stroke-opacity:1" />
      <text
         sodipodi:linespacing="100%"
         id="text5510"
         y="62.614799"
         x="50.845924"
         style="font-style:normal;font-variant:normal;font-weight:normal;font-stretch:normal;font-size:3.83077717px;line-height:100%;font-family:'Century Gothic';-inkscape-font-specification:'Century Gothic, Normal';text-align:end;letter-spacing:0px;word-spacing:0px;writing-mode:lr-tb;text-anchor:end;fill:#000000;fill-opacity:1;stroke:none;stroke-width:1px;stroke-linecap:butt;stroke-linejoin:miter;stroke-opacity:1"
         xml:space="preserve"><tspan
           y="62.614799"
           x="50.845924"
           id="tspan5512"
           sodipodi:role="line">E<tspan
   id="tspan5514"
   style="font-style:normal;font-variant:normal;font-weight:normal;font-stretch:normal;font-size:2.73626947px;line-height:100%;font-family:'Century Gothic';-inkscape-font-specification:'Century Gothic, Normal';text-align:end;writing-mode:lr-tb;baseline-shift:sub;text-anchor:end">1</tspan></tspan></text>
      <g
         id="g5516">
        <rect
           y="60.575897"
           x="40.254459"
           height="5.7743149"
           width="6.0418124"
           id="rect5518"
           style="fill:#000000;fill-opacity:0.06441716;stroke:#000000;stroke-width:0.1;stroke-miterlimit:4;stroke-dasharray:none;stroke-dashoffset:0;stroke-opacity:1" />
        <text
           sodipodi:linespacing="100%"
           id="text5520"
           y="64.844856"
           x="44.439213"
           style="font-style:normal;font-variant:normal;font-weight:normal;font-stretch:normal;font-size:3.83077717px;line-height:100%;font-family:'Century Gothic';-inkscape-font-specification:'Century Gothic, Normal';text-align:end;letter-spacing:0px;word-spacing:0px;writing-mode:lr-tb;text-anchor:end;fill:#000000;fill-opacity:1;stroke:none;stroke-width:1px;stroke-linecap:butt;stroke-linejoin:miter;stroke-opacity:1"
           xml:space="preserve"><tspan
             y="64.844856"
             x="44.439213"
             id="tspan5522"
             sodipodi:role="line">S<tspan
   id="tspan5524"
   style="font-style:normal;font-variant:normal;font-weight:normal;font-stretch:normal;font-size:2.73626947px;line-height:100%;font-family:'Century Gothic';-inkscape-font-specification:'Century Gothic, Normal';text-align:end;writing-mode:lr-tb;baseline-shift:sub;text-anchor:end">1</tspan></tspan></text>
      </g>
      <g
         transform="translate(0,6.8791671)"
         id="g5526">
        <rect
           style="fill:#000000;fill-opacity:0.06441716;stroke:#000000;stroke-width:0.1;stroke-miterlimit:4;stroke-dasharray:none;stroke-dashoffset:0;stroke-opacity:1"
           id="rect5528"
           width="6.0418124"
           height="5.7743149"
           x="40.254459"
           y="60.575897" />
        <text
           xml:space="preserve"
           style="font-style:normal;font-variant:normal;font-weight:normal;font-stretch:normal;font-size:3.83077717px;line-height:100%;font-family:'Century Gothic';-inkscape-font-specification:'Century Gothic, Normal';text-align:end;letter-spacing:0px;word-spacing:0px;writing-mode:lr-tb;text-anchor:end;fill:#000000;fill-opacity:1;stroke:none;stroke-width:1px;stroke-linecap:butt;stroke-linejoin:miter;stroke-opacity:1"
           x="44.439213"
           y="64.844856"
           id="text5530"
           sodipodi:linespacing="100%"><tspan
             sodipodi:role="line"
             id="tspan5532"
             x="44.439213"
             y="64.844856">S<tspan
   style="font-style:normal;font-variant:normal;font-weight:normal;font-stretch:normal;font-size:2.73626947px;line-height:100%;font-family:'Century Gothic';-inkscape-font-specification:'Century Gothic, Normal';text-align:end;writing-mode:lr-tb;baseline-shift:sub;text-anchor:end"
   id="tspan5534">2</tspan></tspan></text>
      </g>
      <g
         id="g5536"
         transform="translate(0,15.875004)">
        <rect
           y="60.575897"
           x="40.254459"
           height="5.7743149"
           width="6.0418124"
           id="rect5538"
           style="fill:#000000;fill-opacity:0.06441716;stroke:#000000;stroke-width:0.1;stroke-miterlimit:4;stroke-dasharray:none;stroke-dashoffset:0;stroke-opacity:1" />
        <text
           sodipodi:linespacing="100%"
           id="text5540"
           y="64.844856"
           x="44.439213"
           style="font-style:normal;font-variant:normal;font-weight:normal;font-stretch:normal;font-size:3.83077717px;line-height:100%;font-family:'Century Gothic';-inkscape-font-specification:'Century Gothic, Normal';text-align:end;letter-spacing:0px;word-spacing:0px;writing-mode:lr-tb;text-anchor:end;fill:#000000;fill-opacity:1;stroke:none;stroke-width:1px;stroke-linecap:butt;stroke-linejoin:miter;stroke-opacity:1"
           xml:space="preserve"><tspan
             y="64.844856"
             x="44.439213"
             id="tspan5542"
             sodipodi:role="line">S<tspan
   id="tspan5544"
   style="font-style:normal;font-variant:normal;font-weight:normal;font-stretch:normal;font-size:2.73626947px;line-height:100%;font-family:'Century Gothic';-inkscape-font-specification:'Century Gothic, Normal';text-align:end;writing-mode:lr-tb;baseline-shift:sub;text-anchor:end">n</tspan></tspan></text>
        <text
           xml:space="preserve"
           style="font-style:normal;font-variant:normal;font-weight:normal;font-stretch:normal;font-size:3.83077717px;line-height:100%;font-family:'Century Gothic';-inkscape-font-specification:'Century Gothic, Normal';text-align:end;letter-spacing:0px;word-spacing:0px;writing-mode:lr-tb;text-anchor:end;fill:#000000;fill-opacity:1;stroke:none;stroke-width:1px;stroke-linecap:butt;stroke-linejoin:miter;stroke-opacity:1"
           x="44.439213"
           y="59.024017"
           id="text5546"
           sodipodi:linespacing="100%"><tspan
             sodipodi:role="line"
             id="tspan5548"
             x="44.439213"
             y="59.024017">...</tspan></text>
      </g>
    </g>
    <g
       id="g5550"
       transform="translate(-53.483593,44.034317)">
      <rect
         style="fill:#000000;fill-opacity:0.06441716;stroke:#000000;stroke-width:0.25;stroke-miterlimit:4;stroke-dasharray:none;stroke-dashoffset:0;stroke-opacity:1"
         id="rect5552"
         width="16.63096"
         height="23.906998"
         x="35.170677"
         y="54.868446" />
      <text
         xml:space="preserve"
         style="font-style:normal;font-variant:normal;font-weight:normal;font-stretch:normal;font-size:3.83077717px;line-height:100%;font-family:'Century Gothic';-inkscape-font-specification:'Century Gothic, Normal';text-align:end;letter-spacing:0px;word-spacing:0px;writing-mode:lr-tb;text-anchor:end;fill:#000000;fill-opacity:1;stroke:none;stroke-width:1px;stroke-linecap:butt;stroke-linejoin:miter;stroke-opacity:1"
         x="50.845924"
         y="58.381462"
         id="text5554"
         sodipodi:linespacing="100%"><tspan
           sodipodi:role="line"
           id="tspan5556"
           x="50.845924"
           y="58.381462">E<tspan
   style="font-style:normal;font-variant:normal;font-weight:normal;font-stretch:normal;font-size:2.73626947px;line-height:100%;font-family:'Century Gothic';-inkscape-font-specification:'Century Gothic, Normal';text-align:end;writing-mode:lr-tb;baseline-shift:sub;text-anchor:end"
   id="tspan5558">n</tspan></tspan></text>
      <g
         id="g5560"
         transform="translate(0,-4.2333336)">
        <rect
           style="fill:#000000;fill-opacity:0.06441716;stroke:#000000;stroke-width:0.1;stroke-miterlimit:4;stroke-dasharray:none;stroke-dashoffset:0;stroke-opacity:1"
           id="rect5562"
           width="6.0418124"
           height="5.7743149"
           x="40.254459"
           y="60.575897" />
        <text
           xml:space="preserve"
           style="font-style:normal;font-variant:normal;font-weight:normal;font-stretch:normal;font-size:3.83077717px;line-height:100%;font-family:'Century Gothic';-inkscape-font-specification:'Century Gothic, Normal';text-align:end;letter-spacing:0px;word-spacing:0px;writing-mode:lr-tb;text-anchor:end;fill:#000000;fill-opacity:1;stroke:none;stroke-width:1px;stroke-linecap:butt;stroke-linejoin:miter;stroke-opacity:1"
           x="44.439213"
           y="64.844856"
           id="text5564"
           sodipodi:linespacing="100%"><tspan
             sodipodi:role="line"
             id="tspan5566"
             x="44.439213"
             y="64.844856">S<tspan
   style="font-style:normal;font-variant:normal;font-weight:normal;font-stretch:normal;font-size:2.73626947px;line-height:100%;font-family:'Century Gothic';-inkscape-font-specification:'Century Gothic, Normal';text-align:end;writing-mode:lr-tb;baseline-shift:sub;text-anchor:end"
   id="tspan5568">1</tspan></tspan></text>
      </g>
      <g
         id="g5570"
         transform="translate(0,2.6458335)">
        <rect
           y="60.575897"
           x="40.254459"
           height="5.7743149"
           width="6.0418124"
           id="rect5572"
           style="fill:#000000;fill-opacity:0.06441716;stroke:#000000;stroke-width:0.1;stroke-miterlimit:4;stroke-dasharray:none;stroke-dashoffset:0;stroke-opacity:1" />
        <text
           sodipodi:linespacing="100%"
           id="text5574"
           y="64.844856"
           x="44.439213"
           style="font-style:normal;font-variant:normal;font-weight:normal;font-stretch:normal;font-size:3.83077717px;line-height:100%;font-family:'Century Gothic';-inkscape-font-specification:'Century Gothic, Normal';text-align:end;letter-spacing:0px;word-spacing:0px;writing-mode:lr-tb;text-anchor:end;fill:#000000;fill-opacity:1;stroke:none;stroke-width:1px;stroke-linecap:butt;stroke-linejoin:miter;stroke-opacity:1"
           xml:space="preserve"><tspan
             y="64.844856"
             x="44.439213"
             id="tspan5576"
             sodipodi:role="line">S<tspan
   id="tspan5578"
   style="font-style:normal;font-variant:normal;font-weight:normal;font-stretch:normal;font-size:2.73626947px;line-height:100%;font-family:'Century Gothic';-inkscape-font-specification:'Century Gothic, Normal';text-align:end;writing-mode:lr-tb;baseline-shift:sub;text-anchor:end">2</tspan></tspan></text>
      </g>
      <g
         transform="translate(0,11.641668)"
         id="g5580">
        <rect
           style="fill:#000000;fill-opacity:0.06441716;stroke:#000000;stroke-width:0.1;stroke-miterlimit:4;stroke-dasharray:none;stroke-dashoffset:0;stroke-opacity:1"
           id="rect5582"
           width="6.0418124"
           height="5.7743149"
           x="40.254459"
           y="60.575897" />
        <text
           xml:space="preserve"
           style="font-style:normal;font-variant:normal;font-weight:normal;font-stretch:normal;font-size:3.83077717px;line-height:100%;font-family:'Century Gothic';-inkscape-font-specification:'Century Gothic, Normal';text-align:end;letter-spacing:0px;word-spacing:0px;writing-mode:lr-tb;text-anchor:end;fill:#000000;fill-opacity:1;stroke:none;stroke-width:1px;stroke-linecap:butt;stroke-linejoin:miter;stroke-opacity:1"
           x="44.439213"
           y="64.844856"
           id="text5584"
           sodipodi:linespacing="100%"><tspan
             sodipodi:role="line"
             id="tspan5586"
             x="44.439213"
             y="64.844856">S<tspan
   style="font-style:normal;font-variant:normal;font-weight:normal;font-stretch:normal;font-size:2.73626947px;line-height:100%;font-family:'Century Gothic';-inkscape-font-specification:'Century Gothic, Normal';text-align:end;writing-mode:lr-tb;baseline-shift:sub;text-anchor:end"
   id="tspan5588">n</tspan></tspan></text>
        <text
           sodipodi:linespacing="100%"
           id="text5590"
           y="59.024017"
           x="44.439213"
           style="font-style:normal;font-variant:normal;font-weight:normal;font-stretch:normal;font-size:3.83077717px;line-height:100%;font-family:'Century Gothic';-inkscape-font-specification:'Century Gothic, Normal';text-align:end;letter-spacing:0px;word-spacing:0px;writing-mode:lr-tb;text-anchor:end;fill:#000000;fill-opacity:1;stroke:none;stroke-width:1px;stroke-linecap:butt;stroke-linejoin:miter;stroke-opacity:1"
           xml:space="preserve"><tspan
             y="59.024017"
             x="44.439213"
             id="tspan5592"
             sodipodi:role="line">...</tspan></text>
      </g>
    </g>
    <text
       xml:space="preserve"
       style="font-style:normal;font-variant:normal;font-weight:normal;font-stretch:normal;font-size:4.93888903px;line-height:100%;font-family:'Century Gothic';-inkscape-font-specification:'Century Gothic, Normal';text-align:end;letter-spacing:0px;word-spacing:0px;writing-mode:lr-tb;text-anchor:end;fill:#000000;fill-opacity:1;stroke:none;stroke-width:1px;stroke-linecap:butt;stroke-linejoin:miter;stroke-opacity:1"
       x="-8.2587385"
       y="96.71003"
       id="text5594"
       sodipodi:linespacing="100%"><tspan
         sodipodi:role="line"
         id="tspan5596"
         x="-8.2587385"
         y="96.71003">...</tspan></text>
    <path
       style="fill:none;fill-rule:evenodd;stroke:#000000;stroke-width:0.26500002;stroke-linecap:butt;stroke-linejoin:miter;stroke-miterlimit:4;stroke-dasharray:none;stroke-dashoffset:0;stroke-opacity:1;marker-end:url(#Arrow1Lend)"
       d="M 39.905563,97.019813 -1.5773212,72.470258"
       id="path7346"
       inkscape:connector-curvature="0"
       sodipodi:nodetypes="cc" />
    <path
       sodipodi:nodetypes="cc"
       inkscape:connector-curvature="0"
       id="path19755"
       d="M 40.037855,123.08127 -1.5773212,72.470258"
       style="fill:none;fill-rule:evenodd;stroke:#000000;stroke-width:0.26500002;stroke-linecap:butt;stroke-linejoin:miter;stroke-miterlimit:4;stroke-dasharray:none;stroke-dashoffset:0;stroke-opacity:1;marker-end:url(#marker19757)" />
    <path
       style="fill:none;fill-rule:evenodd;stroke:#000000;stroke-width:0.26500002;stroke-linecap:butt;stroke-linejoin:miter;stroke-miterlimit:4;stroke-dasharray:none;stroke-dashoffset:0;stroke-opacity:1;marker-end:url(#marker19955)"
       d="M 40.037855,131.54799 -1.8419046,101.44214"
       id="path19953"
       inkscape:connector-curvature="0"
       sodipodi:nodetypes="cc" />
    <path
       sodipodi:nodetypes="cc"
       inkscape:connector-curvature="0"
       id="path20975"
       d="M 40.037855,141.60222 -1.4450296,72.73491"
       style="fill:none;fill-rule:evenodd;stroke:#000000;stroke-width:0.26500002;stroke-linecap:butt;stroke-linejoin:miter;stroke-miterlimit:4;stroke-dasharray:none;stroke-dashoffset:0;stroke-opacity:1;marker-end:url(#marker20977)" />
    <path
       style="fill:none;fill-rule:evenodd;stroke:#000000;stroke-width:0.26500002;stroke-linecap:butt;stroke-linejoin:miter;stroke-miterlimit:4;stroke-dasharray:none;stroke-dashoffset:0;stroke-opacity:1;marker-end:url(#marker21343)"
       d="M 40.170147,111.83648 -1.5773212,101.70672"
       id="path21341"
       inkscape:connector-curvature="0"
       sodipodi:nodetypes="cc" />
    <path
       sodipodi:nodetypes="cc"
       inkscape:connector-curvature="0"
       id="path21839"
       d="M 46.505015,96.490646 111.40353,59.77026"
       style="fill:none;fill-rule:evenodd;stroke:#000000;stroke-width:0.26500002;stroke-linecap:butt;stroke-linejoin:miter;stroke-miterlimit:4;stroke-dasharray:none;stroke-dashoffset:0;stroke-opacity:1;marker-end:url(#marker21841)" />
    <path
       style="fill:none;fill-rule:evenodd;stroke:#000000;stroke-width:0.26500002;stroke-linecap:butt;stroke-linejoin:miter;stroke-miterlimit:4;stroke-dasharray:none;stroke-dashoffset:0;stroke-opacity:1;marker-end:url(#marker22315)"
       d="M 46.505015,112.36572 111.80041,90.197354"
       id="path22313"
       inkscape:connector-curvature="0"
       sodipodi:nodetypes="cc" />
    <path
       sodipodi:nodetypes="cc"
       inkscape:connector-curvature="0"
       id="path22607"
       d="M 46.505015,125.59497 111.53583,90.329675"
       style="fill:none;fill-rule:evenodd;stroke:#000000;stroke-width:0.26500002;stroke-linecap:butt;stroke-linejoin:miter;stroke-miterlimit:4;stroke-dasharray:none;stroke-dashoffset:0;stroke-opacity:1;marker-end:url(#marker22609)" />
    <path
       style="fill:none;fill-rule:evenodd;stroke:#000000;stroke-width:0.26500002;stroke-linecap:butt;stroke-linejoin:miter;stroke-miterlimit:4;stroke-dasharray:none;stroke-dashoffset:0;stroke-opacity:1;marker-end:url(#marker22933)"
       d="M 46.372723,132.34185 111.40354,59.638007"
       id="path22931"
       inkscape:connector-curvature="0"
       sodipodi:nodetypes="cc" />
    <path
       sodipodi:nodetypes="cc"
       inkscape:connector-curvature="0"
       id="path23255"
       d="M 46.372723,140.80857 111.53583,90.065096"
       style="fill:none;fill-rule:evenodd;stroke:#000000;stroke-width:0.26500002;stroke-linecap:butt;stroke-linejoin:miter;stroke-miterlimit:4;stroke-dasharray:none;stroke-dashoffset:0;stroke-opacity:1;marker-end:url(#marker23257)" />
    <path
       style="fill:none;fill-rule:evenodd;stroke:#000000;stroke-width:0.26458335;stroke-linecap:butt;stroke-linejoin:miter;stroke-miterlimit:4;stroke-dasharray:0.26458334, 0.79375003;stroke-dashoffset:0;stroke-opacity:1"
       d="M 116.96049,63.996117 45.957667,96.539872"
       id="path7354"
       inkscape:connector-curvature="0"
       sodipodi:nodetypes="cc" />
    <path
       sodipodi:nodetypes="cc"
       inkscape:connector-curvature="0"
       id="path5481"
       d="M 116.96049,70.213826 45.957667,96.539872"
       style="fill:none;fill-rule:evenodd;stroke:#000000;stroke-width:0.26458335;stroke-linecap:butt;stroke-linejoin:miter;stroke-miterlimit:4;stroke-dasharray:0.26458334, 0.79375003;stroke-dashoffset:0;stroke-opacity:1" />
    <path
       style="fill:none;fill-rule:evenodd;stroke:#000000;stroke-width:0.26458335;stroke-linecap:butt;stroke-linejoin:miter;stroke-miterlimit:4;stroke-dasharray:0.26458334, 0.79375003;stroke-dashoffset:0;stroke-opacity:1"
       d="M 116.8282,79.20966 45.957667,96.539872"
       id="path5483"
       inkscape:connector-curvature="0"
       sodipodi:nodetypes="cc" />
    <path
       sodipodi:nodetypes="cc"
       inkscape:connector-curvature="0"
       id="path5491"
       d="M 116.8282,93.232587 45.957667,112.41495"
       style="fill:none;fill-rule:evenodd;stroke:#000000;stroke-width:0.26458335;stroke-linecap:butt;stroke-linejoin:miter;stroke-miterlimit:4;stroke-dasharray:0.26458334, 0.79375003;stroke-dashoffset:0;stroke-opacity:1" />
    <path
       style="fill:none;fill-rule:evenodd;stroke:#000000;stroke-width:0.26458335;stroke-linecap:butt;stroke-linejoin:miter;stroke-miterlimit:4;stroke-dasharray:0.26458334, 0.79375003;stroke-dashoffset:0;stroke-opacity:1"
       d="M 116.8282,99.582591 46.22225,112.67957"
       id="path5493"
       inkscape:connector-curvature="0"
       sodipodi:nodetypes="cc" />
    <path
       sodipodi:nodetypes="cc"
       inkscape:connector-curvature="0"
       id="path5495"
       d="m 116.96049,108.18155 -70.73824,4.49802"
       style="fill:none;fill-rule:evenodd;stroke:#000000;stroke-width:0.26458335;stroke-linecap:butt;stroke-linejoin:miter;stroke-miterlimit:4;stroke-dasharray:0.26458334, 0.79375003;stroke-dashoffset:0;stroke-opacity:1" />
    <path
       style="fill:none;fill-rule:evenodd;stroke:#000000;stroke-width:0.26458335;stroke-linecap:butt;stroke-linejoin:miter;stroke-miterlimit:4;stroke-dasharray:0.26458334, 0.79375003;stroke-dashoffset:0;stroke-opacity:1"
       d="M 116.8282,93.497172 45.957667,125.51186"
       id="path5497"
       inkscape:connector-curvature="0"
       sodipodi:nodetypes="cc" />
    <path
       sodipodi:nodetypes="cc"
       inkscape:connector-curvature="0"
       id="path5499"
       d="M 117.35737,99.450297 45.957667,125.51186"
       style="fill:none;fill-rule:evenodd;stroke:#000000;stroke-width:0.26458335;stroke-linecap:butt;stroke-linejoin:miter;stroke-miterlimit:4;stroke-dasharray:0.26458334, 0.79375003;stroke-dashoffset:0;stroke-opacity:1" />
    <path
       style="fill:none;fill-rule:evenodd;stroke:#000000;stroke-width:0.26458335;stroke-linecap:butt;stroke-linejoin:miter;stroke-miterlimit:4;stroke-dasharray:0.26458334, 0.79375003;stroke-dashoffset:0;stroke-opacity:1"
       d="M 116.96049,108.31384 45.957667,125.51186"
       id="path5501"
       inkscape:connector-curvature="0"
       sodipodi:nodetypes="cc" />
    <path
       sodipodi:nodetypes="cc"
       inkscape:connector-curvature="0"
       id="path5503"
       d="M 116.8282,79.20966 46.22225,131.86175"
       style="fill:none;fill-rule:evenodd;stroke:#000000;stroke-width:0.26458335;stroke-linecap:butt;stroke-linejoin:miter;stroke-miterlimit:4;stroke-dasharray:0.26458334, 0.79375003;stroke-dashoffset:0;stroke-opacity:1" />
    <path
       style="fill:none;fill-rule:evenodd;stroke:#000000;stroke-width:0.26458335;stroke-linecap:butt;stroke-linejoin:miter;stroke-miterlimit:4;stroke-dasharray:0.26458334, 0.79375003;stroke-dashoffset:0;stroke-opacity:1"
       d="M 116.96049,70.47841 46.22225,131.86175"
       id="path5505"
       inkscape:connector-curvature="0"
       sodipodi:nodetypes="cc" />
    <path
       sodipodi:nodetypes="cc"
       inkscape:connector-curvature="0"
       id="path5507"
       d="M 116.96049,63.863826 46.22225,131.86175"
       style="fill:none;fill-rule:evenodd;stroke:#000000;stroke-width:0.26458335;stroke-linecap:butt;stroke-linejoin:miter;stroke-miterlimit:4;stroke-dasharray:0.26458334, 0.79375003;stroke-dashoffset:0;stroke-opacity:1" />
    <path
       sodipodi:nodetypes="cc"
       inkscape:connector-curvature="0"
       id="path5509"
       d="M 116.96049,108.31384 46.486834,140.85769"
       style="fill:none;fill-rule:evenodd;stroke:#000000;stroke-width:0.26458335;stroke-linecap:butt;stroke-linejoin:miter;stroke-miterlimit:4;stroke-dasharray:0.26458334, 0.79375003;stroke-dashoffset:0;stroke-opacity:1" />
    <path
       style="fill:none;fill-rule:evenodd;stroke:#000000;stroke-width:0.26458335;stroke-linecap:butt;stroke-linejoin:miter;stroke-miterlimit:4;stroke-dasharray:0.26458334, 0.79375003;stroke-dashoffset:0;stroke-opacity:1"
       d="M 116.96049,99.450298 46.486834,140.85769"
       id="path5511"
       inkscape:connector-curvature="0"
       sodipodi:nodetypes="cc" />
    <path
       sodipodi:nodetypes="cc"
       inkscape:connector-curvature="0"
       id="path5513"
       d="M 116.8282,93.364881 46.486834,140.85769"
       style="fill:none;fill-rule:evenodd;stroke:#000000;stroke-width:0.26458335;stroke-linecap:butt;stroke-linejoin:miter;stroke-miterlimit:4;stroke-dasharray:0.26458334, 0.79375003;stroke-dashoffset:0;stroke-opacity:1" />
    <path
       sodipodi:nodetypes="cc"
       inkscape:connector-curvature="0"
       id="path5515"
       d="M -7.2115999,74.345354 40.345006,97.101138"
       style="fill:none;fill-rule:evenodd;stroke:#000000;stroke-width:0.26458335;stroke-linecap:butt;stroke-linejoin:miter;stroke-miterlimit:4;stroke-dasharray:0.26458334, 0.79375003;stroke-dashoffset:0;stroke-opacity:1" />
    <path
       style="fill:none;fill-rule:evenodd;stroke:#000000;stroke-width:0.26458335;stroke-linecap:butt;stroke-linejoin:miter;stroke-miterlimit:4;stroke-dasharray:0.26458334, 0.79375003;stroke-dashoffset:0;stroke-opacity:1"
       d="M -7.2115999,80.51928 40.345006,97.101138"
       id="path5517"
       inkscape:connector-curvature="0"
       sodipodi:nodetypes="cc" />
    <path
       sodipodi:nodetypes="cc"
       inkscape:connector-curvature="0"
       id="path5519"
       d="M -7.0245112,90.247891 40.345006,97.101138"
       style="fill:none;fill-rule:evenodd;stroke:#000000;stroke-width:0.26458335;stroke-linecap:butt;stroke-linejoin:miter;stroke-miterlimit:4;stroke-dasharray:0.26458334, 0.79375003;stroke-dashoffset:0;stroke-opacity:1" />
    <path
       style="fill:none;fill-rule:evenodd;stroke:#000000;stroke-width:0.26458335;stroke-linecap:butt;stroke-linejoin:miter;stroke-miterlimit:4;stroke-dasharray:0.26458334, 0.79375003;stroke-dashoffset:0;stroke-opacity:1"
       d="m -7.3986886,103.53119 47.3695176,8.53704"
       id="path5521"
       inkscape:connector-curvature="0"
       sodipodi:nodetypes="cc" />
    <path
       sodipodi:nodetypes="cc"
       inkscape:connector-curvature="0"
       id="path5523"
       d="m -7.5857773,110.26638 47.5566063,1.80185"
       style="fill:none;fill-rule:evenodd;stroke:#000000;stroke-width:0.26458335;stroke-linecap:butt;stroke-linejoin:miter;stroke-miterlimit:4;stroke-dasharray:0.26458334, 0.79375003;stroke-dashoffset:0;stroke-opacity:1" />
    <path
       style="fill:none;fill-rule:evenodd;stroke:#000000;stroke-width:0.26458335;stroke-linecap:butt;stroke-linejoin:miter;stroke-miterlimit:4;stroke-dasharray:0.26458334, 0.79375003;stroke-dashoffset:0;stroke-opacity:1"
       d="M -7.3986886,119.8079 39.970829,112.06823"
       id="path5525"
       inkscape:connector-curvature="0"
       sodipodi:nodetypes="cc" />
    <path
       sodipodi:nodetypes="cc"
       inkscape:connector-curvature="0"
       id="path5527"
       d="m -7.3986886,119.8079 47.7436946,5.9178"
       style="fill:none;fill-rule:evenodd;stroke:#000000;stroke-width:0.26458335;stroke-linecap:butt;stroke-linejoin:miter;stroke-miterlimit:4;stroke-dasharray:0.26458334, 0.79375003;stroke-dashoffset:0;stroke-opacity:1" />
    <path
       style="fill:none;fill-rule:evenodd;stroke:#000000;stroke-width:0.26458335;stroke-linecap:butt;stroke-linejoin:miter;stroke-miterlimit:4;stroke-dasharray:0.26458334, 0.79375003;stroke-dashoffset:0;stroke-opacity:1"
       d="M -7.3986886,119.8079 40.157917,131.33836"
       id="path5529"
       inkscape:connector-curvature="0"
       sodipodi:nodetypes="cc" />
    <path
       sodipodi:nodetypes="cc"
       inkscape:connector-curvature="0"
       id="path5533"
       d="M -7.2115999,110.82764 40.157917,131.33836"
       style="fill:none;fill-rule:evenodd;stroke:#000000;stroke-width:0.26458335;stroke-linecap:butt;stroke-linejoin:miter;stroke-miterlimit:4;stroke-dasharray:0.26458334, 0.79375003;stroke-dashoffset:0;stroke-opacity:1" />
    <path
       style="fill:none;fill-rule:evenodd;stroke:#000000;stroke-width:0.26458335;stroke-linecap:butt;stroke-linejoin:miter;stroke-miterlimit:4;stroke-dasharray:0.26458334, 0.79375003;stroke-dashoffset:0;stroke-opacity:1"
       d="M -7.0245112,103.71827 40.157917,131.33836"
       id="path5535"
       inkscape:connector-curvature="0"
       sodipodi:nodetypes="cc" />
    <path
       sodipodi:nodetypes="cc"
       inkscape:connector-curvature="0"
       id="path5537"
       d="M -7.2115999,74.825963 40.157917,141.92176"
       style="fill:none;fill-rule:evenodd;stroke:#000000;stroke-width:0.26458335;stroke-linecap:butt;stroke-linejoin:miter;stroke-miterlimit:4;stroke-dasharray:0.26458334, 0.79375003;stroke-dashoffset:0;stroke-opacity:1" />
    <path
       style="fill:none;fill-rule:evenodd;stroke:#000000;stroke-width:0.26458335;stroke-linecap:butt;stroke-linejoin:miter;stroke-miterlimit:4;stroke-dasharray:0.26458334, 0.79375003;stroke-dashoffset:0;stroke-opacity:1"
       d="M -7.2115999,80.999889 40.157917,141.92176"
       id="path5539"
       inkscape:connector-curvature="0"
       sodipodi:nodetypes="cc" />
    <path
       sodipodi:nodetypes="cc"
       inkscape:connector-curvature="0"
       id="path5541"
       d="M -7.0245112,90.541411 40.157917,141.92176"
       style="fill:none;fill-rule:evenodd;stroke:#000000;stroke-width:0.26458335;stroke-linecap:butt;stroke-linejoin:miter;stroke-miterlimit:4;stroke-dasharray:0.26458334, 0.79375003;stroke-dashoffset:0;stroke-opacity:1" />
  </g>
</svg>
