<?xml version="1.0" encoding="UTF-8" standalone="no"?>
<!-- Created with Inkscape (http://www.inkscape.org/) -->

<svg
   xmlns:dc="http://purl.org/dc/elements/1.1/"
   xmlns:cc="http://creativecommons.org/ns#"
   xmlns:rdf="http://www.w3.org/1999/02/22-rdf-syntax-ns#"
   xmlns:svg="http://www.w3.org/2000/svg"
   xmlns="http://www.w3.org/2000/svg"
   xmlns:sodipodi="http://sodipodi.sourceforge.net/DTD/sodipodi-0.dtd"
   xmlns:inkscape="http://www.inkscape.org/namespaces/inkscape"
   width="1052.3622"
   height="744.09448"
   id="svg2"
   version="1.1"
   inkscape:version="0.48.2 r9819"
   sodipodi:docname="phraseAnim.svg">
  <defs
     id="defs4" />
  <sodipodi:namedview
     id="base"
     pagecolor="#ffffff"
     bordercolor="#666666"
     borderopacity="1.0"
     inkscape:pageopacity="0.0"
     inkscape:pageshadow="2"
     inkscape:zoom="0.98994949"
     inkscape:cx="242.55421"
     inkscape:cy="403.47597"
     inkscape:document-units="px"
     inkscape:current-layer="layer1"
     showgrid="false"
     inkscape:window-width="1920"
     inkscape:window-height="996"
     inkscape:window-x="-8"
     inkscape:window-y="-8"
     inkscape:window-maximized="1" />
  <metadata
     id="metadata7">
    <rdf:RDF>
      <cc:Work
         rdf:about="">
        <dc:format>image/svg+xml</dc:format>
        <dc:type
           rdf:resource="http://purl.org/dc/dcmitype/StillImage" />
        <dc:title />
      </cc:Work>
    </rdf:RDF>
  </metadata>
  <g
     inkscape:label="Layer 1"
     inkscape:groupmode="layer"
     id="layer1"
     transform="translate(0,-308.2677)"
     style="display:inline">
    <text
       xml:space="preserve"
       style="font-size:40px;font-style:normal;font-weight:normal;line-height:125%;letter-spacing:0px;word-spacing:0px;fill:#000000;fill-opacity:1;stroke:none;font-family:Sans"
       x="26.263968"
       y="666.48389"
       id="text2985"
       sodipodi:linespacing="125%"><tspan
         sodipodi:role="line"
         id="tspan2987"
         x="26.263968"
         y="666.48389">The     villain     ran         along       the     bank </tspan></text>
  </g>
  <g
     inkscape:groupmode="layer"
     id="layer6"
     inkscape:label="Senses"
     style="display:none">
    <g
       style="display:inline"
       id="g3873"
       transform="translate(40.953655,-287.09939)">
      <rect
         y="559.80701"
         x="106.57111"
         height="20.574085"
         width="104.46102"
         id="rect2989"
         style="fill:none;stroke:#000000;stroke-width:0.45722288px;stroke-linecap:butt;stroke-linejoin:miter;stroke-opacity:1" />
      <text
         sodipodi:linespacing="125%"
         id="text3845"
         y="577.10156"
         x="106.72167"
         style="font-size:18.61711693px;font-style:normal;font-weight:normal;line-height:125%;letter-spacing:0px;word-spacing:0px;fill:#000000;fill-opacity:1;stroke:none;font-family:Sans"
         xml:space="preserve"><tspan
           y="577.10156"
           x="106.72167"
           id="tspan3847"
           sodipodi:role="line">1. scoundrel</tspan></text>
    </g>
    <g
       style="display:inline"
       id="g3878"
       transform="translate(27.025085,-290.31368)">
      <rect
         y="593.64062"
         x="120.0005"
         height="24.232267"
         width="104.46102"
         id="rect2989-8"
         style="fill:none;stroke:#000000;stroke-width:0.49620911px;stroke-linecap:butt;stroke-linejoin:miter;stroke-opacity:1" />
      <text
         sodipodi:linespacing="125%"
         id="text3845-8"
         y="613.35034"
         x="121.93676"
         style="font-size:18.61711693px;font-style:normal;font-weight:normal;line-height:125%;letter-spacing:0px;word-spacing:0px;fill:#000000;fill-opacity:1;stroke:none;font-family:Sans"
         xml:space="preserve"><tspan
           y="613.35034"
           x="121.93676"
           id="tspan3847-2"
           sodipodi:role="line">2. baddie</tspan></text>
    </g>
    <g
       style="display:inline"
       transform="matrix(0.63335968,0,0,1,225.19608,-377.00553)"
       id="g3914">
      <rect
         y="593.64062"
         x="120.0005"
         height="28.508844"
         width="138.97691"
         id="rect2989-8-5"
         style="fill:none;stroke:#000000;stroke-width:0.62080002px;stroke-linecap:butt;stroke-linejoin:miter;stroke-opacity:1" />
      <text
         xml:space="preserve"
         style="font-size:26.483181px;font-style:normal;font-weight:normal;line-height:125%;letter-spacing:0px;word-spacing:0px;fill:#000000;fill-opacity:1;stroke:none;font-family:Sans"
         x="94.050392"
         y="813.93506"
         id="text3910"
         sodipodi:linespacing="125%"
         transform="scale(1.3241591,0.75519626)"><tspan
           sodipodi:role="line"
           id="tspan3912"
           x="94.050392"
           y="813.93506">1. run</tspan></text>
    </g>
    <g
       style="display:inline"
       transform="matrix(0.57032139,0,0,1,232.25924,-341.38968)"
       id="g3914-7">
      <rect
         y="593.64062"
         x="120.0005"
         height="28.508844"
         width="153.60318"
         id="rect2989-8-5-1"
         style="fill:none;stroke:#000000;stroke-width:0.65265018px;stroke-linecap:butt;stroke-linejoin:miter;stroke-opacity:1" />
      <text
         xml:space="preserve"
         style="font-size:26.483181px;font-style:normal;font-weight:normal;line-height:125%;letter-spacing:0px;word-spacing:0px;fill:#000000;fill-opacity:1;stroke:none;font-family:Sans"
         x="94.050392"
         y="813.93506"
         id="text3910-1"
         sodipodi:linespacing="125%"
         transform="scale(1.3241591,0.75519626)"><tspan
           sodipodi:role="line"
           id="tspan3912-5"
           x="94.050392"
           y="813.93506">2. scat</tspan></text>
    </g>
    <g
       style="display:inline"
       id="g4036"
       transform="translate(3.0221747,-313.56821)">
      <g
         id="g3914-7-4"
         transform="matrix(0.62088992,0,0,1,224.24012,15.657379)">
        <rect
           style="fill:none;stroke:#000000;stroke-width:0.62123019px;stroke-linecap:butt;stroke-linejoin:miter;stroke-opacity:1"
           id="rect2989-8-5-1-2"
           width="139.16959"
           height="28.508844"
           x="120.0005"
           y="593.64062" />
        <text
           transform="scale(1.3241591,0.75519626)"
           sodipodi:linespacing="125%"
           id="text3910-1-3"
           y="813.93506"
           x="94.050392"
           style="font-size:26.483181px;font-style:normal;font-weight:normal;line-height:125%;letter-spacing:0px;word-spacing:0px;fill:#000000;fill-opacity:1;stroke:none;font-family:Sans"
           xml:space="preserve"><tspan
             y="813.93506"
             x="94.050392"
             id="tspan3912-5-2"
             sodipodi:role="line">32. race</tspan></text>
      </g>
    </g>
    <text
       xml:space="preserve"
       style="font-size:20px;font-style:normal;font-weight:normal;line-height:125%;letter-spacing:0px;word-spacing:0px;fill:#000000;fill-opacity:1;stroke:none;display:inline;font-family:Sans"
       x="333.34204"
       y="289.27606"
       id="text4042"
       sodipodi:linespacing="125%"><tspan
         sodipodi:role="line"
         id="tspan4044"
         x="333.34204"
         y="289.27606">...</tspan></text>
    <g
       style="display:inline"
       id="g4100"
       transform="translate(48.823115,-397.5022)">
      <g
         id="g3914-6"
         transform="matrix(0.63335968,0,0,1,342.84248,5.8957063)">
        <rect
           style="fill:none;stroke:#000000;stroke-width:0.78616434px;stroke-linecap:butt;stroke-linejoin:miter;stroke-opacity:1"
           id="rect2989-8-5-18"
           width="222.87732"
           height="28.508844"
           x="120.0005"
           y="593.64062" />
        <text
           transform="scale(1.3241591,0.75519626)"
           sodipodi:linespacing="125%"
           id="text3910-9"
           y="813.93506"
           x="94.050392"
           style="font-size:26.483181px;font-style:normal;font-weight:normal;line-height:125%;letter-spacing:0px;word-spacing:0px;fill:#000000;fill-opacity:1;stroke:none;font-family:Sans"
           xml:space="preserve"><tspan
             y="813.93506"
             x="94.050392"
             id="tspan3912-2"
             sodipodi:role="line">1. beside</tspan></text>
      </g>
    </g>
    <g
       style="display:inline"
       id="g4136"
       transform="translate(33.326755,-374.17737)">
      <g
         transform="translate(13.894478,10.844498)"
         id="g4100-7">
        <g
           transform="matrix(0.63335968,0,0,1,342.84248,5.8957063)"
           id="g3914-6-9">
          <rect
             y="594.47015"
             x="120.0005"
             height="26.849792"
             width="225.01469"
             id="rect2989-8-5-18-5"
             style="fill:none;stroke:#000000;stroke-width:0.7665959px;stroke-linecap:butt;stroke-linejoin:miter;stroke-opacity:1" />
          <text
             xml:space="preserve"
             style="font-size:26.483181px;font-style:normal;font-weight:normal;line-height:125%;letter-spacing:0px;word-spacing:0px;fill:#000000;fill-opacity:1;stroke:none;font-family:Sans"
             x="94.050392"
             y="813.93506"
             id="text3910-9-4"
             sodipodi:linespacing="125%"
             transform="scale(1.3241591,0.75519626)"><tspan
               sodipodi:role="line"
               id="tspan3912-2-3"
               x="94.050392"
               y="813.93506">2.in company</tspan></text>
        </g>
      </g>
    </g>
    <g
       style="display:inline"
       id="g4136-1"
       transform="translate(33.394815,-336.36932)">
      <g
         transform="translate(14.399554,5.2886588)"
         id="g4100-7-2">
        <g
           transform="matrix(0.63335968,0,0,1,342.84248,5.8957063)"
           id="g3914-6-9-3">
          <rect
             y="594.47015"
             x="120.0005"
             height="26.849792"
             width="225.01469"
             id="rect2989-8-5-18-5-3"
             style="fill:none;stroke:#000000;stroke-width:0.7665959px;stroke-linecap:butt;stroke-linejoin:miter;stroke-opacity:1" />
          <text
             xml:space="preserve"
             style="font-size:26.483181px;font-style:normal;font-weight:normal;line-height:125%;letter-spacing:0px;word-spacing:0px;fill:#000000;fill-opacity:1;stroke:none;font-family:Sans"
             x="94.050392"
             y="813.93506"
             id="text3910-9-4-4"
             sodipodi:linespacing="125%"
             transform="scale(1.3241591,0.75519626)"><tspan
               sodipodi:role="line"
               id="tspan3912-2-3-1"
               x="94.050392"
               y="813.93506">3.in addition</tspan></text>
        </g>
      </g>
    </g>
    <g
       style="display:inline"
       id="g4209"
       transform="translate(27.770915,-269.1215)">
      <g
         transform="translate(4.108675,-34.417861)"
         id="g4136-1-1">
        <g
           id="g4100-7-2-3"
           transform="translate(14.399554,5.2886588)">
          <g
             id="g3914-6-9-3-8"
             transform="matrix(0.63335968,0,0,1,342.84248,5.8957063)">
            <rect
               style="fill:none;stroke:#000000;stroke-width:0.77027512px;stroke-linecap:butt;stroke-linejoin:miter;stroke-opacity:1"
               id="rect2989-8-5-18-5-3-7"
               width="227.17975"
               height="26.849792"
               x="120.0005"
               y="594.47015" />
            <text
               transform="scale(1.3241591,0.75519626)"
               sodipodi:linespacing="125%"
               id="text3910-9-4-4-4"
               y="813.93506"
               x="94.050392"
               style="font-size:26.483181px;font-style:normal;font-weight:normal;line-height:125%;letter-spacing:0px;word-spacing:0px;fill:#000000;fill-opacity:1;stroke:none;font-family:Sans"
               xml:space="preserve"><tspan
                 y="813.93506"
                 x="94.050392"
                 id="tspan3912-2-3-1-2"
                 sodipodi:role="line">4.in line</tspan></text>
          </g>
        </g>
      </g>
    </g>
    <g
       style="display:inline"
       id="g4136-1-7"
       transform="translate(313.71217,-412.13076)">
      <g
         transform="translate(14.399554,5.2886588)"
         id="g4100-7-2-7">
        <g
           transform="matrix(0.63335968,0,0,1,342.84248,5.8957063)"
           id="g3914-6-9-3-9">
          <rect
             y="594.47015"
             x="120.0005"
             height="26.849792"
             width="248.47314"
             id="rect2989-8-5-18-5-3-3"
             style="fill:none;stroke:#000000;stroke-width:0.80556536px;stroke-linecap:butt;stroke-linejoin:miter;stroke-opacity:1" />
          <text
             xml:space="preserve"
             style="font-size:26.483181px;font-style:normal;font-weight:normal;line-height:125%;letter-spacing:0px;word-spacing:0px;fill:#000000;fill-opacity:1;stroke:none;font-family:Sans"
             x="94.050392"
             y="813.93506"
             id="text3910-9-4-4-1"
             sodipodi:linespacing="125%"
             transform="scale(1.3241591,0.75519626)"><tspan
               sodipodi:role="line"
               id="tspan3912-2-3-1-9"
               x="94.050392"
               y="813.93506">1.sloping land</tspan></text>
        </g>
      </g>
    </g>
    <g
       style="display:inline"
       id="g4136-1-7-8"
       transform="translate(313.20707,-380.31095)">
      <g
         transform="translate(14.399554,5.2886588)"
         id="g4100-7-2-7-6">
        <g
           transform="matrix(0.63335968,0,0,1,342.84248,5.8957063)"
           id="g3914-6-9-3-9-5">
          <rect
             y="594.47015"
             x="120.0005"
             height="26.849792"
             width="248.08435"
             id="rect2989-8-5-18-5-3-3-0"
             style="fill:none;stroke:#000000;stroke-width:0.8049348px;stroke-linecap:butt;stroke-linejoin:miter;stroke-opacity:1" />
          <text
             xml:space="preserve"
             style="font-size:26.483181px;font-style:normal;font-weight:normal;line-height:125%;letter-spacing:0px;word-spacing:0px;fill:#000000;fill-opacity:1;stroke:none;font-family:Sans"
             x="94.050392"
             y="813.93506"
             id="text3910-9-4-4-1-2"
             sodipodi:linespacing="125%"
             transform="scale(1.3241591,0.75519626)"><tspan
               sodipodi:role="line"
               id="tspan3912-2-3-1-9-8"
               x="94.050392"
               y="813.93506">2.financial. inst.</tspan></text>
        </g>
      </g>
    </g>
    <g
       style="display:inline"
       id="g4136-1-7-8-6"
       transform="translate(313.47753,-345.96577)">
      <g
         transform="translate(14.399554,5.2886588)"
         id="g4100-7-2-7-6-0">
        <g
           transform="matrix(0.63335968,0,0,1,342.84248,5.8957063)"
           id="g3914-6-9-3-9-5-2">
          <rect
             y="594.47015"
             x="120.0005"
             height="26.849792"
             width="248.08435"
             id="rect2989-8-5-18-5-3-3-0-4"
             style="fill:none;stroke:#000000;stroke-width:0.8049348px;stroke-linecap:butt;stroke-linejoin:miter;stroke-opacity:1" />
          <text
             xml:space="preserve"
             style="font-size:26.483181px;font-style:normal;font-weight:normal;line-height:125%;letter-spacing:0px;word-spacing:0px;fill:#000000;fill-opacity:1;stroke:none;font-family:Sans"
             x="94.050392"
             y="813.93506"
             id="text3910-9-4-4-1-2-8"
             sodipodi:linespacing="125%"
             transform="scale(1.3241591,0.75519626)"><tspan
               sodipodi:role="line"
               id="tspan3912-2-3-1-9-8-6"
               x="94.050392"
               y="813.93506">3.long ridge</tspan></text>
        </g>
      </g>
    </g>
    <g
       style="display:inline"
       id="g4136-1-7-8-6-5"
       transform="translate(312.97245,-306.56982)">
      <g
         transform="translate(14.399554,5.2886588)"
         id="g4100-7-2-7-6-0-0">
        <g
           transform="matrix(0.63335968,0,0,1,342.84248,5.8957063)"
           id="g3914-6-9-3-9-5-2-9">
          <rect
             y="594.47015"
             x="120.0005"
             height="26.849792"
             width="248.08435"
             id="rect2989-8-5-18-5-3-3-0-4-0"
             style="fill:none;stroke:#000000;stroke-width:0.8049348px;stroke-linecap:butt;stroke-linejoin:miter;stroke-opacity:1" />
          <text
             xml:space="preserve"
             style="font-size:26.483181px;font-style:normal;font-weight:normal;line-height:125%;letter-spacing:0px;word-spacing:0px;fill:#000000;fill-opacity:1;stroke:none;font-family:Sans"
             x="94.050392"
             y="813.93506"
             id="text3910-9-4-4-1-2-8-0"
             sodipodi:linespacing="125%"
             transform="scale(1.3241591,0.75519626)"><tspan
               sodipodi:role="line"
               id="tspan3912-2-3-1-9-8-6-6"
               x="94.050392"
               y="813.93506">9.building</tspan></text>
        </g>
      </g>
    </g>
    <text
       xml:space="preserve"
       style="font-size:20px;font-style:normal;font-weight:normal;line-height:125%;letter-spacing:0px;word-spacing:0px;fill:#000000;fill-opacity:1;stroke:none;display:inline;font-family:Sans"
       x="808.84088"
       y="294.82275"
       id="text4042-1"
       sodipodi:linespacing="125%"><tspan
         sodipodi:role="line"
         id="tspan4044-3"
         x="808.84088"
         y="294.82275">...</tspan></text>
  </g>
  <g
     inkscape:groupmode="layer"
     id="layer2"
     inkscape:label="Layer Links"
     style="display:none">
    <path
       style="fill:none;stroke:#000000;stroke-width:1px;stroke-linecap:butt;stroke-linejoin:miter;stroke-opacity:1;display:inline"
       d="m 747.51434,270.66791 -138.3909,-58.58885 137.88582,97.9848"
       id="path4392"
       inkscape:connector-curvature="0" />
    <path
       style="fill:none;stroke:#000000;stroke-width:1px;stroke-linecap:butt;stroke-linejoin:miter;stroke-opacity:1;display:inline"
       d="m 747.00926,206.52322 1.01015,-0.50507 -138.89597,41.41625 138.89597,-11.11168"
       id="path4394"
       inkscape:connector-curvature="0" />
    <path
       style="fill:none;stroke:#000000;stroke-width:1px;stroke-linecap:butt;stroke-linejoin:miter;stroke-opacity:1;display:inline"
       d="M 748.01941,269.65776 609.62852,247.93948 747.00926,310.06386"
       id="path4396"
       inkscape:connector-curvature="0" />
    <path
       style="fill:none;stroke:#000000;stroke-width:1px;stroke-linecap:butt;stroke-linejoin:miter;stroke-opacity:1;display:inline"
       d="M 747.51434,206.52322 609.62852,279.75928 747.00926,236.32272"
       id="path4398"
       inkscape:connector-curvature="0" />
    <path
       style="fill:none;stroke:#000000;stroke-width:1px;stroke-linecap:butt;stroke-linejoin:miter;stroke-opacity:1;display:inline"
       d="m 747.51434,270.16283 -137.88582,9.09138 137.38074,30.30457"
       id="path4400"
       inkscape:connector-curvature="0" />
    <path
       style="fill:none;stroke:#000000;stroke-width:1px;stroke-linecap:butt;stroke-linejoin:miter;stroke-opacity:1;display:inline"
       d="M 747.51434,205.51307 610.13359,313.09432 747.00926,236.32272"
       id="path4402"
       inkscape:connector-curvature="0" />
    <path
       style="fill:none;stroke:#000000;stroke-width:1px;stroke-linecap:butt;stroke-linejoin:miter;stroke-opacity:1;display:inline"
       d="m 609.62852,312.08416 137.88582,-42.4264"
       id="path4404"
       inkscape:connector-curvature="0" />
    <path
       style="fill:none;stroke:#000000;stroke-width:1px;stroke-linecap:butt;stroke-linejoin:miter;stroke-opacity:1;display:inline"
       d="m 609.12344,314.10447 137.88582,-4.04061"
       id="path4406"
       inkscape:connector-curvature="0" />
    <path
       style="fill:none;stroke:#000000;stroke-width:1px;stroke-linecap:butt;stroke-linejoin:miter;stroke-opacity:1;display:inline"
       d="m 466.74802,281.01454 -76.7716,-51.51778 75.76144,85.35789"
       id="path4380"
       inkscape:connector-curvature="0" />
    <path
       style="fill:none;stroke:#000000;stroke-width:1px;stroke-linecap:butt;stroke-linejoin:miter;stroke-opacity:1;display:inline"
       d="m 467.75817,213.33432 -78.7919,53.03301 77.78175,-17.67767"
       id="path4382"
       inkscape:connector-curvature="0" />
    <path
       style="fill:none;stroke:#000000;stroke-width:1px;stroke-linecap:butt;stroke-linejoin:miter;stroke-opacity:1;display:inline"
       d="m 467.25309,280.50947 -78.7919,-15.15229 77.27667,48.9924"
       id="path4384"
       inkscape:connector-curvature="0" />
    <path
       style="fill:none;stroke:#000000;stroke-width:1px;stroke-linecap:butt;stroke-linejoin:miter;stroke-opacity:1;display:inline"
       d="m 467.75817,213.33432 -79.29698,95.45942 78.28683,-60.10408"
       id="path4386"
       inkscape:connector-curvature="0" />
    <path
       style="fill:none;stroke:#000000;stroke-width:1px;stroke-linecap:butt;stroke-linejoin:miter;stroke-opacity:1;display:inline"
       d="m 467.25309,280.00439 -79.29697,28.28427 77.27667,5.55584"
       id="path4388"
       inkscape:connector-curvature="0" />
    <path
       style="fill:none;stroke:#000000;stroke-width:1px;stroke-linecap:butt;stroke-linejoin:miter;stroke-opacity:1;display:inline"
       d="m 302.14414,229.02014 -50.00255,85.86297 48.9924,-48.48732"
       id="path4370"
       inkscape:connector-curvature="0" />
    <path
       style="fill:none;stroke:#000000;stroke-width:1px;stroke-linecap:butt;stroke-linejoin:miter;stroke-opacity:1;display:inline"
       d="m 252.64667,314.37803 49.49747,-4.04061"
       id="path4372"
       inkscape:connector-curvature="0" />
    <path
       style="fill:none;stroke:#000000;stroke-width:1px;stroke-linecap:butt;stroke-linejoin:miter;stroke-opacity:1;display:inline"
       d="m 252.64667,282.55823 48.99239,27.77919"
       id="path4376"
       inkscape:connector-curvature="0" />
    <path
       style="fill:none;stroke:#000000;stroke-width:1;stroke-linecap:butt;stroke-linejoin:miter;stroke-miterlimit:4;stroke-opacity:1;stroke-dasharray:none"
       d="m 252.5,281.95162 48.92857,-52.14285"
       id="path4528"
       inkscape:connector-curvature="0" />
    <path
       style="fill:none;stroke:#000000;stroke-width:1px;stroke-linecap:butt;stroke-linejoin:miter;stroke-opacity:1"
       d="m 301.42857,266.59448 -48.57143,16.07143"
       id="path4530"
       inkscape:connector-curvature="0" />
    <path
       style="fill:none;stroke:#000000;stroke-width:1px;stroke-linecap:butt;stroke-linejoin:miter;stroke-opacity:1"
       d="M 390,229.45162 468.21429,213.3802"
       id="path4532"
       inkscape:connector-curvature="0" />
    <path
       style="fill:none;stroke:#000000;stroke-width:1px;stroke-linecap:butt;stroke-linejoin:miter;stroke-opacity:1"
       d="m 389.64286,229.09448 76.78571,19.64286"
       id="path4534"
       inkscape:connector-curvature="0" />
    <path
       style="fill:none;stroke:#000000;stroke-width:1px;stroke-linecap:butt;stroke-linejoin:miter;stroke-opacity:1"
       d="M 608.92857,211.95162 747.5,205.52305"
       id="path4591"
       inkscape:connector-curvature="0" />
    <path
       style="fill:none;stroke:#000000;stroke-width:1px;stroke-linecap:butt;stroke-linejoin:miter;stroke-opacity:1"
       d="m 608.57143,211.59448 138.57143,24.64286"
       id="path4593"
       inkscape:connector-curvature="0" />
  </g>
  <g
     inkscape:groupmode="layer"
     id="layer4"
     inkscape:label="CoarseLinks"
     style="display:inline">
    <path
       inkscape:connector-curvature="0"
       d="m 609.01111,211.87671 136.625,97.9825"
       style="fill:none;stroke:#000000;stroke-width:1;stroke-linecap:butt;stroke-linejoin:miter;stroke-miterlimit:4;stroke-opacity:1;stroke-dasharray:none"
       id="path3435" />
    <path
       inkscape:connector-curvature="0"
       d="m 746.13986,206.31921 -136.875,73.2375"
       style="fill:none;stroke:#000000;stroke-width:1;stroke-linecap:butt;stroke-linejoin:miter;stroke-miterlimit:4;stroke-opacity:1;stroke-dasharray:none"
       id="path3439" />
    <path
       inkscape:connector-curvature="0"
       d="M 745.06986,309.24421 609.51861,279.55671"
       style="fill:none;stroke:#000000;stroke-width:1;stroke-linecap:butt;stroke-linejoin:miter;stroke-miterlimit:4;stroke-opacity:1;stroke-dasharray:none"
       id="path3443" />
    <path
       inkscape:connector-curvature="0"
       d="M 746.13986,205.30921 608.76111,312.89171"
       style="fill:none;stroke:#000000;stroke-width:1;stroke-linecap:butt;stroke-linejoin:miter;stroke-miterlimit:4;stroke-opacity:1;stroke-dasharray:none"
       id="path3447" />
    <path
       inkscape:connector-curvature="0"
       d="m 608.76111,314.15171 136.875,-4.2925"
       style="fill:none;stroke:#000000;stroke-width:1;stroke-linecap:butt;stroke-linejoin:miter;stroke-miterlimit:4;stroke-opacity:1;stroke-dasharray:none"
       id="path3451" />
    <path
       inkscape:connector-curvature="0"
       d="m 466.63736,280.05421 -78.0375,-50.76125 76.27,83.58875"
       style="fill:none;stroke:#000000;stroke-width:1;stroke-linecap:butt;stroke-linejoin:miter;stroke-miterlimit:4;stroke-opacity:1;stroke-dasharray:none"
       id="path3455" />
    <path
       inkscape:connector-curvature="0"
       d="m 467.64861,213.13046 -80.56125,95.46"
       style="fill:none;stroke:#000000;stroke-width:1;stroke-linecap:butt;stroke-linejoin:miter;stroke-miterlimit:4;stroke-opacity:1;stroke-dasharray:none"
       id="path3459" />
    <path
       inkscape:connector-curvature="0"
       d="m 467.14111,279.80046 -80.5575,28.28625 79.04375,5.3025"
       style="fill:none;stroke:#000000;stroke-width:1;stroke-linecap:butt;stroke-linejoin:miter;stroke-miterlimit:4;stroke-opacity:1;stroke-dasharray:none"
       id="path3463" />
    <path
       inkscape:connector-curvature="0"
       d="m 252.65861,284.03921 48.745,23.90125"
       style="fill:none;stroke:#000000;stroke-width:1;stroke-linecap:butt;stroke-linejoin:miter;stroke-miterlimit:4;stroke-opacity:1;stroke-dasharray:none"
       id="path3467" />
    <path
       inkscape:connector-curvature="0"
       d="m 252.13611,281.24171 48.93,-52.13875"
       style="fill:none;stroke:#000000;stroke-width:1;stroke-linecap:butt;stroke-linejoin:miter;stroke-miterlimit:4;stroke-opacity:1;stroke-dasharray:none"
       id="path3471" />
    <path
       inkscape:connector-curvature="0"
       d="m 388.62486,229.24921 79.4775,-16.32375"
       style="fill:none;stroke:#000000;stroke-width:1;stroke-linecap:butt;stroke-linejoin:miter;stroke-miterlimit:4;stroke-opacity:1;stroke-dasharray:none"
       id="path3475" />
    <path
       inkscape:connector-curvature="0"
       d="m 608.81486,211.74921 137.31,-6.43125"
       style="fill:none;stroke:#000000;stroke-width:1;stroke-linecap:butt;stroke-linejoin:miter;stroke-miterlimit:4;stroke-opacity:1;stroke-dasharray:none"
       id="path3479" />
  </g>
  <g
     inkscape:groupmode="layer"
     id="layer5"
     inkscape:label="CoarseSenses"
     style="display:inline">
    <g
       id="g4181"
       transform="translate(88.484771,-277.6182)">
      <g
         id="g3347"
         transform="matrix(1.25,0,0,1.25,-89.360921,283.50484)">
        <path
           inkscape:connector-curvature="0"
           d="m 118.48,213.32 83.566,0 0,43.641 -83.566,0 0,-43.641 z"
           style="fill:none;stroke:#000000;stroke-width:1.60000002;stroke-linecap:butt;stroke-linejoin:miter;stroke-miterlimit:4;stroke-opacity:1;stroke-dasharray:none"
           id="path3349" />
      </g>
      <g
         id="g3357"
         transform="matrix(0.7917,0,0,1.25,-89.360921,283.50484)">
        <path
           inkscape:connector-curvature="0"
           d="m 381.17,168.461 111.182,0 0,51.254 -111.182,0 0,-51.254 z"
           style="fill:none;stroke:#000000;stroke-width:2.01045704;stroke-linecap:butt;stroke-linejoin:miter;stroke-miterlimit:4;stroke-opacity:1;stroke-dasharray:none"
           id="path3359" />
      </g>
      <g
         id="g3369"
         transform="matrix(0.7761125,0,0,1.25,-89.360921,283.50484)">
        <path
           inkscape:connector-curvature="0"
           d="m 389.562,231.738 111.338,0 0,22.809 -111.338,0 0,-22.809 z"
           style="fill:none;stroke:#000000;stroke-width:1.01527297;stroke-linecap:butt;stroke-linejoin:miter;stroke-miterlimit:4;stroke-opacity:1;stroke-dasharray:none"
           id="path3371" />
      </g>
      <text
         style="font-size:15px"
         y="566.72418"
         x="244.55627"
         id="text3377">
        <tspan
           style="font-size:20px;font-variant:normal;font-weight:normal;writing-mode:lr-tb;fill:#000000;fill-opacity:1;fill-rule:nonzero;stroke:none;font-family:Arial;-inkscape-font-specification:ArialMT"
           x="244.55627 250.09628 255.63628"
           y="566.72418"
           sodipodi:role="line"
           id="tspan3379">...</tspan>
      </text>
      <g
         id="g3381"
         transform="matrix(0.7917,0,0,1.25,-89.360921,283.50484)">
        <path
           inkscape:connector-curvature="0"
           d="m 591.439,156.781 178.303,0 0,49.32 -178.303,0 0,-49.32 z"
           style="fill:none;stroke:#000000;stroke-width:2.01045704;stroke-linecap:butt;stroke-linejoin:miter;stroke-miterlimit:4;stroke-opacity:1;stroke-dasharray:none"
           id="path3383" />
      </g>
      <g
         id="g3391"
         transform="matrix(0.7917,0,0,1.25,-89.360921,283.50484)">
        <path
           inkscape:connector-curvature="0"
           d="m 590.144,210.582 180.011,0 0,21.48 -180.011,0 0,-21.48 z"
           style="fill:none;stroke:#000000;stroke-width:1.005229;stroke-linecap:butt;stroke-linejoin:miter;stroke-miterlimit:4;stroke-opacity:1;stroke-dasharray:none"
           id="path3393" />
      </g>
      <g
         id="g3399"
         transform="matrix(0.7917,0,0,1.25,-89.360921,283.50484)">
        <path
           inkscape:connector-curvature="0"
           d="m 588.226,236.848 181.744,0 0,21.48 -181.744,0 0,-21.48 z"
           style="fill:none;stroke:#000000;stroke-width:1.005229;stroke-linecap:butt;stroke-linejoin:miter;stroke-miterlimit:4;stroke-opacity:1;stroke-dasharray:none"
           id="path3401" />
      </g>
      <g
         id="g3407"
         transform="matrix(0.7917,0,0,1.25,-89.360921,283.50484)">
        <path
           inkscape:connector-curvature="0"
           d="m 944.214,149.973 198.779,0 0,47.90927 -198.779,0 0,-47.90927 z"
           style="fill:none;stroke:#000000;stroke-width:1.9927187;stroke-linecap:butt;stroke-linejoin:miter;stroke-miterlimit:4;stroke-opacity:1;stroke-dasharray:none"
           id="path3409" />
      </g>
      <g
         id="g3417"
         transform="matrix(0.7917,0,0,1.25,-89.360921,283.50484)">
        <path
           inkscape:connector-curvature="0"
           d="m 943.573,202.57797 198.47,0 0,54.00897 -198.47,0 0,-54.00897 z"
           style="fill:none;stroke:#000000;stroke-width:2.14263368;stroke-linecap:butt;stroke-linejoin:miter;stroke-miterlimit:4;stroke-opacity:1;stroke-dasharray:none"
           id="path3419" />
      </g>
      <text
         style="font-size:15px"
         y="609.64655"
         x="696.82166"
         id="text3429">
        <tspan
           style="font-size:20px;font-variant:normal;font-weight:normal;writing-mode:lr-tb;fill:#000000;fill-opacity:1;fill-rule:nonzero;stroke:none;font-family:Arial;-inkscape-font-specification:ArialMT"
           x="696.82166 702.36163 707.90161"
           y="609.64655"
           sodipodi:role="line"
           id="tspan3431">...</tspan>
      </text>
      <g
         id="g3433"
         transform="matrix(1.25,0,0,1.25,-89.360921,283.50484)" />
      <g
         id="g3437"
         transform="matrix(1.25,0,0,1.25,-89.360921,283.50484)" />
      <g
         id="g3441"
         transform="matrix(1.25,0,0,1.25,-89.360921,283.50484)" />
      <g
         id="g3445"
         transform="matrix(1.25,0,0,1.25,-89.360921,283.50484)" />
      <g
         id="g3449"
         transform="matrix(1.25,0,0,1.25,-89.360921,283.50484)" />
      <g
         id="g3453"
         transform="matrix(1.25,0,0,1.25,-89.360921,283.50484)" />
      <g
         id="g3457"
         transform="matrix(1.25,0,0,1.25,-89.360921,283.50484)" />
      <g
         id="g3461"
         transform="matrix(1.25,0,0,1.25,-89.360921,283.50484)" />
      <g
         id="g3465"
         transform="matrix(1.25,0,0,1.25,-89.360921,283.50484)" />
      <g
         id="g3469"
         transform="matrix(1.25,0,0,1.25,-89.360921,283.50484)" />
      <g
         id="g3473"
         transform="matrix(1.25,0,0,1.25,-89.360921,283.50484)" />
      <g
         id="g3477"
         transform="matrix(1.25,0,0,1.25,-89.360921,283.50484)" />
      <g
         id="g3481"
         transform="matrix(1.25,0,0,1.25,-89.360921,283.50484)" />
      <g
         id="g3485"
         transform="matrix(1.25,0,0,1.25,-89.360921,283.50484)" />
      <g
         id="g3489"
         transform="matrix(1.25,0,0,1.25,-89.360921,283.50484)" />
    </g>
    <g
       id="g4257"
       transform="translate(19.192898,76.266517)">
      <text
         xml:space="preserve"
         style="font-size:18.61711693px;font-style:normal;font-weight:normal;line-height:125%;letter-spacing:0px;word-spacing:0px;fill:#000000;fill-opacity:1;stroke:none;display:inline;font-family:Sans"
         x="128.30261"
         y="213.42503"
         id="text3845-4"
         sodipodi:linespacing="125%"><tspan
           sodipodi:role="line"
           id="tspan3847-0"
           x="128.30261"
           y="213.42503">1. scoundrel</tspan></text>
      <text
         xml:space="preserve"
         style="font-size:18.61711693px;font-style:normal;font-weight:normal;line-height:125%;letter-spacing:0px;word-spacing:0px;fill:#000000;fill-opacity:1;stroke:none;display:inline;font-family:Sans"
         x="129.58913"
         y="246.45953"
         id="text3845-8-9"
         sodipodi:linespacing="125%"><tspan
           sodipodi:role="line"
           id="tspan3847-2-4"
           x="129.58913"
           y="246.45953">    baddie</tspan></text>
    </g>
    <g
       id="g4290"
       transform="translate(179.30208,38.890873)">
      <text
         transform="scale(1.0538174,0.948931)"
         sodipodi:linespacing="125%"
         id="text3910-8"
         y="209.16283"
         x="118.76632"
         style="font-size:21.07634735px;font-style:normal;font-weight:normal;line-height:125%;letter-spacing:0px;word-spacing:0px;fill:#000000;fill-opacity:1;stroke:none;display:inline;font-family:Sans"
         xml:space="preserve"><tspan
           y="209.16283"
           x="118.76632"
           id="tspan3912-8"
           sodipodi:role="line">1. run</tspan></text>
      <text
         sodipodi:linespacing="125%"
         id="text3910-1-2"
         y="234.09694"
         x="124.37053"
         style="font-size:20px;font-style:normal;font-weight:normal;line-height:125%;letter-spacing:0px;word-spacing:0px;fill:#000000;fill-opacity:1;stroke:none;display:inline;font-family:Sans"
         xml:space="preserve"><tspan
           y="234.09694"
           x="124.37053"
           id="tspan3912-5-4"
           sodipodi:role="line">    scat</tspan></text>
    </g>
    <text
       transform="scale(1.0433919,0.95841265)"
       sodipodi:linespacing="125%"
       id="text3910-1-3-5"
       y="331.06253"
       x="291.93161"
       style="font-size:20.86783791px;font-style:normal;font-weight:normal;line-height:125%;letter-spacing:0px;word-spacing:0px;fill:#000000;fill-opacity:1;stroke:none;display:inline;font-family:Sans"
       xml:space="preserve"><tspan
         y="331.06253"
         x="291.93161"
         id="tspan3912-5-2-5"
         sodipodi:role="line">32. race</tspan></text>
    <g
       id="g4344"
       transform="translate(-68.690373,155.56349)">
      <text
         xml:space="preserve"
         style="font-size:21.07634735px;font-style:normal;font-weight:normal;line-height:125%;letter-spacing:0px;word-spacing:0px;fill:#000000;fill-opacity:1;stroke:none;display:inline;font-family:Sans"
         x="511.8114"
         y="71.040413"
         id="text3910-9-1"
         sodipodi:linespacing="125%"
         transform="scale(1.0538174,0.948931)"><tspan
           sodipodi:role="line"
           id="tspan3912-2-7"
           x="511.8114"
           y="71.040413">1. beside</tspan></text>
      <text
         transform="scale(1.0538174,0.948931)"
         sodipodi:linespacing="125%"
         id="text3910-9-4-1"
         y="107.04864"
         x="510.29132"
         style="font-size:21.07634735px;font-style:normal;font-weight:normal;line-height:125%;letter-spacing:0px;word-spacing:0px;fill:#000000;fill-opacity:1;stroke:none;display:inline;font-family:Sans"
         xml:space="preserve"><tspan
           y="107.04864"
           x="510.29132"
           id="tspan3912-2-3-15"
           sodipodi:role="line">   in company</tspan></text>
    </g>
    <text
       xml:space="preserve"
       style="font-size:21.07634735px;font-style:normal;font-weight:normal;line-height:125%;letter-spacing:0px;word-spacing:0px;fill:#000000;fill-opacity:1;stroke:none;display:inline;font-family:Sans"
       x="445.297"
       y="305.37271"
       id="text3910-9-4-4-2"
       sodipodi:linespacing="125%"
       transform="scale(1.0538174,0.948931)"><tspan
         sodipodi:role="line"
         id="tspan3912-2-3-1-7"
         x="445.297"
         y="305.37271">3.in addition</tspan></text>
    <text
       transform="scale(1.0538174,0.948931)"
       sodipodi:linespacing="125%"
       id="text3910-9-4-4-4-6"
       y="339.96948"
       x="443.85913"
       style="font-size:21.07634735px;font-style:normal;font-weight:normal;line-height:125%;letter-spacing:0px;word-spacing:0px;fill:#000000;fill-opacity:1;stroke:none;display:inline;font-family:Sans"
       xml:space="preserve"><tspan
         y="339.96948"
         x="443.85913"
         id="tspan3912-2-3-1-2-1"
         sodipodi:role="line">4.in line</tspan></text>
    <g
       id="g4436"
       transform="translate(99.642858,172.14286)">
      <text
         transform="scale(1.0538174,0.948931)"
         sodipodi:linespacing="125%"
         id="text3910-9-4-4-1-4"
         y="43.624897"
         x="617.07831"
         style="font-size:21.07634735px;font-style:normal;font-weight:normal;line-height:125%;letter-spacing:0px;word-spacing:0px;fill:#000000;fill-opacity:1;stroke:none;display:inline;font-family:Sans"
         xml:space="preserve"><tspan
           y="43.624897"
           x="617.07831"
           id="tspan3912-2-3-1-9-2"
           sodipodi:role="line">1.sloping land</tspan></text>
      <text
         transform="scale(1.0538174,0.948931)"
         sodipodi:linespacing="125%"
         id="text3910-9-4-4-1-2-8-2"
         y="78.725304"
         x="620.24469"
         style="font-size:21.07634735px;font-style:normal;font-weight:normal;line-height:125%;letter-spacing:0px;word-spacing:0px;fill:#000000;fill-opacity:1;stroke:none;display:inline;font-family:Sans"
         xml:space="preserve"><tspan
           y="78.725304"
           x="620.24469"
           id="tspan3912-2-3-1-9-8-6-1"
           sodipodi:role="line">  long ridge</tspan></text>
    </g>
    <g
       id="g4430">
      <g
         id="g4442"
         transform="translate(102.14286,163.57143)">
        <text
           xml:space="preserve"
           style="font-size:21.07634735px;font-style:normal;font-weight:normal;line-height:125%;letter-spacing:0px;word-spacing:0px;fill:#000000;fill-opacity:1;stroke:none;display:inline;font-family:Sans"
           x="614.22668"
           y="123.44988"
           id="text3910-9-4-4-1-2-3"
           sodipodi:linespacing="125%"
           transform="scale(1.0538174,0.948931)"><tspan
             sodipodi:role="line"
             id="tspan3912-2-3-1-9-8-2"
             x="614.22668"
             y="123.44988">2.financial. inst.</tspan></text>
        <text
           xml:space="preserve"
           style="font-size:21.07634735px;font-style:normal;font-weight:normal;line-height:125%;letter-spacing:0px;word-spacing:0px;fill:#000000;fill-opacity:1;stroke:none;display:inline;font-family:Sans"
           x="630.94928"
           y="163.89955"
           id="text3910-9-4-4-1-2-8-0-6"
           sodipodi:linespacing="125%"
           transform="scale(1.0538174,0.948931)"><tspan
             sodipodi:role="line"
             id="tspan3912-2-3-1-9-8-6-6-8"
             x="630.94928"
             y="163.89955">building</tspan></text>
      </g>
    </g>
  </g>
  <g
     inkscape:groupmode="layer"
     id="layer3"
     inkscape:label="Select Layer"
     style="display:none">
    <path
       style="fill:none;stroke:#ff0000;stroke-width:3;stroke-linecap:butt;stroke-linejoin:miter;stroke-miterlimit:4;stroke-opacity:1;stroke-dasharray:none;display:inline"
       d="m 252.67857,281.59448 48.92857,-52.14285"
       id="path4528-8"
       inkscape:connector-curvature="0" />
    <path
       style="fill:none;stroke:#ff0000;stroke-width:3;stroke-linecap:butt;stroke-linejoin:miter;stroke-miterlimit:4;stroke-opacity:1;stroke-dasharray:none;display:inline"
       d="m 389.82143,229.63019 78.21429,-16.07142"
       id="path4532-3"
       inkscape:connector-curvature="0" />
    <path
       style="fill:none;stroke:#ff0000;stroke-width:3;stroke-linecap:butt;stroke-linejoin:miter;stroke-miterlimit:4;stroke-opacity:1;stroke-dasharray:none;display:inline"
       d="m 608.86729,211.44654 138.57143,-6.42857"
       id="path4591-4"
       inkscape:connector-curvature="0" />
  </g>
</svg>
