<?xml version="1.0" encoding="UTF-8" standalone="no"?>
<!-- Created with Inkscape (http://www.inkscape.org/) -->

<svg
   xmlns:dc="http://purl.org/dc/elements/1.1/"
   xmlns:cc="http://creativecommons.org/ns#"
   xmlns:rdf="http://www.w3.org/1999/02/22-rdf-syntax-ns#"
   xmlns:svg="http://www.w3.org/2000/svg"
   xmlns="http://www.w3.org/2000/svg"
   xmlns:sodipodi="http://sodipodi.sourceforge.net/DTD/sodipodi-0.dtd"
   xmlns:inkscape="http://www.inkscape.org/namespaces/inkscape"
   width="143.11131mm"
   height="143.11099mm"
   viewBox="0 0 143.11131 143.11099"
   id="svg29289"
   version="1.1"
   inkscape:version="0.91+devel+osxmenu r12876"
   sodipodi:docname="fr.svg">
  <defs
     id="defs29291" />
  <sodipodi:namedview
     id="base"
     pagecolor="#ffffff"
     bordercolor="#666666"
     borderopacity="1.0"
     inkscape:pageopacity="0.0"
     inkscape:pageshadow="2"
     inkscape:zoom="0.35"
     inkscape:cx="270.44659"
     inkscape:cy="270.44595"
     inkscape:document-units="mm"
     inkscape:current-layer="g29264"
     showgrid="false"
     fit-margin-top="0"
     fit-margin-left="0"
     fit-margin-right="0"
     fit-margin-bottom="0"
     inkscape:window-width="760"
     inkscape:window-height="423"
     inkscape:window-x="0"
     inkscape:window-y="23"
     inkscape:window-maximized="0" />
  <metadata
     id="metadata29294">
    <rdf:RDF>
      <cc:Work
         rdf:about="">
        <dc:format>image/svg+xml</dc:format>
        <dc:type
           rdf:resource="http://purl.org/dc/dcmitype/StillImage" />
        <dc:title></dc:title>
      </cc:Work>
    </rdf:RDF>
  </metadata>
  <g
     inkscape:label="Layer 1"
     inkscape:groupmode="layer"
     id="layer1"
     transform="translate(-34.277673,-86.349264)">
    <g
       transform="matrix(0.35277778,0,0,-0.35277778,-1149.3738,-292.80961)"
       id="g29264">
      <g
         id="g29141">
        <path
           inkscape:connector-curvature="0"
           id="path16141-2"
           style="fill:#ffffff;fill-opacity:1;fill-rule:nonzero;stroke:none"
           d="m 3714.154,-1119.295 c -54.833,54.833 -262.919,54.833 -317.751,10e-4 -54.833,-54.833 -54.832,-262.919 0,-317.751 54.833,-54.833 262.918,-54.833 317.752,0 54.831,54.832 54.831,262.917 -8e-4,317.75" />
        <path
           inkscape:connector-curvature="0"
           id="path16145-9"
           style="fill:#ed1c24;fill-opacity:1;fill-rule:nonzero;stroke:none"
           d="m 3640.2785,-1086.4586 0,-383.423 c 31.987,6.781 58.76,17.721 73.876,32.8371 54.832,54.8309 54.832,262.917 -8e-4,317.7499 -15.1152,15.115 -41.8882,26.055 -73.8752,32.836" />
        <path
           inkscape:connector-curvature="0"
           id="path16149-4"
           style="fill:#176fc1;fill-opacity:1;fill-rule:nonzero;stroke:none"
           d="m 3470.2784,-1086.4571 c -31.987,-6.782 -58.76,-17.721 -73.875,-32.837 -54.833,-54.8319 -54.833,-262.919 0,-317.751 15.115,-15.116 41.888,-26.055 73.875,-32.837 l 0,383.425 z" />
      </g>
      <path
         style="fill:none;fill-opacity:1;stroke:#000000;stroke-width:5.6692915;stroke-miterlimit:4;stroke-dasharray:none;stroke-dashoffset:0;stroke-opacity:1"
         d="m 3558.067,-1077.6157 c -65.7297,2e-4 -131.4595,-13.707 -158.8755,-41.124 -54.833,-54.833 -54.832,-262.9189 0,-317.751 54.833,-54.8329 262.9185,-54.8329 317.7524,0 54.8321,54.8321 54.8314,262.9175 0,317.7496 l 0,0 c -27.4165,27.4165 -93.1459,41.1239 -158.8755,41.124 z"
         id="path27884"
         inkscape:connector-curvature="0" />
      <path
         inkscape:connector-curvature="0"
         id="path29139"
         style="opacity:0.60000598;fill:#000000;fill-opacity:0.33067729;stroke:none"
         d="m 3715.2063,-1116.3365 c -54.833,54.833 -262.919,54.834 -317.751,0 -54.833,-54.833 -54.832,-262.9189 0,-317.7509 54.833,-54.833 262.918,-54.833 317.752,0 54.832,54.832 54.832,262.9179 0,317.7499" />
      <path
         d="m 3715.0687,-1117.7518 c -50.222,50.2231 -240.81,50.2231 -291.03,0 -28.575,-28.5749 262.454,-319.606 291.031,-291.03 50.22,50.22 50.22,240.8071 -8e-4,291.028"
         style="opacity:0.30000299;fill:#ffffff;fill-opacity:1;fill-rule:nonzero;stroke:none"
         id="path27890-1"
         inkscape:connector-curvature="0" />
    </g>
  </g>
</svg>
