<?xml version="1.0" encoding="UTF-8" standalone="no"?>
<!-- Created with Inkscape (http://www.inkscape.org/) -->

<svg
   xmlns:dc="http://purl.org/dc/elements/1.1/"
   xmlns:cc="http://creativecommons.org/ns#"
   xmlns:rdf="http://www.w3.org/1999/02/22-rdf-syntax-ns#"
   xmlns:svg="http://www.w3.org/2000/svg"
   xmlns="http://www.w3.org/2000/svg"
   xmlns:sodipodi="http://sodipodi.sourceforge.net/DTD/sodipodi-0.dtd"
   xmlns:inkscape="http://www.inkscape.org/namespaces/inkscape"
   width="339.76303"
   height="449.47672"
   id="svg3073"
   version="1.1"
   inkscape:version="0.91+devel+osxmenu r12876"
   sodipodi:docname="accept_hiera.svg">
  <defs
     id="defs3075" />
  <sodipodi:namedview
     id="base"
     pagecolor="#ffffff"
     bordercolor="#666666"
     borderopacity="1.0"
     inkscape:pageopacity="0.0"
     inkscape:pageshadow="2"
     inkscape:zoom="1.1252941"
     inkscape:cx="41.330888"
     inkscape:cy="269.20082"
     inkscape:document-units="px"
     inkscape:current-layer="layer1"
     showgrid="false"
     inkscape:window-width="1920"
     inkscape:window-height="1151"
     inkscape:window-x="0"
     inkscape:window-y="23"
     inkscape:window-maximized="0"
     showguides="true"
     inkscape:guide-bbox="true"
     fit-margin-top="0"
     fit-margin-left="0"
     fit-margin-right="0"
     fit-margin-bottom="0"
     inkscape:snap-bbox="true"
     inkscape:bbox-paths="true"
     inkscape:bbox-nodes="true"
     inkscape:snap-bbox-edge-midpoints="true"
     inkscape:snap-bbox-midpoints="true"
     inkscape:snap-global="false">
    <inkscape:grid
       type="xygrid"
       id="grid3081"
       originx="189.18919px"
       originy="10.851553px" />
    <sodipodi:guide
       position="-449.17714,50.095493"
       orientation="1,0"
       id="guide32540" />
    <sodipodi:guide
       position="798.49669,201.1671"
       orientation="0,1"
       id="guide32548" />
    <sodipodi:guide
       position="333.7293,202.05576"
       orientation="0,1"
       id="guide32552" />
    <sodipodi:guide
       position="512.34927,-49.434037"
       orientation="1,0"
       id="guide11111" />
    <sodipodi:guide
       position="279.11561,423.24153"
       orientation="1,0"
       id="guide11129" />
  </sodipodi:namedview>
  <metadata
     id="metadata3078">
    <rdf:RDF>
      <cc:Work
         rdf:about="">
        <dc:format>image/svg+xml</dc:format>
        <dc:type
           rdf:resource="http://purl.org/dc/dcmitype/StillImage" />
        <dc:title></dc:title>
      </cc:Work>
    </rdf:RDF>
  </metadata>
  <g
     inkscape:groupmode="layer"
     id="layer4"
     inkscape:label="Links"
     style="display:none"
     transform="translate(-185.65177,-106.80432)">
    <path
       style="display:inline;fill:none;fill-rule:evenodd;stroke:#6200fe;stroke-width:4.15748024;stroke-linecap:butt;stroke-linejoin:miter;stroke-miterlimit:4;stroke-dasharray:none;stroke-opacity:1"
       d="m 313.49232,537.55489 c -16.39616,73.4479 -31.00893,104.1872 18.15973,150.2196"
       id="path11620"
       inkscape:connector-curvature="0"
       sodipodi:nodetypes="cc" />
    <path
       sodipodi:nodetypes="cc"
       inkscape:connector-curvature="0"
       id="path11638"
       d="m 499.01002,109.78141 c 39.4037,-11.76827 101.0679,-2.43352 124.15157,28.57828"
       style="display:inline;fill:none;fill-rule:evenodd;stroke:#00f9fe;stroke-width:4.15748024;stroke-linecap:butt;stroke-linejoin:miter;stroke-miterlimit:4;stroke-dasharray:none;stroke-opacity:1" />
    <path
       style="display:inline;fill:none;fill-rule:evenodd;stroke:#00f9fe;stroke-width:4.15748024;stroke-linecap:butt;stroke-linejoin:miter;stroke-miterlimit:4;stroke-dasharray:none;stroke-opacity:1"
       d="m 375.00994,77.781414 c 39.40376,-11.76827 102.84528,1.12111 125.92898,32.132906"
       id="path11636"
       inkscape:connector-curvature="0"
       sodipodi:nodetypes="cc" />
    <path
       sodipodi:nodetypes="cc"
       inkscape:connector-curvature="0"
       id="path11622"
       d="m 458.37443,517.08949 c 61.36029,69.0589 9.79879,117.5255 67.27769,170.685"
       style="display:inline;fill:none;fill-rule:evenodd;stroke:#fe0062;stroke-width:4.15748024;stroke-linecap:butt;stroke-linejoin:miter;stroke-miterlimit:4;stroke-dasharray:none;stroke-opacity:1" />
    <path
       style="display:inline;fill:none;fill-rule:evenodd;stroke:#fe8900;stroke-width:4.15748024;stroke-linecap:butt;stroke-linejoin:miter;stroke-miterlimit:4;stroke-dasharray:none;stroke-opacity:1"
       d="m 333.24307,321.78771 c -63.83385,31.65725 -52.4479,306.39348 -143.33398,326.27818"
       id="path11504"
       inkscape:connector-curvature="0"
       sodipodi:nodetypes="cc" />
    <path
       sodipodi:nodetypes="cc"
       inkscape:connector-curvature="0"
       id="path11508"
       d="M 332.80098,424.66928 C 280.41323,423.52439 243.07026,719.03739 189.467,706.43629"
       style="display:inline;fill:none;fill-rule:evenodd;stroke:#0084fe;stroke-width:4.15748024;stroke-linecap:butt;stroke-linejoin:miter;stroke-miterlimit:4;stroke-dasharray:none;stroke-opacity:1" />
    <path
       style="display:inline;fill:none;fill-rule:evenodd;stroke:#0084fe;stroke-width:4.15748024;stroke-linecap:butt;stroke-linejoin:miter;stroke-miterlimit:4;stroke-dasharray:none;stroke-opacity:1"
       d="m 310.02701,196.54114 c -83.39211,14.54727 -14.10628,173.31059 30.61176,193.70061"
       id="path11506"
       inkscape:connector-curvature="0"
       sodipodi:nodetypes="cc" />
    <path
       sodipodi:nodetypes="cc"
       inkscape:connector-curvature="0"
       id="path11478"
       d="m 374.12128,139.98737 c 26.96257,26.44397 13.97958,100.65066 -17.14476,139.66037"
       style="display:inline;fill:none;fill-rule:evenodd;stroke:#fe8900;stroke-width:4.15748024;stroke-linecap:butt;stroke-linejoin:miter;stroke-miterlimit:4;stroke-dasharray:none;stroke-opacity:1" />
    <path
       sodipodi:nodetypes="cc"
       inkscape:connector-curvature="0"
       id="path32566"
       d="m 186.33228,354.14018 -76.47137,73.98536"
       style="display:inline;fill:none;fill-rule:evenodd;stroke:#f413ff;stroke-width:4.15748024;stroke-linecap:butt;stroke-linejoin:miter;stroke-miterlimit:4;stroke-dasharray:none;stroke-opacity:1" />
    <path
       style="display:inline;fill:none;fill-rule:evenodd;stroke:#f413ff;stroke-width:4.15748024;stroke-linecap:butt;stroke-linejoin:miter;stroke-miterlimit:4;stroke-dasharray:none;stroke-opacity:1"
       d="M 188.10959,355.0288 108.97226,305.49091"
       id="path32564"
       inkscape:connector-curvature="0"
       sodipodi:nodetypes="cc" />
    <path
       sodipodi:nodetypes="cc"
       inkscape:connector-curvature="0"
       id="path32544"
       d="M 618.55919,534.04359 386.07124,417.47617"
       style="display:inline;fill:none;fill-rule:evenodd;stroke:#0084fe;stroke-width:4.15748024;stroke-linecap:butt;stroke-linejoin:miter;stroke-miterlimit:4;stroke-dasharray:none;stroke-opacity:1" />
    <path
       style="display:inline;fill:none;fill-rule:evenodd;stroke:#feef00;stroke-width:4.15748024;stroke-linecap:butt;stroke-linejoin:miter;stroke-miterlimit:4;stroke-dasharray:none;stroke-opacity:1"
       d="M 616.99749,470.83478 C 587.72552,412.72574 570.62992,367.70411 516.43582,375.38497"
       id="path32538"
       inkscape:connector-curvature="0"
       sodipodi:nodetypes="cc" />
    <path
       style="display:inline;fill:none;fill-rule:evenodd;stroke:#07fe00;stroke-width:4.15748024;stroke-linecap:butt;stroke-linejoin:miter;stroke-miterlimit:4;stroke-dasharray:none;stroke-opacity:1"
       d="m 618.50189,204.85932 -93.56927,47.24007"
       id="path32536"
       inkscape:connector-curvature="0"
       sodipodi:nodetypes="cc" />
    <path
       style="display:inline;fill:none;fill-rule:evenodd;stroke:#feef00;stroke-width:4.15748024;stroke-linecap:butt;stroke-linejoin:miter;stroke-miterlimit:4;stroke-dasharray:none;stroke-opacity:1"
       d="m 618.88269,274.49213 c -19.99337,72.01299 -45.00847,63.21867 -95.74937,70.82873"
       id="path32546"
       inkscape:connector-curvature="0"
       sodipodi:nodetypes="cc" />
    <path
       style="display:inline;fill:none;fill-rule:evenodd;stroke:#fe0062;stroke-width:4.15748024;stroke-linecap:butt;stroke-linejoin:miter;stroke-miterlimit:4;stroke-dasharray:none;stroke-opacity:1"
       d="m 440.77993,524.62999 c 32.45509,66.5454 -5.2822,96.1607 -44.57315,105.334"
       id="path18707"
       inkscape:connector-curvature="0"
       sodipodi:nodetypes="cc" />
  </g>
  <g
     inkscape:groupmode="layer"
     id="layer2"
     inkscape:label="Refinement"
     style="display:inline"
     transform="translate(-431.40401,-195.13802)">
    <path
       sodipodi:nodetypes="cc"
       inkscape:connector-curvature="0"
       id="path32591"
       d="m 575.42857,397.50892 -85.35792,50.88027"
       style="fill:none;fill-rule:evenodd;stroke:#ff0000;stroke-width:8.69291306;stroke-linecap:butt;stroke-linejoin:miter;stroke-miterlimit:4;stroke-dasharray:8.69291339, 8.69291339;stroke-dashoffset:0;stroke-opacity:1" />
    <path
       style="fill:none;fill-rule:evenodd;stroke:#ff0000;stroke-width:8.69291306;stroke-linecap:butt;stroke-linejoin:miter;stroke-miterlimit:4;stroke-dasharray:8.69291339, 8.69291339;stroke-dashoffset:0;stroke-opacity:1"
       d="m 713.42857,343.50892 -85.35792,50.88027"
       id="path11426"
       inkscape:connector-curvature="0"
       sodipodi:nodetypes="cc" />
    <path
       sodipodi:nodetypes="cc"
       inkscape:connector-curvature="0"
       id="path11428"
       d="M 715.18356,432.26675 632.51394,394.52858"
       style="fill:none;fill-rule:evenodd;stroke:#ff0000;stroke-width:8.69291306;stroke-linecap:butt;stroke-linejoin:miter;stroke-miterlimit:4;stroke-dasharray:8.69291339, 8.69291339;stroke-dashoffset:0;stroke-opacity:1" />
    <path
       sodipodi:nodetypes="cc"
       inkscape:connector-curvature="0"
       id="path11531"
       d="M 722.75946,248.18761 631.18095,392.61188"
       style="fill:none;fill-rule:evenodd;stroke:#ff0000;stroke-width:8.69291306;stroke-linecap:butt;stroke-linejoin:miter;stroke-miterlimit:4;stroke-dasharray:8.69291339, 8.69291339;stroke-dashoffset:0;stroke-opacity:1" />
    <path
       style="fill:none;fill-rule:evenodd;stroke:#ff0000;stroke-width:8.69291306;stroke-linecap:butt;stroke-linejoin:miter;stroke-miterlimit:4;stroke-dasharray:8.69291339, 8.69291339;stroke-dashoffset:0;stroke-opacity:1"
       d="m 577.62789,492.48735 -89.33455,-44.4031"
       id="path32593"
       inkscape:connector-curvature="0"
       sodipodi:nodetypes="cc" />
    <g
       id="g11584"
       transform="rotate(69.303378,567.69404,623.56609)">
      <path
         sodipodi:nodetypes="cc"
         inkscape:connector-curvature="0"
         id="path11580"
         d="m 544.39253,512.28234 -54.32188,34.10685"
         style="fill:none;fill-rule:evenodd;stroke:#ff0000;stroke-width:8.69291306;stroke-linecap:butt;stroke-linejoin:miter;stroke-miterlimit:4;stroke-dasharray:8.69291339, 8.69291339;stroke-dashoffset:0;stroke-opacity:1" />
      <path
         style="fill:none;fill-rule:evenodd;stroke:#ff0000;stroke-width:8.69291306;stroke-linecap:butt;stroke-linejoin:miter;stroke-miterlimit:4;stroke-dasharray:8.69291339, 8.69291339;stroke-dashoffset:0;stroke-opacity:1"
         d="M 539.55368,593.2022 488.29334,546.08425"
         id="path11582"
         inkscape:connector-curvature="0"
         sodipodi:nodetypes="cc" />
    </g>
  </g>
  <g
     inkscape:label="Base"
     inkscape:groupmode="layer"
     id="layer1"
     transform="translate(189.18919,-613.73705)"
     style="display:inline">
    <text
       xml:space="preserve"
       style="font-style:normal;font-variant:normal;font-weight:normal;font-stretch:normal;font-size:32px;line-height:125%;font-family:'Segoe UI';-inkscape-font-specification:'Segoe UI';letter-spacing:0px;word-spacing:0px;fill:#000000;fill-opacity:1;stroke:none"
       x="434.83554"
       y="69.583588"
       id="text3087"
       sodipodi:linespacing="125%"><tspan
         sodipodi:role="line"
         id="tspan3089"
         x="434.83554"
         y="69.583588" /></text>
    <text
       xml:space="preserve"
       style="font-style:normal;font-variant:normal;font-weight:normal;font-stretch:normal;font-size:32px;line-height:125%;font-family:'Segoe UI';-inkscape-font-specification:'Segoe UI';letter-spacing:0px;word-spacing:0px;fill:#000000;fill-opacity:1;stroke:none"
       x="519.03778"
       y="143.73184"
       id="text3091"
       sodipodi:linespacing="125%"><tspan
         sodipodi:role="line"
         id="tspan3093"
         x="519.03778"
         y="143.73184" /></text>
    <text
       xml:space="preserve"
       style="font-style:normal;font-variant:normal;font-weight:normal;font-stretch:normal;font-size:32px;line-height:125%;font-family:'Segoe UI';-inkscape-font-specification:'Segoe UI';letter-spacing:0px;word-spacing:0px;fill:#000000;fill-opacity:1;stroke:none"
       x="389.59253"
       y="236.73135"
       id="text3095"
       sodipodi:linespacing="125%"><tspan
         sodipodi:role="line"
         id="tspan3097"
         x="389.59253"
         y="236.73135" /></text>
    <g
       id="g31108"
       transform="translate(-3.993728,-86.39519)" />
    <g
       transform="translate(-5.107162,-41.52326)"
       id="g31122" />
    <g
       transform="translate(-3.993728,197.60481)"
       id="g31138" />
    <g
       transform="matrix(0.22360217,0,0,0.22360217,248.11689,838.00439)"
       style="opacity:0.95"
       id="layer1-94"
       inkscape:label="Layer 1">
      <g
         id="g25966"
         transform="matrix(0.35277776,0,0,-0.35277778,-308.16776,-250.06674)" />
    </g>
    <ellipse
       ry="28.166643"
       rx="28.166645"
       cy="757.74622"
       cx="120.56467"
       id="ellipse32530"
       style="fill:none;stroke:#000000;stroke-width:3.68503928;stroke-miterlimit:4;stroke-dasharray:none;stroke-opacity:1" />
    <ellipse
       style="fill:none;stroke:#000000;stroke-width:3.68503928;stroke-miterlimit:4;stroke-dasharray:none;stroke-opacity:1"
       id="ellipse32532"
       cx="120.05116"
       cy="862.44727"
       rx="28.166645"
       ry="28.166643" />
    <ellipse
       ry="28.476408"
       rx="28.15691"
       cy="865.61554"
       cx="-159.18919"
       id="ellipse32560"
       style="fill:none;stroke:#000000;stroke-width:3.68618226;stroke-miterlimit:4;stroke-dasharray:none;stroke-opacity:1" />
    <ellipse
       style="fill:none;stroke:#000000;stroke-width:3.68503928;stroke-miterlimit:4;stroke-dasharray:none;stroke-opacity:1"
       id="ellipse11422"
       cx="-17.435333"
       cy="813.74622"
       rx="28.166645"
       ry="28.166643" />
    <ellipse
       ry="28.166643"
       rx="28.166645"
       cy="918.44727"
       cx="-17.948837"
       id="ellipse11424"
       style="fill:none;stroke:#000000;stroke-width:3.68503928;stroke-miterlimit:4;stroke-dasharray:none;stroke-opacity:1" />
    <ellipse
       style="fill:none;stroke:#000000;stroke-width:3.68503928;stroke-miterlimit:4;stroke-dasharray:none;stroke-opacity:1"
       id="ellipse11529"
       cx="120.56467"
       cy="643.74622"
       rx="28.166645"
       ry="28.166643" />
    <ellipse
       ry="28.166643"
       rx="28.166645"
       cy="-242.01967"
       cx="-974.49646"
       id="ellipse11566"
       style="fill:none;stroke:#000000;stroke-width:3.68503928;stroke-miterlimit:4;stroke-dasharray:none;stroke-opacity:1"
       transform="rotate(-107.55498)" />
    <ellipse
       style="fill:none;stroke:#000000;stroke-width:3.68503928;stroke-miterlimit:4;stroke-dasharray:none;stroke-opacity:1"
       id="ellipse11568"
       cx="-973.98303"
       cy="-346.7207"
       rx="28.166645"
       ry="28.166643"
       transform="rotate(-107.55498)" />
    <text
       xml:space="preserve"
       style="font-style:normal;font-variant:normal;font-weight:bold;font-stretch:normal;font-size:42.66666794px;line-height:100%;font-family:sans-serif;-inkscape-font-specification:'sans-serif, Bold';text-align:end;letter-spacing:0px;word-spacing:0px;writing-mode:lr-tb;text-anchor:end;fill:#000000;fill-opacity:1;stroke:none;stroke-width:1px;stroke-linecap:butt;stroke-linejoin:miter;stroke-opacity:1"
       x="-35.420334"
       y="723.52637"
       id="text14690"
       sodipodi:linespacing="100%"
       transform="scale(-1,1)"><tspan
         sodipodi:role="line"
         id="tspan14692"
         x="-35.420334"
         y="723.52637">&lt;</tspan></text>
    <text
       xml:space="preserve"
       style="font-style:normal;font-variant:normal;font-weight:bold;font-stretch:normal;font-size:42.66666794px;line-height:100%;font-family:sans-serif;-inkscape-font-specification:'sans-serif, Bold';text-align:end;letter-spacing:0px;word-spacing:0px;writing-mode:lr-tb;text-anchor:end;display:inline;fill:#000000;fill-opacity:1;stroke:none;stroke-width:1px;stroke-linecap:butt;stroke-linejoin:miter;stroke-opacity:1"
       x="-56.748085"
       y="825.48608"
       id="text14690-9"
       sodipodi:linespacing="100%"
       transform="scale(-1,1)"><tspan
         sodipodi:role="line"
         id="tspan14692-6"
         x="-56.748085"
         y="825.48608">&lt;</tspan></text>
    <text
       transform="scale(-1,1)"
       sodipodi:linespacing="100%"
       id="text14722"
       y="881.48608"
       x="-46.748085"
       style="font-style:normal;font-variant:normal;font-weight:bold;font-stretch:normal;font-size:42.66666794px;line-height:100%;font-family:sans-serif;-inkscape-font-specification:'sans-serif, Bold';text-align:end;letter-spacing:0px;word-spacing:0px;writing-mode:lr-tb;text-anchor:end;display:inline;fill:#000000;fill-opacity:1;stroke:none;stroke-width:1px;stroke-linecap:butt;stroke-linejoin:miter;stroke-opacity:1"
       xml:space="preserve"><tspan
         y="881.48608"
         x="-46.748085"
         id="tspan14724"
         sodipodi:role="line">&lt;</tspan></text>
    <text
       xml:space="preserve"
       style="font-style:normal;font-variant:normal;font-weight:bold;font-stretch:normal;font-size:42.66666794px;line-height:100%;font-family:sans-serif;-inkscape-font-specification:'sans-serif, Bold';text-align:end;letter-spacing:0px;word-spacing:0px;writing-mode:lr-tb;text-anchor:end;display:inline;fill:#000000;fill-opacity:1;stroke:none;stroke-width:1px;stroke-linecap:butt;stroke-linejoin:miter;stroke-opacity:1"
       x="-32.748085"
       y="957.48608"
       id="text14726"
       sodipodi:linespacing="100%"
       transform="scale(-1,1)"><tspan
         sodipodi:role="line"
         id="tspan14728"
         x="-32.748085"
         y="957.48608">&lt;</tspan></text>
    <text
       transform="scale(-1,1)"
       sodipodi:linespacing="100%"
       id="text14730"
       y="983.48608"
       x="61.251915"
       style="font-style:normal;font-variant:normal;font-weight:bold;font-stretch:normal;font-size:42.66666794px;line-height:100%;font-family:sans-serif;-inkscape-font-specification:'sans-serif, Bold';text-align:end;letter-spacing:0px;word-spacing:0px;writing-mode:lr-tb;text-anchor:end;display:inline;fill:#000000;fill-opacity:1;stroke:none;stroke-width:1px;stroke-linecap:butt;stroke-linejoin:miter;stroke-opacity:1"
       xml:space="preserve"><tspan
         y="983.48608"
         x="61.251915"
         id="tspan14732"
         sodipodi:role="line">&lt;</tspan></text>
    <text
       xml:space="preserve"
       style="font-style:normal;font-variant:normal;font-weight:bold;font-stretch:normal;font-size:42.66666794px;line-height:100%;font-family:sans-serif;-inkscape-font-specification:'sans-serif, Bold';text-align:end;letter-spacing:0px;word-spacing:0px;writing-mode:lr-tb;text-anchor:end;display:inline;fill:#000000;fill-opacity:1;stroke:none;stroke-width:1px;stroke-linecap:butt;stroke-linejoin:miter;stroke-opacity:1"
       x="97.251915"
       y="925.48608"
       id="text14734"
       sodipodi:linespacing="100%"
       transform="scale(-1,1)"><tspan
         sodipodi:role="line"
         id="tspan14736"
         x="97.251915"
         y="925.48608">&lt;</tspan></text>
    <text
       transform="scale(-1,1)"
       sodipodi:linespacing="100%"
       id="text14738"
       y="829.48608"
       x="97.251915"
       style="font-style:normal;font-variant:normal;font-weight:bold;font-stretch:normal;font-size:42.66666794px;line-height:100%;font-family:sans-serif;-inkscape-font-specification:'sans-serif, Bold';text-align:end;letter-spacing:0px;word-spacing:0px;writing-mode:lr-tb;text-anchor:end;display:inline;fill:#000000;fill-opacity:1;stroke:none;stroke-width:1px;stroke-linecap:butt;stroke-linejoin:miter;stroke-opacity:1"
       xml:space="preserve"><tspan
         y="829.48608"
         x="97.251915"
         id="tspan14740"
         sodipodi:role="line">&lt;</tspan></text>
  </g>
  <g
     inkscape:groupmode="layer"
     id="layer3"
     inkscape:label="Full"
     style="display:none"
     transform="translate(-185.65177,-106.80432)">
    <text
       xml:space="preserve"
       style="font-style:normal;font-variant:normal;font-weight:bold;font-stretch:normal;font-size:24.63906288px;line-height:100%;font-family:sans-serif;-inkscape-font-specification:'sans-serif, Bold';text-align:start;letter-spacing:0px;word-spacing:0px;writing-mode:lr-tb;text-anchor:start;display:inline;fill:#000000;fill-opacity:1;stroke:none;stroke-width:1px;stroke-linecap:butt;stroke-linejoin:miter;stroke-opacity:1"
       x="29.934341"
       y="254.08293"
       id="text16045"
       sodipodi:linespacing="100%"><tspan
         sodipodi:role="line"
         id="tspan16047"
         x="29.934341"
         y="254.08293"
         style="font-style:normal;font-variant:normal;font-weight:500;font-stretch:normal;font-family:Futura;-inkscape-font-specification:'Futura Medium'">Volume 1</tspan></text>
    <text
       sodipodi:linespacing="100%"
       id="text30845"
       y="381.13904"
       x="24.519424"
       style="font-style:normal;font-variant:normal;font-weight:bold;font-stretch:normal;font-size:24.63906288px;line-height:100%;font-family:sans-serif;-inkscape-font-specification:'sans-serif, Bold';text-align:start;letter-spacing:0px;word-spacing:0px;writing-mode:lr-tb;text-anchor:start;display:inline;fill:#000000;fill-opacity:1;stroke:none;stroke-width:1px;stroke-linecap:butt;stroke-linejoin:miter;stroke-opacity:1"
       xml:space="preserve"><tspan
         style="font-style:normal;font-variant:normal;font-weight:500;font-stretch:normal;font-family:Futura;-inkscape-font-specification:'Futura Medium'"
         y="381.13904"
         x="24.519424"
         id="tspan30847"
         sodipodi:role="line">Volume 4</tspan></text>
    <g
       transform="translate(374.25677,-503.57968)"
       style="display:inline"
       id="g11147">
      <g
         transform="translate(0,80)"
         id="g11131">
        <rect
           style="fill:none;fill-opacity:1;stroke:#000000;stroke-width:3;stroke-miterlimit:4;stroke-dasharray:none;stroke-dashoffset:0;stroke-opacity:1"
           id="rect16029"
           width="147.24557"
           height="81.48877"
           x="-373.34097"
           y="688.93738" />
        <g
           id="g31130"
           transform="translate(142.89284,4.47674)">
          <ellipse
             style="fill:none;stroke:#000000;stroke-width:1.88477826;stroke-miterlimit:4;stroke-dasharray:none;stroke-opacity:1"
             id="ellipse31132"
             cx="-442.02335"
             cy="726.78784"
             ry="18.387955"
             rx="32.732471" />
        </g>
        <rect
           y="704.05103"
           x="-350.40387"
           height="50.281006"
           width="101.59971"
           id="rect31162"
           style="fill:none;fill-opacity:1;stroke:#000000;stroke-width:2;stroke-miterlimit:4;stroke-dasharray:2, 2;stroke-dashoffset:0;stroke-opacity:1" />
      </g>
    </g>
    <text
       sodipodi:linespacing="100%"
       id="text30970"
       y="93.491432"
       x="602.73804"
       style="font-style:normal;font-variant:normal;font-weight:bold;font-stretch:normal;font-size:24.63906288px;line-height:100%;font-family:sans-serif;-inkscape-font-specification:'sans-serif, Bold';text-align:start;letter-spacing:0px;word-spacing:0px;writing-mode:lr-tb;text-anchor:start;display:inline;fill:#000000;fill-opacity:1;stroke:none;stroke-width:1px;stroke-linecap:butt;stroke-linejoin:miter;stroke-opacity:1"
       xml:space="preserve"><tspan
         style="font-style:normal;font-variant:normal;font-weight:500;font-stretch:normal;font-family:Futura;-inkscape-font-specification:'Futura Medium'"
         y="93.491432"
         x="602.73804"
         id="tspan30972"
         sodipodi:role="line">Volume 2</tspan></text>
    <g
       style="display:inline"
       id="g11137"
       transform="translate(374.25677,-299.57968)">
      <rect
         style="fill:none;fill-opacity:1;stroke:#000000;stroke-width:3;stroke-miterlimit:4;stroke-dasharray:none;stroke-dashoffset:0;stroke-opacity:1"
         id="rect11139"
         width="147.24557"
         height="81.48877"
         x="-373.34097"
         y="688.93738" />
      <g
         id="g11141"
         transform="translate(142.89284,4.47674)">
        <ellipse
           style="fill:none;stroke:#000000;stroke-width:1.88477826;stroke-miterlimit:4;stroke-dasharray:none;stroke-opacity:1"
           id="ellipse11143"
           cx="-442.02335"
           cy="726.78784"
           ry="18.387955"
           rx="32.732471" />
      </g>
      <rect
         y="704.05103"
         x="-350.40387"
         height="50.281006"
         width="101.59971"
         id="rect11145"
         style="fill:none;fill-opacity:1;stroke:#000000;stroke-width:2;stroke-miterlimit:4;stroke-dasharray:2, 2;stroke-dashoffset:0;stroke-opacity:1" />
    </g>
    <rect
       y="114.05509"
       x="574.91577"
       height="198.79141"
       width="147.24557"
       id="rect11158"
       style="display:inline;fill:none;fill-opacity:1;stroke:#000000;stroke-width:3;stroke-miterlimit:4;stroke-dasharray:none;stroke-dashoffset:0;stroke-opacity:1" />
    <g
       style="display:inline"
       transform="translate(1091.1497,-453.10294)"
       id="g11160">
      <ellipse
         rx="32.732471"
         ry="18.387955"
         cy="726.78784"
         cx="-442.02335"
         id="ellipse11162"
         style="fill:none;stroke:#000000;stroke-width:1.88477826;stroke-miterlimit:4;stroke-dasharray:none;stroke-opacity:1" />
    </g>
    <g
       style="display:inline"
       id="g11178"
       transform="translate(1091.1497,-517.10294)">
      <ellipse
         style="fill:none;stroke:#000000;stroke-width:1.88477826;stroke-miterlimit:4;stroke-dasharray:none;stroke-opacity:1"
         id="ellipse11180"
         cx="-442.02335"
         cy="726.78784"
         ry="18.387955"
         rx="32.732471" />
    </g>
    <g
       style="display:inline"
       id="g11448"
       transform="translate(280.25677,-463.57968)">
      <g
         id="g31075"
         transform="translate(-181.76477,487.84065)">
        <text
           xml:space="preserve"
           style="font-style:normal;font-variant:normal;font-weight:bold;font-stretch:normal;font-size:24.63906288px;line-height:100%;font-family:sans-serif;-inkscape-font-specification:'sans-serif, Bold';text-align:start;letter-spacing:0px;word-spacing:0px;writing-mode:lr-tb;text-anchor:start;fill:#000000;fill-opacity:1;stroke:none;stroke-width:1px;stroke-linecap:butt;stroke-linejoin:miter;stroke-opacity:1"
           x="505.58209"
           y="403.31467"
           id="text31091"
           sodipodi:linespacing="100%"><tspan
             sodipodi:role="line"
             id="tspan31093"
             x="505.58209"
             y="403.31467"
             style="font-style:normal;font-variant:normal;font-weight:500;font-stretch:normal;font-family:Futura;-inkscape-font-specification:'Futura Medium'">Volume 3</tspan></text>
      </g>
      <g
         transform="translate(810.89284,274.47674)"
         id="g11191">
        <ellipse
           rx="32.732471"
           ry="18.387955"
           cy="726.78784"
           cx="-442.02335"
           id="ellipse11193"
           style="fill:none;stroke:#000000;stroke-width:1.88477826;stroke-miterlimit:4;stroke-dasharray:none;stroke-opacity:1" />
      </g>
      <rect
         style="fill:none;fill-opacity:1;stroke:#000000;stroke-width:2;stroke-miterlimit:4;stroke-dasharray:2, 2;stroke-dashoffset:0;stroke-opacity:1"
         id="rect11195"
         width="101.5997"
         height="52.058323"
         x="317.59613"
         y="974.05103" />
      <g
         id="g11166"
         transform="translate(668,128)">
        <g
           id="g11168"
           transform="translate(0,80)">
          <rect
             y="688.67114"
             x="-373.60718"
             height="139.78392"
             width="135.33682"
             id="rect11170"
             style="fill:none;fill-opacity:1;stroke:#000000;stroke-width:2.46756506;stroke-miterlimit:4;stroke-dasharray:none;stroke-dashoffset:0;stroke-opacity:1" />
          <g
             transform="translate(142.89284,4.47674)"
             id="g11172">
            <ellipse
               rx="32.732471"
               ry="18.387955"
               cy="726.78784"
               cx="-442.02335"
               id="ellipse11174"
               style="fill:none;stroke:#000000;stroke-width:1.88477826;stroke-miterlimit:4;stroke-dasharray:none;stroke-opacity:1" />
          </g>
          <rect
             style="fill:none;fill-opacity:1;stroke:#000000;stroke-width:2;stroke-miterlimit:4;stroke-dasharray:2, 2;stroke-dashoffset:0;stroke-opacity:1"
             id="rect11176"
             width="101.59971"
             height="50.281006"
             x="-350.40387"
             y="704.05103" />
        </g>
      </g>
    </g>
    <text
       sodipodi:linespacing="100%"
       id="text11462"
       y="23.673061"
       x="295.41788"
       style="font-style:normal;font-variant:normal;font-weight:bold;font-stretch:normal;font-size:24.63906288px;line-height:100%;font-family:sans-serif;-inkscape-font-specification:'sans-serif, Bold';text-align:start;letter-spacing:0px;word-spacing:0px;writing-mode:lr-tb;text-anchor:start;display:inline;fill:#000000;fill-opacity:1;stroke:none;stroke-width:1px;stroke-linecap:butt;stroke-linejoin:miter;stroke-opacity:1"
       xml:space="preserve"><tspan
         style="font-style:normal;font-variant:normal;font-weight:500;font-stretch:normal;font-family:Futura;-inkscape-font-specification:'Futura Medium'"
         y="23.673061"
         x="295.41788"
         id="tspan11464"
         sodipodi:role="line">Volume 5</tspan></text>
    <rect
       y="41.851162"
       x="266.39932"
       height="190.79352"
       width="147.24557"
       id="rect11470"
       style="display:inline;fill:none;fill-opacity:1;stroke:#000000;stroke-width:3;stroke-miterlimit:4;stroke-dasharray:none;stroke-dashoffset:0;stroke-opacity:1" />
    <g
       style="display:inline"
       transform="translate(782.6332,-587.51277)"
       id="g11472">
      <ellipse
         rx="32.732471"
         ry="18.387955"
         cy="726.78784"
         cx="-442.02335"
         id="ellipse11474"
         style="fill:none;stroke:#000000;stroke-width:1.88477826;stroke-miterlimit:4;stroke-dasharray:none;stroke-opacity:1" />
    </g>
    <g
       style="display:inline"
       id="g11480"
       transform="translate(782.6332,-527.51277)">
      <ellipse
         style="fill:none;stroke:#000000;stroke-width:1.88477826;stroke-miterlimit:4;stroke-dasharray:none;stroke-opacity:1"
         id="ellipse11482"
         cx="-442.02335"
         cy="726.78784"
         ry="18.387955"
         rx="32.732471" />
    </g>
    <rect
       y="172.06151"
       x="289.33646"
       height="50.281006"
       width="101.59971"
       id="rect11484"
       style="display:inline;fill:none;fill-opacity:1;stroke:#000000;stroke-width:2;stroke-miterlimit:4;stroke-dasharray:2, 2;stroke-dashoffset:0;stroke-opacity:1" />
    <rect
       style="display:inline;fill:none;fill-opacity:1;stroke:#000000;stroke-width:3;stroke-miterlimit:4;stroke-dasharray:none;stroke-dashoffset:0;stroke-opacity:1"
       id="rect11490"
       width="147.24557"
       height="135.69681"
       x="82.447372"
       y="609.31787" />
    <g
       style="display:inline"
       id="g11492"
       transform="translate(598.68133,-75.142669)">
      <ellipse
         style="fill:none;stroke:#000000;stroke-width:1.88477826;stroke-miterlimit:4;stroke-dasharray:none;stroke-opacity:1"
         id="ellipse11494"
         cx="-442.02335"
         cy="726.78784"
         ry="18.387955"
         rx="32.732471" />
    </g>
    <rect
       y="624.43152"
       x="105.38451"
       height="50.281006"
       width="101.59971"
       id="rect11496"
       style="display:inline;fill:none;fill-opacity:1;stroke:#000000;stroke-width:2;stroke-miterlimit:4;stroke-dasharray:2, 2;stroke-dashoffset:0;stroke-opacity:1" />
    <g
       style="display:inline"
       transform="translate(598.68133,-15.142669)"
       id="g11498">
      <ellipse
         rx="32.732471"
         ry="18.387955"
         cy="726.78784"
         cx="-442.02335"
         id="ellipse11500"
         style="fill:none;stroke:#000000;stroke-width:1.88477826;stroke-miterlimit:4;stroke-dasharray:none;stroke-opacity:1" />
    </g>
    <rect
       style="display:inline;fill:none;fill-opacity:1;stroke:#000000;stroke-width:2;stroke-miterlimit:4;stroke-dasharray:2, 2;stroke-dashoffset:0;stroke-opacity:1"
       id="rect11502"
       width="101.59971"
       height="50.281006"
       x="105.38451"
       y="684.43164" />
    <text
       xml:space="preserve"
       style="font-style:normal;font-variant:normal;font-weight:bold;font-stretch:normal;font-size:24.63906288px;line-height:100%;font-family:sans-serif;-inkscape-font-specification:'sans-serif, Bold';text-align:start;letter-spacing:0px;word-spacing:0px;writing-mode:lr-tb;text-anchor:start;display:inline;fill:#000000;fill-opacity:1;stroke:none;stroke-width:1px;stroke-linecap:butt;stroke-linejoin:miter;stroke-opacity:1"
       x="111.46593"
       y="598.04297"
       id="text11486"
       sodipodi:linespacing="100%"><tspan
         sodipodi:role="line"
         id="tspan11488"
         x="111.46593"
         y="598.04297"
         style="font-style:normal;font-variant:normal;font-weight:500;font-stretch:normal;font-family:Futura;-inkscape-font-specification:'Futura Medium'">Volume 6</tspan></text>
    <text
       sodipodi:linespacing="100%"
       id="text11588"
       y="588.64844"
       x="312.08176"
       style="font-style:normal;font-variant:normal;font-weight:bold;font-stretch:normal;font-size:24.63906288px;line-height:100%;font-family:sans-serif;-inkscape-font-specification:'sans-serif, Bold';text-align:start;letter-spacing:0px;word-spacing:0px;writing-mode:lr-tb;text-anchor:start;display:inline;fill:#000000;fill-opacity:1;stroke:none;stroke-width:1px;stroke-linecap:butt;stroke-linejoin:miter;stroke-opacity:1"
       xml:space="preserve"><tspan
         style="font-style:normal;font-variant:normal;font-weight:500;font-stretch:normal;font-family:Futura;-inkscape-font-specification:'Futura Medium'"
         y="588.64844"
         x="312.08176"
         id="tspan11590"
         sodipodi:role="line">Volume 7</tspan></text>
    <g
       style="display:inline"
       id="g11592"
       transform="translate(660.4042,-117.01407)">
      <g
         id="g11594"
         transform="translate(0,80)">
        <rect
           y="633.64038"
           x="-373.34097"
           height="136.78578"
           width="147.24557"
           id="rect11596"
           style="fill:none;fill-opacity:1;stroke:#000000;stroke-width:3;stroke-miterlimit:4;stroke-dasharray:none;stroke-dashoffset:0;stroke-opacity:1" />
        <g
           transform="translate(142.89284,4.47674)"
           id="g11598">
          <ellipse
             rx="32.732471"
             ry="18.387955"
             cy="726.78784"
             cx="-442.02335"
             id="ellipse11600"
             style="fill:none;stroke:#000000;stroke-width:1.88477826;stroke-miterlimit:4;stroke-dasharray:none;stroke-opacity:1" />
        </g>
        <rect
           style="fill:none;fill-opacity:1;stroke:#000000;stroke-width:2;stroke-miterlimit:4;stroke-dasharray:2, 2;stroke-dashoffset:0;stroke-opacity:1"
           id="rect11602"
           width="101.59971"
           height="50.281006"
           x="-350.40387"
           y="704.05103" />
        <rect
           y="644.05103"
           x="-350.40387"
           height="50.281006"
           width="101.59971"
           id="rect18701"
           style="fill:none;fill-opacity:1;stroke:#000000;stroke-width:2;stroke-miterlimit:4;stroke-dasharray:2, 2;stroke-dashoffset:0;stroke-opacity:1" />
        <g
           id="g18703"
           transform="translate(142.89284,-57.52326)">
          <ellipse
             style="fill:none;stroke:#000000;stroke-width:1.88477826;stroke-miterlimit:4;stroke-dasharray:none;stroke-opacity:1"
             id="ellipse18705"
             cx="-442.02335"
             cy="726.78784"
             ry="18.387955"
             rx="32.732471" />
        </g>
      </g>
    </g>
    <text
       xml:space="preserve"
       style="font-style:normal;font-variant:normal;font-weight:bold;font-stretch:normal;font-size:24.63906288px;line-height:100%;font-family:sans-serif;-inkscape-font-specification:'sans-serif, Bold';text-align:start;letter-spacing:0px;word-spacing:0px;writing-mode:lr-tb;text-anchor:start;display:inline;fill:#000000;fill-opacity:1;stroke:none;stroke-width:1px;stroke-linecap:butt;stroke-linejoin:miter;stroke-opacity:1"
       x="504.08182"
       y="640.64844"
       id="text11604"
       sodipodi:linespacing="100%"><tspan
         sodipodi:role="line"
         id="tspan11606"
         x="504.08182"
         y="640.64844"
         style="font-style:normal;font-variant:normal;font-weight:500;font-stretch:normal;font-family:Futura;-inkscape-font-specification:'Futura Medium'">Volume 8</tspan></text>
    <g
       style="display:inline"
       transform="translate(854.4042,-117.01407)"
       id="g11608">
      <g
         transform="translate(0,80)"
         id="g11610">
        <rect
           style="fill:none;fill-opacity:1;stroke:#000000;stroke-width:3;stroke-miterlimit:4;stroke-dasharray:none;stroke-dashoffset:0;stroke-opacity:1"
           id="rect11612"
           width="147.24557"
           height="81.48877"
           x="-373.34097"
           y="688.93738" />
        <g
           id="g11614"
           transform="translate(142.89284,4.47674)">
          <ellipse
             style="fill:none;stroke:#000000;stroke-width:1.88477826;stroke-miterlimit:4;stroke-dasharray:none;stroke-opacity:1"
             id="ellipse11616"
             cx="-442.02335"
             cy="726.78784"
             ry="18.387955"
             rx="32.732471" />
        </g>
        <rect
           y="704.05103"
           x="-350.40387"
           height="50.281006"
           width="101.59971"
           id="rect11618"
           style="fill:none;fill-opacity:1;stroke:#000000;stroke-width:2;stroke-miterlimit:4;stroke-dasharray:2, 2;stroke-dashoffset:0;stroke-opacity:1" />
      </g>
    </g>
    <g
       style="display:inline"
       transform="translate(1091.1497,-577.10294)"
       id="g11624">
      <ellipse
         rx="32.732471"
         ry="18.387955"
         cy="726.78784"
         cx="-442.02335"
         id="ellipse11626"
         style="fill:none;stroke:#000000;stroke-width:1.88477826;stroke-miterlimit:4;stroke-dasharray:none;stroke-opacity:1" />
    </g>
    <rect
       style="display:inline;fill:none;fill-opacity:1;stroke:#000000;stroke-width:2;stroke-miterlimit:4;stroke-dasharray:2, 2;stroke-dashoffset:0;stroke-opacity:1"
       id="rect11628"
       width="101.59973"
       height="176.47023"
       x="597.85297"
       y="122.47135" />
    <g
       style="display:inline"
       id="g11630"
       transform="translate(782.6332,-645.51277)">
      <ellipse
         style="fill:none;stroke:#000000;stroke-width:1.88477826;stroke-miterlimit:4;stroke-dasharray:none;stroke-opacity:1"
         id="ellipse11632"
         cx="-442.02335"
         cy="726.78784"
         ry="18.387955"
         rx="32.732471" />
    </g>
    <rect
       y="54.061504"
       x="289.33646"
       height="109.821"
       width="101.5997"
       id="rect11634"
       style="display:inline;fill:none;fill-opacity:1;stroke:#000000;stroke-width:2;stroke-miterlimit:4;stroke-dasharray:2, 2;stroke-dashoffset:0;stroke-opacity:1" />
  </g>
</svg>
