<?xml version="1.0" encoding="UTF-8" standalone="no"?>
<!-- Created with Inkscape (http://www.inkscape.org/) -->

<svg
   xmlns:dc="http://purl.org/dc/elements/1.1/"
   xmlns:cc="http://creativecommons.org/ns#"
   xmlns:rdf="http://www.w3.org/1999/02/22-rdf-syntax-ns#"
   xmlns:svg="http://www.w3.org/2000/svg"
   xmlns="http://www.w3.org/2000/svg"
   xmlns:sodipodi="http://sodipodi.sourceforge.net/DTD/sodipodi-0.dtd"
   xmlns:inkscape="http://www.inkscape.org/namespaces/inkscape"
   width="707.5025"
   height="239.25162"
   id="svg3073"
   version="1.1"
   inkscape:version="0.91+devel+osxmenu r12876"
   sodipodi:docname="acception_valide_nodiv.svg">
  <defs
     id="defs3075" />
  <sodipodi:namedview
     id="base"
     pagecolor="#ffffff"
     bordercolor="#666666"
     borderopacity="1.0"
     inkscape:pageopacity="0.0"
     inkscape:pageshadow="2"
     inkscape:zoom="1.1252941"
     inkscape:cx="451.98204"
     inkscape:cy="97.653682"
     inkscape:document-units="px"
     inkscape:current-layer="layer1"
     showgrid="false"
     inkscape:window-width="2043"
     inkscape:window-height="880"
     inkscape:window-x="-67"
     inkscape:window-y="160"
     inkscape:window-maximized="0"
     showguides="true"
     inkscape:guide-bbox="true"
     fit-margin-top="0"
     fit-margin-left="0"
     fit-margin-right="0"
     fit-margin-bottom="0"
     inkscape:snap-bbox="true"
     inkscape:bbox-paths="true"
     inkscape:bbox-nodes="true"
     inkscape:snap-bbox-edge-midpoints="true"
     inkscape:snap-bbox-midpoints="true"
     inkscape:snap-global="false">
    <inkscape:grid
       type="xygrid"
       id="grid3081"
       originx="374.84097px"
       originy="-75.767962px" />
    <sodipodi:guide
       position="-263.52536,-36.524022"
       orientation="1,0"
       id="guide32540" />
    <sodipodi:guide
       position="760.69003,111.30475"
       orientation="0,1"
       id="guide32548" />
    <sodipodi:guide
       position="804.2342,84.645052"
       orientation="0,1"
       id="guide32552" />
    <sodipodi:guide
       position="698.00105,-136.05356"
       orientation="1,0"
       id="guide11111" />
    <sodipodi:guide
       position="454.50915,-214.25534"
       orientation="1,0"
       id="guide11129" />
  </sodipodi:namedview>
  <metadata
     id="metadata3078">
    <rdf:RDF>
      <cc:Work
         rdf:about="">
        <dc:format>image/svg+xml</dc:format>
        <dc:type
           rdf:resource="http://purl.org/dc/dcmitype/StillImage" />
        <dc:title></dc:title>
      </cc:Work>
    </rdf:RDF>
  </metadata>
  <g
     inkscape:groupmode="layer"
     id="layer2"
     inkscape:label="Refinement"
     style="display:inline"
     transform="translate(-245.75223,-318.74356)" />
  <g
     inkscape:label="Base"
     inkscape:groupmode="layer"
     id="layer1"
     transform="translate(374.84097,-737.34259)">
    <path
       sodipodi:nodetypes="cc"
       inkscape:connector-curvature="0"
       id="path32566"
       d="M -89.974043,864.97743 -265.97495,933.63085"
       style="fill:none;fill-rule:evenodd;stroke:#f413ff;stroke-width:4.15748024;stroke-linecap:butt;stroke-linejoin:miter;stroke-miterlimit:4;stroke-dasharray:none;stroke-opacity:1" />
    <path
       style="fill:none;fill-rule:evenodd;stroke:#f413ff;stroke-width:4.15748024;stroke-linecap:butt;stroke-linejoin:miter;stroke-miterlimit:4;stroke-dasharray:none;stroke-opacity:1"
       d="M -91.751361,864.9774 -266.8636,810.99622"
       id="path32564"
       inkscape:connector-curvature="0"
       sodipodi:nodetypes="cc" />
    <text
       xml:space="preserve"
       style="font-style:normal;font-variant:normal;font-weight:normal;font-stretch:normal;font-size:32px;line-height:125%;font-family:'Segoe UI';-inkscape-font-specification:'Segoe UI';letter-spacing:0px;word-spacing:0px;fill:#000000;fill-opacity:1;stroke:none"
       x="434.83554"
       y="69.583588"
       id="text3087"
       sodipodi:linespacing="125%"><tspan
         sodipodi:role="line"
         id="tspan3089"
         x="434.83554"
         y="69.583588" /></text>
    <text
       xml:space="preserve"
       style="font-style:normal;font-variant:normal;font-weight:normal;font-stretch:normal;font-size:32px;line-height:125%;font-family:'Segoe UI';-inkscape-font-specification:'Segoe UI';letter-spacing:0px;word-spacing:0px;fill:#000000;fill-opacity:1;stroke:none"
       x="519.03778"
       y="143.73184"
       id="text3091"
       sodipodi:linespacing="125%"><tspan
         sodipodi:role="line"
         id="tspan3093"
         x="519.03778"
         y="143.73184" /></text>
    <text
       xml:space="preserve"
       style="font-style:normal;font-variant:normal;font-weight:normal;font-stretch:normal;font-size:32px;line-height:125%;font-family:'Segoe UI';-inkscape-font-specification:'Segoe UI';letter-spacing:0px;word-spacing:0px;fill:#000000;fill-opacity:1;stroke:none"
       x="389.59253"
       y="236.73135"
       id="text3095"
       sodipodi:linespacing="125%"><tspan
         sodipodi:role="line"
         id="tspan3097"
         x="389.59253"
         y="236.73135" /></text>
    <text
       xml:space="preserve"
       style="font-style:normal;font-variant:normal;font-weight:bold;font-stretch:normal;font-size:24.63906288px;line-height:100%;font-family:sans-serif;-inkscape-font-specification:'sans-serif, Bold';text-align:start;letter-spacing:0px;word-spacing:0px;writing-mode:lr-tb;text-anchor:start;fill:#000000;fill-opacity:1;stroke:none;stroke-width:1px;stroke-linecap:butt;stroke-linejoin:miter;stroke-opacity:1"
       x="-344.32245"
       y="757.6626"
       id="text16045"
       sodipodi:linespacing="100%"><tspan
         sodipodi:role="line"
         id="tspan16047"
         x="-344.32245"
         y="757.6626"
         style="font-style:normal;font-variant:normal;font-weight:500;font-stretch:normal;font-family:Futura;-inkscape-font-specification:'Futura Medium'">Volume 1</tspan></text>
    <text
       sodipodi:linespacing="100%"
       id="text30845"
       y="884.71869"
       x="-349.73737"
       style="font-style:normal;font-variant:normal;font-weight:bold;font-stretch:normal;font-size:24.63906288px;line-height:100%;font-family:sans-serif;-inkscape-font-specification:'sans-serif, Bold';text-align:start;letter-spacing:0px;word-spacing:0px;writing-mode:lr-tb;text-anchor:start;fill:#000000;fill-opacity:1;stroke:none;stroke-width:1px;stroke-linecap:butt;stroke-linejoin:miter;stroke-opacity:1"
       xml:space="preserve"><tspan
         style="font-style:normal;font-variant:normal;font-weight:500;font-stretch:normal;font-family:Futura;-inkscape-font-specification:'Futura Medium'"
         y="884.71869"
         x="-349.73737"
         id="tspan30847"
         sodipodi:role="line">Volume 4</tspan></text>
    <g
       id="g31108"
       transform="translate(-3.993728,-86.39519)" />
    <g
       transform="translate(-5.107162,-41.52326)"
       id="g31122" />
    <g
       transform="translate(-3.993728,197.60481)"
       id="g31138" />
    <g
       id="g11147">
      <g
         transform="translate(0,80)"
         id="g11131">
        <rect
           style="fill:none;fill-opacity:1;stroke:#000000;stroke-width:3;stroke-miterlimit:4;stroke-dasharray:none;stroke-dashoffset:0;stroke-opacity:1"
           id="rect16029"
           width="147.24557"
           height="81.48877"
           x="-373.34097"
           y="688.93738" />
        <g
           id="g31130"
           transform="translate(142.89284,4.47674)">
          <ellipse
             style="fill:none;stroke:#000000;stroke-width:1.88477826;stroke-miterlimit:4;stroke-dasharray:none;stroke-opacity:1"
             id="ellipse31132"
             cx="-442.02335"
             cy="726.78784"
             ry="18.387955"
             rx="32.732471" />
        </g>
        <rect
           y="704.05103"
           x="-350.40387"
           height="50.281006"
           width="101.59971"
           id="rect31162"
           style="fill:none;fill-opacity:1;stroke:#000000;stroke-width:2;stroke-miterlimit:4;stroke-dasharray:2, 2;stroke-dashoffset:0;stroke-opacity:1" />
      </g>
    </g>
    <text
       sodipodi:linespacing="100%"
       id="text30970"
       y="765.07111"
       x="122.4812"
       style="font-style:normal;font-variant:normal;font-weight:bold;font-stretch:normal;font-size:24.63906288px;line-height:100%;font-family:sans-serif;-inkscape-font-specification:'sans-serif, Bold';text-align:start;letter-spacing:0px;word-spacing:0px;writing-mode:lr-tb;text-anchor:start;fill:#000000;fill-opacity:1;stroke:none;stroke-width:1px;stroke-linecap:butt;stroke-linejoin:miter;stroke-opacity:1"
       xml:space="preserve"><tspan
         style="font-style:normal;font-variant:normal;font-weight:500;font-stretch:normal;font-family:Futura;-inkscape-font-specification:'Futura Medium'"
         y="765.07111"
         x="122.4812"
         id="tspan30972"
         sodipodi:role="line">Volume 2</tspan></text>
    <g
       id="g32376"
       transform="translate(174,488)">
      <path
         d="m 155.439,373.82156 c -4.29668,-4.29667 -20.60216,-4.29675 -24.89875,0 -4.29668,4.29668 -4.2966,20.60216 0,24.89876 4.29667,4.29668 20.60207,4.29668 24.89883,0 4.2966,-4.2966 4.2966,-20.60208 0,-24.89868"
         style="opacity:0.60000598;fill:#000000;fill-opacity:0;stroke:none"
         id="path32382"
         inkscape:connector-curvature="0" />
    </g>
    <g
       id="g32311"
       transform="translate(-185.76477,73.109253)">
      <g
         id="g31075"
         transform="translate(0,410.7314)">
        <g
           id="g31077"
           transform="translate(310)">
          <path
             d="m 155.439,373.82156 c -4.29668,-4.29667 -20.60216,-4.29675 -24.89875,0 -4.29668,4.29668 -4.2966,20.60216 0,24.89876 4.29667,4.29668 20.60207,4.29668 24.89883,0 4.2966,-4.2966 4.2966,-20.60208 0,-24.89868"
             style="opacity:0.60000598;fill:#000000;fill-opacity:0;stroke:none"
             id="path31083"
             inkscape:connector-curvature="0" />
        </g>
        <text
           xml:space="preserve"
           style="font-style:normal;font-variant:normal;font-weight:bold;font-stretch:normal;font-size:24.63906288px;line-height:100%;font-family:sans-serif;-inkscape-font-specification:'sans-serif, Bold';text-align:start;letter-spacing:0px;word-spacing:0px;writing-mode:lr-tb;text-anchor:start;fill:#000000;fill-opacity:1;stroke:none;stroke-width:1px;stroke-linecap:butt;stroke-linejoin:miter;stroke-opacity:1"
           x="305.58209"
           y="403.31467"
           id="text31091"
           sodipodi:linespacing="100%"><tspan
             sodipodi:role="line"
             id="tspan31093"
             x="305.58209"
             y="403.31467"
             style="font-style:normal;font-variant:normal;font-weight:500;font-stretch:normal;font-family:Futura;-inkscape-font-specification:'Futura Medium'">Volume 3</tspan></text>
      </g>
      <g
         inkscape:label="Layer 1"
         id="layer1-94"
         style="opacity:0.95"
         transform="matrix(0.22360217,0,0,0.22360217,429.88166,760.89514)">
        <g
           transform="matrix(0.35277776,0,0,-0.35277778,-308.16776,-250.06674)"
           id="g25966" />
      </g>
    </g>
    <g
       id="g11137"
       transform="translate(0,204)">
      <rect
         style="fill:none;fill-opacity:1;stroke:#000000;stroke-width:3;stroke-miterlimit:4;stroke-dasharray:none;stroke-dashoffset:0;stroke-opacity:1"
         id="rect11139"
         width="147.24557"
         height="81.48877"
         x="-373.34097"
         y="688.93738" />
      <g
         id="g11141"
         transform="translate(142.89284,4.47674)">
        <ellipse
           style="fill:none;stroke:#000000;stroke-width:1.88477826;stroke-miterlimit:4;stroke-dasharray:none;stroke-opacity:1"
           id="ellipse11143"
           cx="-442.02335"
           cy="726.78784"
           ry="18.387955"
           rx="32.732471" />
      </g>
      <rect
         y="704.05103"
         x="-350.40387"
         height="50.281006"
         width="101.59971"
         id="rect11145"
         style="fill:none;fill-opacity:1;stroke:#000000;stroke-width:2;stroke-miterlimit:4;stroke-dasharray:2, 2;stroke-dashoffset:0;stroke-opacity:1" />
    </g>
    <g
       id="g11235"
       transform="translate(474.98589,0.6680606)">
      <g
         id="g11237"
         transform="translate(0,80)">
        <rect
           y="688.93738"
           x="-373.34097"
           height="81.48877"
           width="147.24557"
           id="rect11239"
           style="fill:none;fill-opacity:1;stroke:#000000;stroke-width:3;stroke-miterlimit:4;stroke-dasharray:none;stroke-dashoffset:0;stroke-opacity:1" />
        <g
           transform="translate(142.89284,4.47674)"
           id="g11241">
          <ellipse
             rx="32.732471"
             ry="18.387955"
             cy="726.78784"
             cx="-442.02335"
             id="ellipse11243"
             style="fill:none;stroke:#000000;stroke-width:1.88477826;stroke-miterlimit:4;stroke-dasharray:none;stroke-opacity:1" />
        </g>
        <rect
           style="fill:none;fill-opacity:1;stroke:#000000;stroke-width:2;stroke-miterlimit:4;stroke-dasharray:2, 2;stroke-dashoffset:0;stroke-opacity:1"
           id="rect11245"
           width="101.59971"
           height="50.281006"
           x="-350.40387"
           y="704.05103" />
      </g>
    </g>
    <g
       transform="translate(474.98589,124.66806)"
       id="g11247">
      <g
         transform="translate(0,80)"
         id="g11249">
        <rect
           style="fill:none;fill-opacity:1;stroke:#000000;stroke-width:3;stroke-miterlimit:4;stroke-dasharray:none;stroke-dashoffset:0;stroke-opacity:1"
           id="rect11251"
           width="147.24557"
           height="81.48877"
           x="-373.34097"
           y="688.93738" />
        <g
           id="g11253"
           transform="translate(142.89284,4.47674)">
          <ellipse
             style="fill:none;stroke:#000000;stroke-width:1.88477826;stroke-miterlimit:4;stroke-dasharray:none;stroke-opacity:1"
             id="ellipse11255"
             cx="-442.02335"
             cy="726.78784"
             ry="18.387955"
             rx="32.732471" />
        </g>
        <rect
           y="704.05103"
           x="-350.40387"
           height="50.281006"
           width="101.59971"
           id="rect11257"
           style="fill:none;fill-opacity:1;stroke:#000000;stroke-width:2;stroke-miterlimit:4;stroke-dasharray:2, 2;stroke-dashoffset:0;stroke-opacity:1" />
      </g>
    </g>
    <path
       style="fill:none;fill-rule:evenodd;stroke:#f413ff;stroke-width:4.15748024;stroke-linecap:butt;stroke-linejoin:miter;stroke-miterlimit:4;stroke-dasharray:none;stroke-opacity:1"
       d="m -32.59898,866.75474 175.11225,66.87611"
       id="path11259"
       inkscape:connector-curvature="0"
       sodipodi:nodetypes="cc" />
    <path
       sodipodi:nodetypes="cc"
       inkscape:connector-curvature="0"
       id="path11261"
       d="M -31.710323,864.9774 143.40192,810.99622"
       style="fill:none;fill-rule:evenodd;stroke:#f413ff;stroke-width:4.15748024;stroke-linecap:butt;stroke-linejoin:miter;stroke-miterlimit:4;stroke-dasharray:none;stroke-opacity:1" />
    <ellipse
       ry="28.476408"
       rx="28.15691"
       cy="865.61554"
       cx="-61.189194"
       id="ellipse32560"
       style="fill:none;stroke:#000000;stroke-width:3.68618226;stroke-miterlimit:4;stroke-dasharray:none;stroke-opacity:1" />
  </g>
</svg>
