<?xml version="1.0" encoding="UTF-8" standalone="no"?>
<!-- Created with Inkscape (http://www.inkscape.org/) -->

<svg
   xmlns:dc="http://purl.org/dc/elements/1.1/"
   xmlns:cc="http://creativecommons.org/ns#"
   xmlns:rdf="http://www.w3.org/1999/02/22-rdf-syntax-ns#"
   xmlns:svg="http://www.w3.org/2000/svg"
   xmlns="http://www.w3.org/2000/svg"
   xmlns:sodipodi="http://sodipodi.sourceforge.net/DTD/sodipodi-0.dtd"
   xmlns:inkscape="http://www.inkscape.org/namespaces/inkscape"
   width="1200"
   height="800"
   id="svg3073"
   version="1.1"
   inkscape:version="0.91+devel+osxmenu r12876"
   sodipodi:docname="addoper.svg">
  <defs
     id="defs3075" />
  <sodipodi:namedview
     id="base"
     pagecolor="#ffffff"
     bordercolor="#666666"
     borderopacity="1.0"
     inkscape:pageopacity="0.0"
     inkscape:pageshadow="2"
     inkscape:zoom="0.5"
     inkscape:cx="17.12314"
     inkscape:cy="43.505602"
     inkscape:document-units="px"
     inkscape:current-layer="layer3"
     showgrid="false"
     inkscape:window-width="842"
     inkscape:window-height="551"
     inkscape:window-x="0"
     inkscape:window-y="23"
     inkscape:window-maximized="0"
     showguides="true"
     inkscape:guide-bbox="true"
     fit-margin-top="0"
     fit-margin-left="0"
     fit-margin-right="0"
     fit-margin-bottom="0"
     inkscape:snap-bbox="true"
     inkscape:bbox-paths="true"
     inkscape:bbox-nodes="true"
     inkscape:snap-bbox-edge-midpoints="true"
     inkscape:snap-bbox-midpoints="true"
     inkscape:snap-global="false"
     inkscape:object-paths="true"
     inkscape:snap-intersection-paths="true"
     inkscape:object-nodes="true"
     inkscape:snap-smooth-nodes="true"
     inkscape:snap-midpoints="true"
     inkscape:snap-object-midpoints="true"
     inkscape:snap-text-baseline="true"
     inkscape:snap-center="true"
     inkscape:snap-page="false"
     inkscape:snap-grids="false">
    <inkscape:grid
       type="xygrid"
       id="grid3081"
       originx="374.84097px"
       originy="92.36695px" />
    <sodipodi:guide
       position="-263.52536,131.61089"
       orientation="1,0"
       id="guide32540" />
    <sodipodi:guide
       position="519.38108,283.57116"
       orientation="0,1"
       id="guide32552" />
    <sodipodi:guide
       position="698.00105,32.081351"
       orientation="1,0"
       id="guide11111" />
    <sodipodi:guide
       position="447,318"
       orientation="1,0"
       id="guide11129" />
  </sodipodi:namedview>
  <metadata
     id="metadata3078">
    <rdf:RDF>
      <cc:Work
         rdf:about="">
        <dc:format>image/svg+xml</dc:format>
        <dc:type
           rdf:resource="http://purl.org/dc/dcmitype/StillImage" />
        <dc:title></dc:title>
      </cc:Work>
    </rdf:RDF>
  </metadata>
  <g
     inkscape:groupmode="layer"
     id="layer2"
     inkscape:label="Refinement"
     style="display:inline"
     transform="translate(-245.75223,-26.13009)">
    <path
       sodipodi:nodetypes="cc"
       inkscape:connector-curvature="0"
       id="path32591"
       d="M 781.61409,102.07168 596.82756,257.67757"
       style="fill:none;fill-rule:evenodd;stroke:#ff0000;stroke-width:8.03091145;stroke-linecap:butt;stroke-linejoin:miter;stroke-miterlimit:4;stroke-dasharray:8.03091169, 8.03091169;stroke-dashoffset:0;stroke-opacity:1" />
    <path
       style="fill:none;fill-rule:evenodd;stroke:#ff0000;stroke-width:8.03091145;stroke-linecap:butt;stroke-linejoin:miter;stroke-miterlimit:4;stroke-dasharray:8.03091169, 8.03091169;stroke-dashoffset:0;stroke-opacity:1"
       d="M 1067.1244,164.4404 842.09365,102.07168"
       id="path11426"
       inkscape:connector-curvature="0"
       sodipodi:nodetypes="cc" />
    <path
       sodipodi:nodetypes="cc"
       inkscape:connector-curvature="0"
       id="path11428"
       d="M 1066.6357,412.8625 842.09365,102.07168"
       style="fill:none;fill-rule:evenodd;stroke:#ff0000;stroke-width:8.03091145;stroke-linecap:butt;stroke-linejoin:miter;stroke-miterlimit:4;stroke-dasharray:8.03091169, 8.03091169;stroke-dashoffset:0;stroke-opacity:1" />
    <path
       style="fill:none;fill-rule:evenodd;stroke:#ff0000;stroke-width:8.03091145;stroke-linecap:butt;stroke-linejoin:miter;stroke-miterlimit:4;stroke-dasharray:8.03091169, 8.03091169;stroke-dashoffset:0;stroke-opacity:1"
       d="M 781.61409,157.50243 596.82756,257.67757"
       id="path16654"
       inkscape:connector-curvature="0"
       sodipodi:nodetypes="cc" />
  </g>
  <g
     inkscape:label="Base"
     inkscape:groupmode="layer"
     id="layer1"
     transform="translate(374.84097,-444.7291)"
     style="display:inline">
    <rect
       style="opacity:1;fill:#b743ff;fill-opacity:0;stroke:none;stroke-width:2;stroke-linecap:round;stroke-miterlimit:4;stroke-dasharray:2.0000001, 6.00000029000000001;stroke-dashoffset:0;stroke-opacity:1"
       id="rect11781"
       width="1198"
       height="798"
       x="-372.84097"
       y="446.7291" />
    <text
       xml:space="preserve"
       style="font-style:normal;font-variant:normal;font-weight:normal;font-stretch:normal;font-size:32px;line-height:125%;font-family:'Segoe UI';-inkscape-font-specification:'Segoe UI';letter-spacing:0px;word-spacing:0px;fill:#000000;fill-opacity:1;stroke:none"
       x="434.83554"
       y="69.583588"
       id="text3087"
       sodipodi:linespacing="125%"><tspan
         sodipodi:role="line"
         id="tspan3089"
         x="434.83554"
         y="69.583588" /></text>
    <text
       xml:space="preserve"
       style="font-style:normal;font-variant:normal;font-weight:normal;font-stretch:normal;font-size:32px;line-height:125%;font-family:'Segoe UI';-inkscape-font-specification:'Segoe UI';letter-spacing:0px;word-spacing:0px;fill:#000000;fill-opacity:1;stroke:none"
       x="519.03778"
       y="143.73184"
       id="text3091"
       sodipodi:linespacing="125%"><tspan
         sodipodi:role="line"
         id="tspan3093"
         x="519.03778"
         y="143.73184" /></text>
    <text
       xml:space="preserve"
       style="font-style:normal;font-variant:normal;font-weight:normal;font-stretch:normal;font-size:32px;line-height:125%;font-family:'Segoe UI';-inkscape-font-specification:'Segoe UI';letter-spacing:0px;word-spacing:0px;fill:#000000;fill-opacity:1;stroke:none"
       x="389.59253"
       y="236.73135"
       id="text3095"
       sodipodi:linespacing="125%"><tspan
         sodipodi:role="line"
         id="tspan3097"
         x="389.59253"
         y="236.73135" /></text>
    <text
       xml:space="preserve"
       style="font-style:normal;font-variant:normal;font-weight:bold;font-stretch:normal;font-size:22.76269531px;line-height:100%;font-family:sans-serif;-inkscape-font-specification:'sans-serif, Bold';text-align:start;letter-spacing:0px;word-spacing:0px;writing-mode:lr-tb;text-anchor:start;fill:#000000;fill-opacity:1;stroke:none;stroke-width:1px;stroke-linecap:butt;stroke-linejoin:miter;stroke-opacity:1"
       x="-95.755547"
       y="626.73547"
       id="text16045"
       sodipodi:linespacing="100%"><tspan
         sodipodi:role="line"
         id="tspan16047"
         x="-95.755547"
         y="626.73547"
         style="font-style:normal;font-variant:normal;font-weight:500;font-stretch:normal;font-family:Futura;-inkscape-font-specification:'Futura Medium'">Volume 1</tspan></text>
    <g
       id="g31108"
       transform="translate(-3.993728,-86.39519)" />
    <g
       transform="translate(-5.107162,-41.52326)"
       id="g31122" />
    <g
       transform="translate(-3.993728,197.60481)"
       id="g31138" />
    <g
       id="g11147"
       transform="matrix(0.92384582,0,0,0.92384582,222.34529,-73.227963)">
      <g
         transform="translate(0,80)"
         id="g11131">
        <rect
           style="fill:none;fill-opacity:1;stroke:#000000;stroke-width:3;stroke-miterlimit:4;stroke-dasharray:none;stroke-dashoffset:0;stroke-opacity:1"
           id="rect16029"
           width="147.24557"
           height="81.48877"
           x="-373.34097"
           y="688.93738" />
        <g
           id="g31130"
           transform="translate(142.89284,4.47674)">
          <ellipse
             style="fill:none;stroke:#000000;stroke-width:1.88477826;stroke-miterlimit:4;stroke-dasharray:none;stroke-opacity:1"
             id="ellipse31132"
             cx="-442.02335"
             cy="726.78784"
             ry="18.387955"
             rx="32.732471" />
        </g>
        <rect
           y="704.05103"
           x="-350.40387"
           height="50.281006"
           width="101.59971"
           id="rect31162"
           style="fill:none;fill-opacity:1;stroke:#000000;stroke-width:2;stroke-miterlimit:4;stroke-dasharray:2, 2;stroke-dashoffset:0;stroke-opacity:1" />
      </g>
    </g>
    <text
       sodipodi:linespacing="100%"
       id="text30970"
       y="543.04291"
       x="433.42673"
       style="font-style:normal;font-variant:normal;font-weight:bold;font-stretch:normal;font-size:22.76269531px;line-height:100%;font-family:sans-serif;-inkscape-font-specification:'sans-serif, Bold';text-align:start;letter-spacing:0px;word-spacing:0px;writing-mode:lr-tb;text-anchor:start;fill:#000000;fill-opacity:1;stroke:none;stroke-width:1px;stroke-linecap:butt;stroke-linejoin:miter;stroke-opacity:1"
       xml:space="preserve"><tspan
         style="font-style:normal;font-variant:normal;font-weight:500;font-stretch:normal;font-family:Futura;-inkscape-font-specification:'Futura Medium'"
         y="543.04291"
         x="433.42673"
         id="tspan30972"
         sodipodi:role="line">Volume 2</tspan></text>
    <g
       transform="matrix(0.22360217,0,0,0.22360217,248.11689,838.00439)"
       style="opacity:0.95"
       id="layer1-94"
       inkscape:label="Layer 1">
      <g
         id="g25966"
         transform="matrix(0.35277776,0,0,-0.35277778,-308.16776,-250.06674)" />
    </g>
    <rect
       y="548.27216"
       x="407.7233"
       height="132.75179"
       width="136.03221"
       id="rect11158"
       style="fill:none;fill-opacity:1;stroke:#000000;stroke-width:2.77153754;stroke-miterlimit:4;stroke-dasharray:none;stroke-dashoffset:0;stroke-opacity:1" />
    <g
       id="g11178"
       transform="matrix(0.92384582,0,0,0.92384582,884.64373,-85.72137)">
      <ellipse
         style="fill:none;stroke:#000000;stroke-width:1.88477826;stroke-miterlimit:4;stroke-dasharray:none;stroke-opacity:1"
         id="ellipse11180"
         cx="-442.02335"
         cy="726.78784"
         ry="18.387955"
         rx="32.732471" />
    </g>
    <rect
       y="560.57739"
       x="428.91367"
       height="46.451897"
       width="93.862465"
       id="rect11182"
       style="fill:none;fill-opacity:1;stroke:#000000;stroke-width:1.84769166;stroke-miterlimit:4;stroke-dasharray:1.84769164, 1.84769164;stroke-dashoffset:0;stroke-opacity:1" />
    <g
       id="g11448"
       transform="matrix(0.92384582,0,0,0.92384582,135.50379,-36.274128)">
      <g
         id="g31075"
         transform="translate(-181.76477,487.84065)">
        <text
           xml:space="preserve"
           style="font-style:normal;font-variant:normal;font-weight:bold;font-stretch:normal;font-size:24.63906288px;line-height:100%;font-family:sans-serif;-inkscape-font-specification:'sans-serif, Bold';text-align:start;letter-spacing:0px;word-spacing:0px;writing-mode:lr-tb;text-anchor:start;fill:#000000;fill-opacity:1;stroke:none;stroke-width:1px;stroke-linecap:butt;stroke-linejoin:miter;stroke-opacity:1"
           x="505.58209"
           y="403.31467"
           id="text31091"
           sodipodi:linespacing="100%"><tspan
             sodipodi:role="line"
             id="tspan31093"
             x="505.58209"
             y="403.31467"
             style="font-style:normal;font-variant:normal;font-weight:500;font-stretch:normal;font-family:Futura;-inkscape-font-specification:'Futura Medium'">Volume 3</tspan></text>
      </g>
      <g
         transform="translate(810.89284,274.47674)"
         id="g11191" />
      <g
         id="g11166"
         transform="translate(668,128)">
        <g
           id="g11168"
           transform="translate(0,80)">
          <rect
             y="688.93738"
             x="-373.34097"
             height="140.14011"
             width="147.24557"
             id="rect11170"
             style="fill:none;fill-opacity:1;stroke:#000000;stroke-width:3;stroke-miterlimit:4;stroke-dasharray:none;stroke-dashoffset:0;stroke-opacity:1" />
          <g
             transform="translate(142.89284,4.47674)"
             id="g11172">
            <ellipse
               rx="32.732471"
               ry="18.387955"
               cy="726.78784"
               cx="-442.02335"
               id="ellipse11174"
               style="fill:none;stroke:#000000;stroke-width:1.88477826;stroke-miterlimit:4;stroke-dasharray:none;stroke-opacity:1" />
          </g>
          <rect
             style="fill:none;fill-opacity:1;stroke:#000000;stroke-width:2;stroke-miterlimit:4;stroke-dasharray:2, 2;stroke-dashoffset:0;stroke-opacity:1"
             id="rect11176"
             width="101.59971"
             height="50.281006"
             x="-350.40387"
             y="704.05103" />
        </g>
      </g>
    </g>
    <text
       xml:space="preserve"
       style="font-style:normal;font-variant:normal;font-weight:bold;font-stretch:normal;font-size:34.04302597px;line-height:100%;font-family:'Century Gothic';-inkscape-font-specification:'Century Gothic, Bold';text-align:end;letter-spacing:0px;word-spacing:0px;writing-mode:lr-tb;text-anchor:end;fill:#ff0000;fill-opacity:1;stroke:none;stroke-width:1px;stroke-linecap:butt;stroke-linejoin:miter;stroke-opacity:1"
       x="343.96948"
       y="540.82611"
       id="text11434"
       sodipodi:linespacing="100%"><tspan
         sodipodi:role="line"
         id="tspan11436"
         x="343.96948"
         y="540.82611"
         style="font-style:normal;font-variant:normal;font-weight:bold;font-stretch:normal;font-size:34.04302597px;line-height:100%;font-family:'Century Gothic';-inkscape-font-specification:'Century Gothic, Bold';text-align:end;writing-mode:lr-tb;text-anchor:end;fill:#ff0000;fill-opacity:1">&gt;</tspan></text>
    <text
       sodipodi:linespacing="100%"
       id="text11462"
       y="471.15073"
       x="149.5103"
       style="font-style:normal;font-variant:normal;font-weight:bold;font-stretch:normal;font-size:22.76269531px;line-height:100%;font-family:sans-serif;-inkscape-font-specification:'sans-serif, Bold';text-align:start;letter-spacing:0px;word-spacing:0px;writing-mode:lr-tb;text-anchor:start;fill:#000000;fill-opacity:1;stroke:none;stroke-width:1px;stroke-linecap:butt;stroke-linejoin:miter;stroke-opacity:1"
       xml:space="preserve"><tspan
         style="font-style:normal;font-variant:normal;font-weight:500;font-stretch:normal;font-family:Futura;-inkscape-font-specification:'Futura Medium'"
         y="471.15073"
         x="149.5103"
         id="tspan11464"
         sodipodi:role="line">Volume 5</tspan></text>
    <rect
       y="481.56689"
       x="122.70165"
       height="125.36293"
       width="136.03221"
       id="rect11470"
       style="fill:none;fill-opacity:1;stroke:#000000;stroke-width:2.77153754;stroke-miterlimit:4;stroke-dasharray:none;stroke-dashoffset:0;stroke-opacity:1" />
    <g
       transform="matrix(0.92384582,0,0,0.92384582,599.6221,-150.7692)"
       id="g11472">
      <ellipse
         rx="32.732471"
         ry="18.387955"
         cy="726.78784"
         cx="-442.02335"
         id="ellipse11474"
         style="fill:none;stroke:#000000;stroke-width:1.88477826;stroke-miterlimit:4;stroke-dasharray:none;stroke-opacity:1" />
    </g>
    <rect
       style="fill:none;fill-opacity:1;stroke:#000000;stroke-width:1.84769166;stroke-miterlimit:4;stroke-dasharray:1.84769164, 1.84769164;stroke-dashoffset:0;stroke-opacity:1"
       id="rect11476"
       width="93.862465"
       height="46.451897"
       x="143.89201"
       y="495.52957" />
    <g
       id="g11480"
       transform="matrix(0.92384582,0,0,0.92384582,599.6221,-95.338448)">
      <ellipse
         style="fill:none;stroke:#000000;stroke-width:1.88477826;stroke-miterlimit:4;stroke-dasharray:none;stroke-opacity:1"
         id="ellipse11482"
         cx="-442.02335"
         cy="726.78784"
         ry="18.387955"
         rx="32.732471" />
    </g>
    <rect
       y="550.96033"
       x="143.89201"
       height="46.451897"
       width="93.862465"
       id="rect11484"
       style="fill:none;fill-opacity:1;stroke:#000000;stroke-width:1.84769166;stroke-miterlimit:4;stroke-dasharray:1.84769164, 1.84769164;stroke-dashoffset:0;stroke-opacity:1" />
    <text
       sodipodi:linespacing="100%"
       id="text16656"
       y="666.75415"
       x="307.89963"
       style="font-style:normal;font-variant:normal;font-weight:bold;font-stretch:normal;font-size:34.04302597px;line-height:100%;font-family:'Century Gothic';-inkscape-font-specification:'Century Gothic, Bold';text-align:end;letter-spacing:0px;word-spacing:0px;writing-mode:lr-tb;text-anchor:end;fill:#ff0000;fill-opacity:1;stroke:none;stroke-width:1px;stroke-linecap:butt;stroke-linejoin:miter;stroke-opacity:1"
       xml:space="preserve"><tspan
         style="font-style:normal;font-variant:normal;font-weight:bold;font-stretch:normal;font-size:34.04302597px;line-height:100%;font-family:'Century Gothic';-inkscape-font-specification:'Century Gothic, Bold';text-align:end;writing-mode:lr-tb;text-anchor:end;fill:#ff0000;fill-opacity:1"
         y="666.75415"
         x="307.89963"
         id="tspan16658"
         sodipodi:role="line">&gt;</tspan></text>
    <text
       xml:space="preserve"
       style="font-style:normal;font-variant:normal;font-weight:bold;font-stretch:normal;font-size:34.04302597px;line-height:100%;font-family:'Century Gothic';-inkscape-font-specification:'Century Gothic, Bold';text-align:end;letter-spacing:0px;word-spacing:0px;writing-mode:lr-tb;text-anchor:end;fill:#ff0000;fill-opacity:1;stroke:none;stroke-width:1px;stroke-linecap:butt;stroke-linejoin:miter;stroke-opacity:1"
       x="119.43504"
       y="648.27722"
       id="text16660"
       sodipodi:linespacing="100%"><tspan
         sodipodi:role="line"
         id="tspan16662"
         x="119.43504"
         y="648.27722"
         style="font-style:normal;font-variant:normal;font-weight:bold;font-stretch:normal;font-size:34.04302597px;line-height:100%;font-family:'Century Gothic';-inkscape-font-specification:'Century Gothic, Bold';text-align:end;writing-mode:lr-tb;text-anchor:end;fill:#ff0000;fill-opacity:1">&gt;</tspan></text>
    <text
       sodipodi:linespacing="100%"
       id="text16664"
       y="559.58807"
       x="104.6535"
       style="font-style:normal;font-variant:normal;font-weight:bold;font-stretch:normal;font-size:34.04302597px;line-height:100%;font-family:'Century Gothic';-inkscape-font-specification:'Century Gothic, Bold';text-align:end;letter-spacing:0px;word-spacing:0px;writing-mode:lr-tb;text-anchor:end;fill:#ff0000;fill-opacity:1;stroke:none;stroke-width:1px;stroke-linecap:butt;stroke-linejoin:miter;stroke-opacity:1"
       xml:space="preserve"><tspan
         style="font-style:normal;font-variant:normal;font-weight:bold;font-stretch:normal;font-size:34.04302597px;line-height:100%;font-family:'Century Gothic';-inkscape-font-specification:'Century Gothic, Bold';text-align:end;writing-mode:lr-tb;text-anchor:end;fill:#ff0000;fill-opacity:1"
         y="559.58807"
         x="104.6535"
         id="tspan16666"
         sodipodi:role="line">&gt;</tspan></text>
    <text
       xml:space="preserve"
       style="font-style:normal;font-variant:normal;font-weight:bold;font-stretch:normal;font-size:22.76269531px;line-height:100%;font-family:sans-serif;-inkscape-font-specification:'sans-serif, Bold';text-align:start;letter-spacing:0px;word-spacing:0px;writing-mode:lr-tb;text-anchor:start;fill:#000000;fill-opacity:1;stroke:none;stroke-width:1px;stroke-linecap:butt;stroke-linejoin:miter;stroke-opacity:1"
       x="-55.104889"
       y="682.79919"
       id="text5550"
       sodipodi:linespacing="100%"><tspan
         sodipodi:role="line"
         x="-55.104889"
         y="682.79919"
         style="font-style:normal;font-variant:normal;font-weight:500;font-stretch:normal;font-size:22.7623291px;line-height:100%;font-family:Futura;-inkscape-font-specification:'Futura, Medium';text-align:center;writing-mode:lr-tb;text-anchor:middle"
         id="tspan5554">{1}</tspan></text>
    <text
       sodipodi:linespacing="100%"
       id="text5610"
       y="527.59314"
       x="192.48579"
       style="font-style:normal;font-variant:normal;font-weight:bold;font-stretch:normal;font-size:22.76269531px;line-height:100%;font-family:sans-serif;-inkscape-font-specification:'sans-serif, Bold';text-align:start;letter-spacing:0px;word-spacing:0px;writing-mode:lr-tb;text-anchor:start;fill:#000000;fill-opacity:1;stroke:none;stroke-width:1px;stroke-linecap:butt;stroke-linejoin:miter;stroke-opacity:1"
       xml:space="preserve"><tspan
         id="tspan5612"
         style="font-style:normal;font-variant:normal;font-weight:500;font-stretch:normal;font-size:22.7623291px;line-height:100%;font-family:Futura;-inkscape-font-specification:'Futura, Medium';text-align:center;writing-mode:lr-tb;text-anchor:middle"
         y="527.59314"
         x="192.48579"
         sodipodi:role="line">{2}</tspan></text>
    <text
       xml:space="preserve"
       style="font-style:normal;font-variant:normal;font-weight:bold;font-stretch:normal;font-size:22.76269531px;line-height:100%;font-family:sans-serif;-inkscape-font-specification:'sans-serif, Bold';text-align:start;letter-spacing:0px;word-spacing:0px;writing-mode:lr-tb;text-anchor:start;fill:#000000;fill-opacity:1;stroke:none;stroke-width:1px;stroke-linecap:butt;stroke-linejoin:miter;stroke-opacity:1"
       x="192.48579"
       y="583.02386"
       id="text5614"
       sodipodi:linespacing="100%"><tspan
         sodipodi:role="line"
         x="192.48579"
         y="583.02386"
         style="font-style:normal;font-variant:normal;font-weight:500;font-stretch:normal;font-size:22.7623291px;line-height:100%;font-family:Futura;-inkscape-font-specification:'Futura, Medium';text-align:center;writing-mode:lr-tb;text-anchor:middle"
         id="tspan5616">{3}</tspan></text>
    <text
       sodipodi:linespacing="100%"
       id="text5618"
       y="593.18616"
       x="475.18265"
       style="font-style:normal;font-variant:normal;font-weight:bold;font-stretch:normal;font-size:22.76269531px;line-height:100%;font-family:sans-serif;-inkscape-font-specification:'sans-serif, Bold';text-align:start;letter-spacing:0px;word-spacing:0px;writing-mode:lr-tb;text-anchor:start;fill:#000000;fill-opacity:1;stroke:none;stroke-width:1px;stroke-linecap:butt;stroke-linejoin:miter;stroke-opacity:1"
       xml:space="preserve"><tspan
         id="tspan5620"
         style="font-style:normal;font-variant:normal;font-weight:500;font-stretch:normal;font-size:22.7623291px;line-height:100%;font-family:Futura;-inkscape-font-specification:'Futura, Medium';text-align:center;writing-mode:lr-tb;text-anchor:middle"
         y="593.18616"
         x="475.18265"
         sodipodi:role="line">{4}</tspan></text>
    <text
       xml:space="preserve"
       style="font-style:normal;font-variant:normal;font-weight:bold;font-stretch:normal;font-size:22.76269531px;line-height:100%;font-family:sans-serif;-inkscape-font-specification:'sans-serif, Bold';text-align:start;letter-spacing:0px;word-spacing:0px;writing-mode:lr-tb;text-anchor:start;fill:#000000;fill-opacity:1;stroke:none;stroke-width:1px;stroke-linecap:butt;stroke-linejoin:miter;stroke-opacity:1"
       x="475.18265"
       y="838.92914"
       id="text5622"
       sodipodi:linespacing="100%"><tspan
         sodipodi:role="line"
         x="475.18265"
         y="838.92914"
         style="font-style:normal;font-variant:normal;font-weight:500;font-stretch:normal;font-size:22.7623291px;line-height:100%;font-family:Futura;-inkscape-font-specification:'Futura, Medium';text-align:center;writing-mode:lr-tb;text-anchor:middle"
         id="tspan5624">{5}</tspan></text>
  </g>
  <g
     inkscape:groupmode="layer"
     id="layer4"
     inkscape:label="Step 2"
     style="display:inline">
    <text
       sodipodi:linespacing="100%"
       id="text6711-5"
       y="54.807556"
       x="1087.8805"
       style="font-style:normal;font-variant:normal;font-weight:bold;font-stretch:normal;font-size:67.26284027px;line-height:100%;font-family:'Century Gothic';-inkscape-font-specification:'Century Gothic, Bold';text-align:end;letter-spacing:0px;word-spacing:0px;writing-mode:lr-tb;text-anchor:end;display:inline;fill:#ff0000;fill-opacity:1;stroke:none;stroke-width:1px;stroke-linecap:butt;stroke-linejoin:miter;stroke-opacity:1"
       xml:space="preserve"><tspan
         style="font-style:normal;font-variant:normal;font-weight:bold;font-stretch:normal;font-size:67.26284027px;line-height:100%;font-family:'Century Gothic';-inkscape-font-specification:'Century Gothic, Bold';text-align:end;writing-mode:lr-tb;text-anchor:end;fill:#ff0000;fill-opacity:1"
         y="54.807556"
         x="1087.8805"
         id="tspan6713-0"
         sodipodi:role="line">&gt;</tspan></text>
    <g
       transform="translate(847.74612,-385.17709)"
       id="g5294-3"
       style="display:inline">
      <ellipse
         rx="32.732471"
         ry="18.387955"
         cy="943.50159"
         cx="223.37137"
         id="ellipse11474-7-1"
         style="display:inline;fill:none;stroke:#000000;stroke-width:1.88477826;stroke-miterlimit:4;stroke-dasharray:none;stroke-opacity:1" />
      <text
         xml:space="preserve"
         style="font-style:normal;font-variant:normal;font-weight:bold;font-stretch:normal;font-size:24.63906288px;line-height:100%;font-family:sans-serif;-inkscape-font-specification:'sans-serif, Bold';text-align:start;letter-spacing:0px;word-spacing:0px;writing-mode:lr-tb;text-anchor:start;fill:#000000;fill-opacity:1;stroke:none;stroke-width:1px;stroke-linecap:butt;stroke-linejoin:miter;stroke-opacity:1"
         x="203.05527"
         y="946.77368"
         id="text5241-9"
         sodipodi:linespacing="100%"><tspan
           sodipodi:role="line"
           id="tspan5243-2"
           x="203.05527"
           y="946.77368"
           style="font-style:normal;font-variant:normal;font-weight:500;font-stretch:normal;font-family:Futura;-inkscape-font-specification:'Futura Medium'">s<tspan
   style="font-size:64.99999762%;baseline-shift:sub"
   id="tspan5245-1">new</tspan></tspan></text>
    </g>
    <text
       xml:space="preserve"
       style="font-style:normal;font-variant:normal;font-weight:bold;font-stretch:normal;font-size:24.63906288px;line-height:100%;font-family:sans-serif;-inkscape-font-specification:'sans-serif, Bold';text-align:start;letter-spacing:0px;word-spacing:0px;writing-mode:lr-tb;text-anchor:start;display:inline;fill:#000000;fill-opacity:1;stroke:none;stroke-width:1px;stroke-linecap:butt;stroke-linejoin:miter;stroke-opacity:1"
       x="1070.0735"
       y="487.78067"
       id="text31091-0-0"
       sodipodi:linespacing="100%"><tspan
         sodipodi:role="line"
         id="tspan31093-8-6"
         x="1073.8751"
         y="487.78067"
         style="font-style:normal;font-variant:normal;font-weight:500;font-stretch:normal;font-size:24.63866615px;line-height:100%;font-family:Futura;-inkscape-font-specification:'Futura, Medium';text-align:center;writing-mode:lr-tb;text-anchor:middle">Nouveau </tspan><tspan
         sodipodi:role="line"
         x="1073.8751"
         y="512.41931"
         style="font-style:normal;font-variant:normal;font-weight:500;font-stretch:normal;font-size:24.63866615px;line-height:100%;font-family:Futura;-inkscape-font-specification:'Futura, Medium';text-align:center;writing-mode:lr-tb;text-anchor:middle"
         id="tspan5292-4">volume </tspan></text>
    <text
       sodipodi:linespacing="100%"
       id="text5329-8"
       y="487.78067"
       x="1070.0735"
       style="font-style:normal;font-variant:normal;font-weight:bold;font-stretch:normal;font-size:24.63906288px;line-height:100%;font-family:sans-serif;-inkscape-font-specification:'sans-serif, Bold';text-align:start;letter-spacing:0px;word-spacing:0px;writing-mode:lr-tb;text-anchor:start;display:inline;fill:#000000;fill-opacity:1;stroke:none;stroke-width:1px;stroke-linecap:butt;stroke-linejoin:miter;stroke-opacity:1"
       xml:space="preserve"><tspan
         style="font-style:normal;font-variant:normal;font-weight:500;font-stretch:normal;font-size:24.63866615px;line-height:100%;font-family:Futura;-inkscape-font-specification:'Futura, Medium';text-align:center;writing-mode:lr-tb;text-anchor:middle"
         y="487.78067"
         x="1073.8751"
         id="tspan5331-2"
         sodipodi:role="line">Nouveau </tspan><tspan
         id="tspan5333-2"
         style="font-style:normal;font-variant:normal;font-weight:500;font-stretch:normal;font-size:24.63866615px;line-height:100%;font-family:Futura;-inkscape-font-specification:'Futura, Medium';text-align:center;writing-mode:lr-tb;text-anchor:middle"
         y="512.41931"
         x="1073.8751"
         sodipodi:role="line">volume </tspan></text>
    <g
       style="display:inline"
       transform="translate(1370.7215,-250.86703)"
       id="g11166-7-3">
      <g
         transform="translate(0,80)"
         id="g11168-4-7">
        <rect
           style="fill:none;fill-opacity:1;stroke:#000000;stroke-width:3;stroke-miterlimit:4;stroke-dasharray:none;stroke-dashoffset:0;stroke-opacity:1"
           id="rect11170-7-1"
           width="147.24557"
           height="140.14011"
           x="-373.34097"
           y="688.93738" />
        <g
           id="g11172-5-6"
           transform="translate(142.89284,4.47674)" />
        <rect
           y="704.05103"
           x="-350.40387"
           height="50.281006"
           width="101.59971"
           id="rect11176-6-7"
           style="fill:none;fill-opacity:1;stroke:#000000;stroke-width:2;stroke-miterlimit:4;stroke-dasharray:2, 2;stroke-dashoffset:0;stroke-opacity:1" />
      </g>
    </g>
    <rect
       style="display:inline;opacity:1;fill:#43d0ff;fill-opacity:0.32923075;stroke:none;stroke-width:0.86979938;stroke-linecap:round;stroke-miterlimit:4;stroke-dasharray:0.86979941, 0.86979941;stroke-dashoffset:0;stroke-opacity:1"
       id="rect6709-8"
       width="246.20334"
       height="799.16095"
       x="953.11487"
       y="1.6112961" />
    <path
       style="display:inline;fill:none;fill-rule:evenodd;stroke:#000000;stroke-width:2;stroke-linecap:butt;stroke-linejoin:miter;stroke-miterlimit:4;stroke-dasharray:2.0000001, 6.00000029;stroke-dashoffset:0;stroke-opacity:1"
       d="m 951.66525,39.860209 0,725.491561"
       id="path6884-2"
       inkscape:connector-curvature="0"
       sodipodi:nodetypes="cc" />
    <text
       xml:space="preserve"
       style="font-style:normal;font-variant:normal;font-weight:bold;font-stretch:normal;font-size:67.26284027px;line-height:100%;font-family:'Century Gothic';-inkscape-font-specification:'Century Gothic, Bold';text-align:end;letter-spacing:0px;word-spacing:0px;writing-mode:lr-tb;text-anchor:end;display:inline;fill:#ff0000;fill-opacity:1;stroke:none;stroke-width:1px;stroke-linecap:butt;stroke-linejoin:miter;stroke-opacity:1"
       x="588.66309"
       y="791.65442"
       id="text6974"
       sodipodi:linespacing="100%"><tspan
         sodipodi:role="line"
         id="tspan6976"
         x="588.66309"
         y="791.65442"
         style="font-style:normal;font-variant:normal;font-weight:bold;font-stretch:normal;font-size:67.26284027px;line-height:100%;font-family:'Century Gothic';-inkscape-font-specification:'Century Gothic, Bold';text-align:end;writing-mode:lr-tb;text-anchor:end;fill:#ff0000;fill-opacity:1">=</tspan></text>
  </g>
  <g
     inkscape:groupmode="layer"
     id="layer3"
     inkscape:label="Step 1"
     style="display:inline">
    <text
       sodipodi:linespacing="100%"
       id="text6966"
       y="51.558102"
       x="1131.6211"
       style="font-style:normal;font-variant:normal;font-weight:bold;font-stretch:normal;font-size:66.28775787px;line-height:100%;font-family:sans-serif;-inkscape-font-specification:'sans-serif, Bold';text-align:end;letter-spacing:0px;word-spacing:0px;writing-mode:lr-tb;text-anchor:end;fill:#000000;fill-opacity:1;stroke:none;stroke-width:1px;stroke-linecap:butt;stroke-linejoin:miter;stroke-opacity:1"
       xml:space="preserve"><tspan
         style="font-style:normal;font-variant:normal;font-weight:normal;font-stretch:normal;font-size:66.28800201px;line-height:100%;font-family:'Segoe UI';-inkscape-font-specification:'Segoe UI, Normal';text-align:end;writing-mode:lr-tb;text-anchor:end;fill:#da1212;fill-opacity:1"
         y="51.558102"
         x="1131.6211"
         id="tspan6968"
         sodipodi:role="line">?</tspan></text>
    <text
       xml:space="preserve"
       style="font-style:normal;font-variant:normal;font-weight:bold;font-stretch:normal;font-size:66.28775787px;line-height:100%;font-family:sans-serif;-inkscape-font-specification:'sans-serif, Bold';text-align:end;letter-spacing:0px;word-spacing:0px;writing-mode:lr-tb;text-anchor:end;fill:#000000;fill-opacity:1;stroke:none;stroke-width:1px;stroke-linecap:butt;stroke-linejoin:miter;stroke-opacity:1"
       x="172.78426"
       y="52.972317"
       id="text6947"
       sodipodi:linespacing="100%"><tspan
         sodipodi:role="line"
         id="tspan6949"
         x="172.78426"
         y="52.972317"
         style="font-style:normal;font-variant:normal;font-weight:normal;font-stretch:normal;font-size:66.28800201px;line-height:100%;font-family:'Segoe UI';-inkscape-font-specification:'Segoe UI, Normal';text-align:end;writing-mode:lr-tb;text-anchor:end;fill:#da1212;fill-opacity:1">?</tspan></text>
    <text
       xml:space="preserve"
       style="font-style:normal;font-variant:normal;font-weight:bold;font-stretch:normal;font-size:66.28775787px;line-height:100%;font-family:sans-serif;-inkscape-font-specification:'sans-serif, Bold';text-align:end;letter-spacing:0px;word-spacing:0px;writing-mode:lr-tb;text-anchor:end;fill:#000000;fill-opacity:1;stroke:none;stroke-width:1px;stroke-linecap:butt;stroke-linejoin:miter;stroke-opacity:1"
       x="632.40369"
       y="788.40497"
       id="text6970"
       sodipodi:linespacing="100%"><tspan
         sodipodi:role="line"
         id="tspan6972"
         x="632.40369"
         y="788.40497"
         style="font-style:normal;font-variant:normal;font-weight:normal;font-stretch:normal;font-size:66.28800201px;line-height:100%;font-family:'Segoe UI';-inkscape-font-specification:'Segoe UI, Normal';text-align:end;writing-mode:lr-tb;text-anchor:end;fill:#da1212;fill-opacity:1">?</tspan></text>
    <text
       sodipodi:linespacing="100%"
       id="text6711"
       y="51.979145"
       x="137.52899"
       style="font-style:normal;font-variant:normal;font-weight:bold;font-stretch:normal;font-size:67.26284027px;line-height:100%;font-family:'Century Gothic';-inkscape-font-specification:'Century Gothic, Bold';text-align:end;letter-spacing:0px;word-spacing:0px;writing-mode:lr-tb;text-anchor:end;display:inline;fill:#ff0000;fill-opacity:1;stroke:none;stroke-width:1px;stroke-linecap:butt;stroke-linejoin:miter;stroke-opacity:1"
       xml:space="preserve"><tspan
         style="font-style:normal;font-variant:normal;font-weight:bold;font-stretch:normal;font-size:67.26284027px;line-height:100%;font-family:'Century Gothic';-inkscape-font-specification:'Century Gothic, Bold';text-align:end;writing-mode:lr-tb;text-anchor:end;fill:#ff0000;fill-opacity:1"
         y="51.979145"
         x="137.52899"
         id="tspan6713"
         sodipodi:role="line">&gt;</tspan></text>
    <g
       transform="translate(-118.6054,-388.0055)"
       id="g5294"
       style="display:inline">
      <ellipse
         rx="32.732471"
         ry="18.387955"
         cy="943.50159"
         cx="223.37137"
         id="ellipse11474-7"
         style="display:inline;fill:none;stroke:#000000;stroke-width:1.88477826;stroke-miterlimit:4;stroke-dasharray:none;stroke-opacity:1" />
      <text
         xml:space="preserve"
         style="font-style:normal;font-variant:normal;font-weight:bold;font-stretch:normal;font-size:24.63906288px;line-height:100%;font-family:sans-serif;-inkscape-font-specification:'sans-serif, Bold';text-align:start;letter-spacing:0px;word-spacing:0px;writing-mode:lr-tb;text-anchor:start;fill:#000000;fill-opacity:1;stroke:none;stroke-width:1px;stroke-linecap:butt;stroke-linejoin:miter;stroke-opacity:1"
         x="203.05527"
         y="946.77368"
         id="text5241"
         sodipodi:linespacing="100%"><tspan
           sodipodi:role="line"
           id="tspan5243"
           x="203.05527"
           y="946.77368"
           style="font-style:normal;font-variant:normal;font-weight:500;font-stretch:normal;font-family:Futura;-inkscape-font-specification:'Futura Medium'">s<tspan
   style="font-size:64.99999762%;baseline-shift:sub"
   id="tspan5245">new</tspan></tspan></text>
    </g>
    <text
       xml:space="preserve"
       style="font-style:normal;font-variant:normal;font-weight:bold;font-stretch:normal;font-size:24.63906288px;line-height:100%;font-family:sans-serif;-inkscape-font-specification:'sans-serif, Bold';text-align:start;letter-spacing:0px;word-spacing:0px;writing-mode:lr-tb;text-anchor:start;display:inline;fill:#000000;fill-opacity:1;stroke:none;stroke-width:1px;stroke-linecap:butt;stroke-linejoin:miter;stroke-opacity:1"
       x="103.72198"
       y="484.95224"
       id="text31091-0"
       sodipodi:linespacing="100%"><tspan
         sodipodi:role="line"
         id="tspan31093-8"
         x="107.52364"
         y="484.95224"
         style="font-style:normal;font-variant:normal;font-weight:500;font-stretch:normal;font-size:24.63866615px;line-height:100%;font-family:Futura;-inkscape-font-specification:'Futura, Medium';text-align:center;writing-mode:lr-tb;text-anchor:middle">Nouveau </tspan><tspan
         sodipodi:role="line"
         x="107.52364"
         y="509.59091"
         style="font-style:normal;font-variant:normal;font-weight:500;font-stretch:normal;font-size:24.63866615px;line-height:100%;font-family:Futura;-inkscape-font-specification:'Futura, Medium';text-align:center;writing-mode:lr-tb;text-anchor:middle"
         id="tspan5292">volume </tspan></text>
    <text
       sodipodi:linespacing="100%"
       id="text5329"
       y="484.95224"
       x="103.72198"
       style="font-style:normal;font-variant:normal;font-weight:bold;font-stretch:normal;font-size:24.63906288px;line-height:100%;font-family:sans-serif;-inkscape-font-specification:'sans-serif, Bold';text-align:start;letter-spacing:0px;word-spacing:0px;writing-mode:lr-tb;text-anchor:start;display:inline;fill:#000000;fill-opacity:1;stroke:none;stroke-width:1px;stroke-linecap:butt;stroke-linejoin:miter;stroke-opacity:1"
       xml:space="preserve"><tspan
         style="font-style:normal;font-variant:normal;font-weight:500;font-stretch:normal;font-size:24.63866615px;line-height:100%;font-family:Futura;-inkscape-font-specification:'Futura, Medium';text-align:center;writing-mode:lr-tb;text-anchor:middle"
         y="484.95224"
         x="107.52364"
         id="tspan5331"
         sodipodi:role="line">Nouveau </tspan><tspan
         id="tspan5333"
         style="font-style:normal;font-variant:normal;font-weight:500;font-stretch:normal;font-size:24.63866615px;line-height:100%;font-family:Futura;-inkscape-font-specification:'Futura, Medium';text-align:center;writing-mode:lr-tb;text-anchor:middle"
         y="509.59091"
         x="107.52364"
         sodipodi:role="line">volume </tspan></text>
    <g
       style="display:inline"
       transform="translate(404.36999,-253.69544)"
       id="g11166-7">
      <g
         transform="translate(0,80)"
         id="g11168-4">
        <rect
           style="fill:none;fill-opacity:1;stroke:#000000;stroke-width:3;stroke-miterlimit:4;stroke-dasharray:none;stroke-dashoffset:0;stroke-opacity:1"
           id="rect11170-7"
           width="147.24557"
           height="140.14011"
           x="-373.34097"
           y="688.93738" />
        <g
           id="g11172-5"
           transform="translate(142.89284,4.47674)" />
        <rect
           y="704.05103"
           x="-350.40387"
           height="50.281006"
           width="101.59971"
           id="rect11176-6"
           style="fill:none;fill-opacity:1;stroke:#000000;stroke-width:2;stroke-miterlimit:4;stroke-dasharray:2, 2;stroke-dashoffset:0;stroke-opacity:1" />
      </g>
    </g>
    <rect
       style="display:inline;opacity:1;fill:#b743ff;fill-opacity:0.32923075;stroke:none;stroke-width:0.86979938;stroke-linecap:round;stroke-miterlimit:4;stroke-dasharray:none;stroke-dashoffset:0;stroke-opacity:1"
       id="rect6709"
       width="223.57591"
       height="799.16095"
       x="2.7633348"
       y="-1.2171128" />
    <path
       style="display:inline;fill:none;fill-rule:evenodd;stroke:#000000;stroke-width:2;stroke-linecap:butt;stroke-linejoin:miter;stroke-miterlimit:4;stroke-dasharray:2.0000001, 6.00000029;stroke-dashoffset:0;stroke-opacity:1"
       d="m 227.3036,45.517063 0,725.491557"
       id="path6884"
       inkscape:connector-curvature="0"
       sodipodi:nodetypes="cc" />
    <g
       style="display:inline"
       id="g6978"
       transform="translate(361.3946,-370.0055)">
      <ellipse
         style="display:inline;fill:none;stroke:#000000;stroke-width:1.88477826;stroke-miterlimit:4;stroke-dasharray:none;stroke-opacity:1"
         id="ellipse6980"
         cx="223.37137"
         cy="943.50159"
         ry="18.387955"
         rx="32.732471" />
      <text
         sodipodi:linespacing="100%"
         id="text6982"
         y="946.77368"
         x="203.05527"
         style="font-style:normal;font-variant:normal;font-weight:bold;font-stretch:normal;font-size:24.63906288px;line-height:100%;font-family:sans-serif;-inkscape-font-specification:'sans-serif, Bold';text-align:start;letter-spacing:0px;word-spacing:0px;writing-mode:lr-tb;text-anchor:start;fill:#000000;fill-opacity:1;stroke:none;stroke-width:1px;stroke-linecap:butt;stroke-linejoin:miter;stroke-opacity:1"
         xml:space="preserve"><tspan
           style="font-style:normal;font-variant:normal;font-weight:500;font-stretch:normal;font-family:Futura;-inkscape-font-specification:'Futura Medium'"
           y="946.77368"
           x="203.05527"
           id="tspan6984"
           sodipodi:role="line">s<tspan
   id="tspan6986"
   style="font-size:64.99999762%;baseline-shift:sub">new</tspan></tspan></text>
    </g>
    <text
       sodipodi:linespacing="100%"
       id="text6988"
       y="502.95224"
       x="583.72198"
       style="font-style:normal;font-variant:normal;font-weight:bold;font-stretch:normal;font-size:24.63906288px;line-height:100%;font-family:sans-serif;-inkscape-font-specification:'sans-serif, Bold';text-align:start;letter-spacing:0px;word-spacing:0px;writing-mode:lr-tb;text-anchor:start;display:inline;fill:#000000;fill-opacity:1;stroke:none;stroke-width:1px;stroke-linecap:butt;stroke-linejoin:miter;stroke-opacity:1"
       xml:space="preserve"><tspan
         style="font-style:normal;font-variant:normal;font-weight:500;font-stretch:normal;font-size:24.63866615px;line-height:100%;font-family:Futura;-inkscape-font-specification:'Futura, Medium';text-align:center;writing-mode:lr-tb;text-anchor:middle"
         y="502.95224"
         x="587.52368"
         id="tspan6990"
         sodipodi:role="line">Nouveau </tspan><tspan
         id="tspan6992"
         style="font-style:normal;font-variant:normal;font-weight:500;font-stretch:normal;font-size:24.63866615px;line-height:100%;font-family:Futura;-inkscape-font-specification:'Futura, Medium';text-align:center;writing-mode:lr-tb;text-anchor:middle"
         y="527.59088"
         x="587.52368"
         sodipodi:role="line">volume </tspan></text>
    <text
       xml:space="preserve"
       style="font-style:normal;font-variant:normal;font-weight:bold;font-stretch:normal;font-size:24.63906288px;line-height:100%;font-family:sans-serif;-inkscape-font-specification:'sans-serif, Bold';text-align:start;letter-spacing:0px;word-spacing:0px;writing-mode:lr-tb;text-anchor:start;display:inline;fill:#000000;fill-opacity:1;stroke:none;stroke-width:1px;stroke-linecap:butt;stroke-linejoin:miter;stroke-opacity:1"
       x="583.72198"
       y="502.95224"
       id="text6994"
       sodipodi:linespacing="100%"><tspan
         sodipodi:role="line"
         id="tspan6996"
         x="587.52368"
         y="502.95224"
         style="font-style:normal;font-variant:normal;font-weight:500;font-stretch:normal;font-size:24.63866615px;line-height:100%;font-family:Futura;-inkscape-font-specification:'Futura, Medium';text-align:center;writing-mode:lr-tb;text-anchor:middle">Nouveau </tspan><tspan
         sodipodi:role="line"
         x="587.52368"
         y="527.59088"
         style="font-style:normal;font-variant:normal;font-weight:500;font-stretch:normal;font-size:24.63866615px;line-height:100%;font-family:Futura;-inkscape-font-specification:'Futura, Medium';text-align:center;writing-mode:lr-tb;text-anchor:middle"
         id="tspan6998">volume </tspan></text>
    <g
       id="g7000"
       transform="translate(884.36999,-235.69544)"
       style="display:inline">
      <g
         id="g7002"
         transform="translate(0,80)">
        <rect
           y="688.93738"
           x="-373.34097"
           height="140.14011"
           width="147.24557"
           id="rect7004"
           style="fill:none;fill-opacity:1;stroke:#000000;stroke-width:3;stroke-miterlimit:4;stroke-dasharray:none;stroke-dashoffset:0;stroke-opacity:1" />
        <g
           transform="translate(142.89284,4.47674)"
           id="g7006" />
        <rect
           style="fill:none;fill-opacity:1;stroke:#000000;stroke-width:2;stroke-miterlimit:4;stroke-dasharray:2, 2;stroke-dashoffset:0;stroke-opacity:1"
           id="rect7008"
           width="101.59971"
           height="50.281006"
           x="-350.40387"
           y="704.05103" />
      </g>
    </g>
    <rect
       style="display:inline;opacity:1;fill:#94ff43;fill-opacity:0.32923075;stroke:none;stroke-width:0.86979938;stroke-linecap:round;stroke-miterlimit:4;stroke-dasharray:0.86979941, 0.86979941;stroke-dashoffset:0;stroke-opacity:1"
       id="rect6709-8-2"
       width="724.20752"
       height="799.16095"
       x="226.79488"
       y="0.19709168" />
    <path
       style="display:inline;fill:none;fill-rule:evenodd;stroke:#eb8a00;stroke-width:2.29999995;stroke-linecap:butt;stroke-linejoin:miter;stroke-miterlimit:4;stroke-dasharray:none;stroke-opacity:1"
       d="M 134.49235,553.32419 212.56764,407.58423"
       id="path5319"
       inkscape:connector-curvature="0"
       sodipodi:nodetypes="cc" />
    <path
       style="display:inline;fill:none;fill-rule:evenodd;stroke:#eb8a00;stroke-width:2.29999995;stroke-linecap:butt;stroke-linejoin:miter;stroke-miterlimit:4;stroke-dasharray:none;stroke-opacity:1"
       d="M 134.49235,553.32419 212.1699,666.85111"
       id="path5321"
       inkscape:connector-curvature="0"
       sodipodi:nodetypes="cc" />
    <text
       xml:space="preserve"
       style="font-style:normal;font-variant:normal;font-weight:bold;font-stretch:normal;font-size:14.28822517px;line-height:100%;font-family:sans-serif;-inkscape-font-specification:'sans-serif, Bold';text-align:start;letter-spacing:0px;word-spacing:0px;writing-mode:lr-tb;text-anchor:start;display:inline;fill:#eb8a00;fill-opacity:1;stroke:none;stroke-width:1px;stroke-linecap:butt;stroke-linejoin:miter;stroke-opacity:1"
       x="110.3782"
       y="310.19034"
       id="text5362"
       sodipodi:linespacing="100%"><tspan
         sodipodi:role="line"
         x="110.3782"
         y="310.19034"
         style="font-style:normal;font-variant:normal;font-weight:500;font-stretch:normal;font-size:14.28799438px;line-height:100%;font-family:Futura;-inkscape-font-specification:'Futura, Medium';text-align:center;writing-mode:lr-tb;text-anchor:middle;fill:#eb8a00;fill-opacity:1;stroke:none;stroke-opacity:1"
         id="tspan5366">t(lemme(s<tspan
   style="font-size:9.28719616px;baseline-shift:sub;fill:#eb8a00;fill-opacity:1;stroke:none;stroke-opacity:1"
   id="tspan5394">new</tspan>), lang(Volume 1))</tspan></text>
    <path
       sodipodi:nodetypes="cc"
       inkscape:connector-curvature="0"
       id="path5702"
       d="M 134.49235,553.32419 242.8641,242.55984"
       style="display:inline;fill:none;fill-rule:evenodd;stroke:#eb8a00;stroke-width:2.29999995;stroke-linecap:butt;stroke-linejoin:miter;stroke-miterlimit:4;stroke-dasharray:none;stroke-opacity:1" />
    <text
       xml:space="preserve"
       style="font-style:normal;font-variant:normal;font-weight:bold;font-stretch:normal;font-size:14.28822517px;line-height:100%;font-family:sans-serif;-inkscape-font-specification:'sans-serif, Bold';text-align:start;letter-spacing:0px;word-spacing:0px;writing-mode:lr-tb;text-anchor:start;display:inline;fill:#eb8a00;fill-opacity:1;stroke:none;stroke-width:1px;stroke-linecap:butt;stroke-linejoin:miter;stroke-opacity:1"
       x="651.78455"
       y="422.48804"
       id="text5362-1"
       sodipodi:linespacing="100%"><tspan
         sodipodi:role="line"
         x="651.78455"
         y="422.48804"
         style="font-style:normal;font-variant:normal;font-weight:500;font-stretch:normal;font-size:14.28799438px;line-height:100%;font-family:Futura;-inkscape-font-specification:'Futura, Medium';text-align:center;writing-mode:lr-tb;text-anchor:middle;fill:#eb8a00;fill-opacity:1;stroke:none;stroke-opacity:1"
         id="tspan5366-8">t(lemme(parent(s<tspan
   style="font-size:9.28719616px;baseline-shift:sub;fill:#eb8a00;fill-opacity:1;stroke:none;stroke-opacity:1"
   id="tspan5394-8">3</tspan>)), lang(Nouv. vol.))</tspan></text>
    <g
       style="display:inline"
       id="g6581"
       transform="rotate(52.755662,637.26494,506.92083)">
      <path
         sodipodi:nodetypes="cc"
         inkscape:connector-curvature="0"
         id="path5319-5"
         d="M 245.44831,592.74205 405.18068,521.3191"
         style="fill:none;fill-rule:evenodd;stroke:#eb8a00;stroke-width:2.29999995;stroke-linecap:butt;stroke-linejoin:miter;stroke-miterlimit:4;stroke-dasharray:none;stroke-opacity:1" />
      <path
         sodipodi:nodetypes="cc"
         inkscape:connector-curvature="0"
         id="path5321-1"
         d="m 245.44831,592.74205 380.90272,19.71278"
         style="fill:none;fill-rule:evenodd;stroke:#eb8a00;stroke-width:2.29999995;stroke-linecap:butt;stroke-linejoin:miter;stroke-miterlimit:4;stroke-dasharray:none;stroke-opacity:1" />
      <path
         style="fill:none;fill-rule:evenodd;stroke:#eb8a00;stroke-width:2.29999995;stroke-linecap:butt;stroke-linejoin:miter;stroke-miterlimit:4;stroke-dasharray:none;stroke-opacity:1"
         d="M 245.44831,592.74205 395.18793,467.9093"
         id="path5702-0"
         inkscape:connector-curvature="0"
         sodipodi:nodetypes="cc" />
    </g>
    <path
       sodipodi:nodetypes="cc"
       inkscape:connector-curvature="0"
       id="path5802"
       d="M 614.62067,559.363 C 691.82235,454.928 663.08363,236.66344 586.76121,137.52242"
       style="display:inline;fill:none;fill-rule:evenodd;stroke:#eb8a00;stroke-width:2.29999995;stroke-linecap:butt;stroke-linejoin:miter;stroke-miterlimit:4;stroke-dasharray:none;stroke-opacity:1" />
    <text
       sodipodi:linespacing="100%"
       id="text5804"
       y="452.2312"
       x="477.21222"
       style="font-style:normal;font-variant:normal;font-weight:bold;font-stretch:normal;font-size:14.28822517px;line-height:100%;font-family:sans-serif;-inkscape-font-specification:'sans-serif, Bold';text-align:start;letter-spacing:0px;word-spacing:0px;writing-mode:lr-tb;text-anchor:start;display:inline;fill:#eb8a00;fill-opacity:1;stroke:none;stroke-width:1px;stroke-linecap:butt;stroke-linejoin:miter;stroke-opacity:1"
       xml:space="preserve"><tspan
         id="tspan5806"
         style="font-style:normal;font-variant:normal;font-weight:500;font-stretch:normal;font-size:14.28799438px;line-height:100%;font-family:Futura;-inkscape-font-specification:'Futura, Medium';text-align:center;writing-mode:lr-tb;text-anchor:middle;fill:#eb8a00;fill-opacity:1;stroke:none;stroke-opacity:1"
         y="452.2312"
         x="477.21222"
         sodipodi:role="line">t(lemme(s<tspan
   id="tspan5808"
   style="font-size:9.28719616px;baseline-shift:sub;fill:#eb8a00;fill-opacity:1;stroke:none;stroke-opacity:1">new</tspan>), lang(Volume 5))</tspan></text>
    <path
       style="display:inline;fill:none;fill-rule:evenodd;stroke:#eb8a00;stroke-width:2.29999995;stroke-linecap:butt;stroke-linejoin:miter;stroke-miterlimit:4;stroke-dasharray:none;stroke-opacity:1"
       d="M 895.103,404.13747 1137.2271,303.65234"
       id="path5319-4"
       inkscape:connector-curvature="0"
       sodipodi:nodetypes="cc" />
    <path
       style="display:inline;fill:none;fill-rule:evenodd;stroke:#eb8a00;stroke-width:2.29999995;stroke-linecap:butt;stroke-linejoin:miter;stroke-miterlimit:4;stroke-dasharray:none;stroke-opacity:1"
       d="M 895.103,404.13747 1033.2435,559.2969"
       id="path5321-6"
       inkscape:connector-curvature="0"
       sodipodi:nodetypes="cc" />
    <text
       xml:space="preserve"
       style="font-style:normal;font-variant:normal;font-weight:bold;font-stretch:normal;font-size:14.28822517px;line-height:100%;font-family:sans-serif;-inkscape-font-specification:'sans-serif, Bold';text-align:start;letter-spacing:0px;word-spacing:0px;writing-mode:lr-tb;text-anchor:start;display:inline;fill:#eb8a00;fill-opacity:1;stroke:none;stroke-width:1px;stroke-linecap:butt;stroke-linejoin:miter;stroke-opacity:1"
       x="1040.6946"
       y="400.00568"
       id="text5362-0"
       sodipodi:linespacing="100%"><tspan
         sodipodi:role="line"
         x="1040.6946"
         y="400.00568"
         style="font-style:normal;font-variant:normal;font-weight:500;font-stretch:normal;font-size:14.28799438px;line-height:100%;font-family:Futura;-inkscape-font-specification:'Futura, Medium';text-align:center;writing-mode:lr-tb;text-anchor:middle;fill:#eb8a00;fill-opacity:1;stroke:none;stroke-opacity:1"
         id="tspan5366-5">t(lemme(s<tspan
   style="font-size:9.28719616px;baseline-shift:sub;fill:#eb8a00;fill-opacity:1;stroke:none;stroke-opacity:1"
   id="tspan5394-7">4</tspan>), lang(Nouv. vol.))</tspan></text>
    <path
       sodipodi:nodetypes="cc"
       inkscape:connector-curvature="0"
       id="path5702-4"
       d="M 895.103,404.13747 1098.2271,220.65234"
       style="display:inline;fill:none;fill-rule:evenodd;stroke:#eb8a00;stroke-width:2.29999995;stroke-linecap:butt;stroke-linejoin:miter;stroke-miterlimit:4;stroke-dasharray:none;stroke-opacity:1" />
  </g>
  <g
     inkscape:groupmode="layer"
     id="layer5"
     inkscape:label="Step 3"
     style="display:inline" />
  <g
     inkscape:groupmode="layer"
     id="layer6"
     inkscape:label="Step 4"
     style="display:none">
    <path
       style="display:inline;fill:none;fill-rule:evenodd;stroke:#0036e8;stroke-width:1px;stroke-linecap:butt;stroke-linejoin:miter;stroke-opacity:1"
       d="M 619.83528,566.73232 C 715.33124,463.06565 605.79997,141.30859 837.95299,131.64192"
       id="path6664"
       inkscape:connector-curvature="0"
       sodipodi:nodetypes="cc" />
    <path
       sodipodi:nodetypes="cc"
       inkscape:connector-curvature="0"
       id="path6666"
       d="M 619.83528,568.14654 C 693.26065,454.18026 545.96891,213.72076 558.95303,135.64192"
       style="display:inline;fill:none;fill-rule:evenodd;stroke:#0036e8;stroke-width:1px;stroke-linecap:butt;stroke-linejoin:miter;stroke-opacity:1" />
    <path
       sodipodi:nodetypes="cc"
       inkscape:connector-curvature="0"
       id="path6668"
       d="m 621.24949,566.73232 c 95.49596,-103.66667 77.5505,-214.42373 210.7035,-170.0904"
       style="display:inline;fill:none;fill-rule:evenodd;stroke:#0036e8;stroke-width:1px;stroke-linecap:butt;stroke-linejoin:miter;stroke-opacity:1" />
    <text
       sodipodi:linespacing="100%"
       id="text6670"
       y="310.64005"
       x="494.69662"
       style="font-style:normal;font-variant:normal;font-weight:bold;font-stretch:normal;font-size:24.63906288px;line-height:100%;font-family:sans-serif;-inkscape-font-specification:'sans-serif, Bold';text-align:start;letter-spacing:0px;word-spacing:0px;writing-mode:lr-tb;text-anchor:start;display:inline;fill:#0036e8;fill-opacity:1;stroke:none;stroke-width:1px;stroke-linecap:butt;stroke-linejoin:miter;stroke-opacity:1"
       xml:space="preserve"><tspan
         id="tspan6672"
         style="font-style:normal;font-variant:normal;font-weight:500;font-stretch:normal;font-size:24.63866615px;line-height:100%;font-family:Futura;-inkscape-font-specification:'Futura, Medium';text-align:center;writing-mode:lr-tb;text-anchor:middle;fill:#0036e8;fill-opacity:1"
         y="310.64005"
         x="494.69662"
         sodipodi:role="line">sim(s<tspan
   style="font-size:64.99999762%;baseline-shift:sub;fill:#0036e8;fill-opacity:1"
   id="tspan6676">new</tspan>,s<tspan
   style="font-size:64.99999762%;baseline-shift:sub;fill:#0036e8;fill-opacity:1"
   id="tspan6674">3</tspan>)=0.89</tspan></text>
    <text
       xml:space="preserve"
       style="font-style:normal;font-variant:normal;font-weight:bold;font-stretch:normal;font-size:24.63906288px;line-height:100%;font-family:sans-serif;-inkscape-font-specification:'sans-serif, Bold';text-align:start;letter-spacing:0px;word-spacing:0px;writing-mode:lr-tb;text-anchor:start;display:inline;fill:#0036e8;fill-opacity:1;stroke:none;stroke-width:1px;stroke-linecap:butt;stroke-linejoin:miter;stroke-opacity:1"
       x="712.55457"
       y="308.15475"
       id="text6678"
       sodipodi:linespacing="100%"><tspan
         sodipodi:role="line"
         x="712.55457"
         y="308.15475"
         style="font-style:normal;font-variant:normal;font-weight:500;font-stretch:normal;font-size:24.63866615px;line-height:100%;font-family:Futura;-inkscape-font-specification:'Futura, Medium';text-align:center;writing-mode:lr-tb;text-anchor:middle;fill:#0036e8;fill-opacity:1"
         id="tspan6680">sim(s<tspan
   id="tspan6682"
   style="font-size:64.99999762%;baseline-shift:sub;fill:#0036e8;fill-opacity:1">new</tspan>,s<tspan
   id="tspan6684"
   style="font-size:64.99999762%;baseline-shift:sub;fill:#0036e8;fill-opacity:1">4</tspan>)=0.42</tspan></text>
    <text
       sodipodi:linespacing="100%"
       id="text6686"
       y="511.59335"
       x="768.19415"
       style="font-style:normal;font-variant:normal;font-weight:bold;font-stretch:normal;font-size:24.63906288px;line-height:100%;font-family:sans-serif;-inkscape-font-specification:'sans-serif, Bold';text-align:start;letter-spacing:0px;word-spacing:0px;writing-mode:lr-tb;text-anchor:start;display:inline;fill:#0036e8;fill-opacity:1;stroke:none;stroke-width:1px;stroke-linecap:butt;stroke-linejoin:miter;stroke-opacity:1"
       xml:space="preserve"><tspan
         id="tspan6688"
         style="font-style:normal;font-variant:normal;font-weight:500;font-stretch:normal;font-size:24.63866615px;line-height:100%;font-family:Futura;-inkscape-font-specification:'Futura, Medium';text-align:center;writing-mode:lr-tb;text-anchor:middle;fill:#0036e8;fill-opacity:1"
         y="511.59335"
         x="768.19415"
         sodipodi:role="line">sim(s<tspan
   style="font-size:64.99999762%;baseline-shift:sub;fill:#0036e8;fill-opacity:1"
   id="tspan6690">new</tspan>,s<tspan
   style="font-size:64.99999762%;baseline-shift:sub;fill:#0036e8;fill-opacity:1"
   id="tspan6692">4</tspan>)=0.21</tspan></text>
    <g
       style="display:inline"
       id="g6978-8"
       transform="translate(362.22721,-371.03494)">
      <ellipse
         style="display:inline;fill:none;stroke:#000000;stroke-width:1.88477826;stroke-miterlimit:4;stroke-dasharray:none;stroke-opacity:1"
         id="ellipse6980-7"
         cx="223.37137"
         cy="943.50159"
         ry="18.387955"
         rx="32.732471" />
      <text
         sodipodi:linespacing="100%"
         id="text6982-3"
         y="946.77368"
         x="203.05527"
         style="font-style:normal;font-variant:normal;font-weight:bold;font-stretch:normal;font-size:24.63906288px;line-height:100%;font-family:sans-serif;-inkscape-font-specification:'sans-serif, Bold';text-align:start;letter-spacing:0px;word-spacing:0px;writing-mode:lr-tb;text-anchor:start;fill:#000000;fill-opacity:1;stroke:none;stroke-width:1px;stroke-linecap:butt;stroke-linejoin:miter;stroke-opacity:1"
         xml:space="preserve"><tspan
           style="font-style:normal;font-variant:normal;font-weight:500;font-stretch:normal;font-family:Futura;-inkscape-font-specification:'Futura Medium'"
           y="946.77368"
           x="203.05527"
           id="tspan6984-3"
           sodipodi:role="line">s<tspan
   id="tspan6986-3"
   style="font-size:64.99999762%;baseline-shift:sub">new</tspan></tspan></text>
    </g>
    <text
       sodipodi:linespacing="100%"
       id="text6988-3"
       y="501.92279"
       x="584.55463"
       style="font-style:normal;font-variant:normal;font-weight:bold;font-stretch:normal;font-size:24.63906288px;line-height:100%;font-family:sans-serif;-inkscape-font-specification:'sans-serif, Bold';text-align:start;letter-spacing:0px;word-spacing:0px;writing-mode:lr-tb;text-anchor:start;display:inline;fill:#000000;fill-opacity:1;stroke:none;stroke-width:1px;stroke-linecap:butt;stroke-linejoin:miter;stroke-opacity:1"
       xml:space="preserve"><tspan
         style="font-style:normal;font-variant:normal;font-weight:500;font-stretch:normal;font-size:24.63866615px;line-height:100%;font-family:Futura;-inkscape-font-specification:'Futura, Medium';text-align:center;writing-mode:lr-tb;text-anchor:middle"
         y="501.92279"
         x="588.35632"
         id="tspan6990-7"
         sodipodi:role="line">Nouveau </tspan><tspan
         id="tspan6992-4"
         style="font-style:normal;font-variant:normal;font-weight:500;font-stretch:normal;font-size:24.63866615px;line-height:100%;font-family:Futura;-inkscape-font-specification:'Futura, Medium';text-align:center;writing-mode:lr-tb;text-anchor:middle"
         y="526.56146"
         x="588.35632"
         sodipodi:role="line">volume </tspan></text>
    <text
       xml:space="preserve"
       style="font-style:normal;font-variant:normal;font-weight:bold;font-stretch:normal;font-size:24.63906288px;line-height:100%;font-family:sans-serif;-inkscape-font-specification:'sans-serif, Bold';text-align:start;letter-spacing:0px;word-spacing:0px;writing-mode:lr-tb;text-anchor:start;display:inline;fill:#000000;fill-opacity:1;stroke:none;stroke-width:1px;stroke-linecap:butt;stroke-linejoin:miter;stroke-opacity:1"
       x="584.55463"
       y="501.92279"
       id="text6994-1"
       sodipodi:linespacing="100%"><tspan
         sodipodi:role="line"
         id="tspan6996-7"
         x="588.35632"
         y="501.92279"
         style="font-style:normal;font-variant:normal;font-weight:500;font-stretch:normal;font-size:24.63866615px;line-height:100%;font-family:Futura;-inkscape-font-specification:'Futura, Medium';text-align:center;writing-mode:lr-tb;text-anchor:middle">Nouveau </tspan><tspan
         sodipodi:role="line"
         x="588.35632"
         y="526.56146"
         style="font-style:normal;font-variant:normal;font-weight:500;font-stretch:normal;font-size:24.63866615px;line-height:100%;font-family:Futura;-inkscape-font-specification:'Futura, Medium';text-align:center;writing-mode:lr-tb;text-anchor:middle"
         id="tspan6998-9">volume </tspan></text>
    <g
       id="g7000-0"
       transform="translate(885.2026,-236.72488)"
       style="display:inline">
      <g
         id="g7002-7"
         transform="translate(0,80)">
        <rect
           y="688.93738"
           x="-373.34097"
           height="140.14011"
           width="147.24557"
           id="rect7004-1"
           style="fill:none;fill-opacity:1;stroke:#000000;stroke-width:3;stroke-miterlimit:4;stroke-dasharray:none;stroke-dashoffset:0;stroke-opacity:1" />
        <g
           transform="translate(142.89284,4.47674)"
           id="g7006-6" />
        <rect
           style="fill:none;fill-opacity:1;stroke:#000000;stroke-width:2;stroke-miterlimit:4;stroke-dasharray:2, 2;stroke-dashoffset:0;stroke-opacity:1"
           id="rect7008-0"
           width="101.59971"
           height="50.281006"
           x="-350.40387"
           y="704.05103" />
      </g>
    </g>
  </g>
</svg>
