<?xml version="1.0" encoding="UTF-8" standalone="no"?>
<!-- Created with Inkscape (http://www.inkscape.org/) -->

<svg
   xmlns:dc="http://purl.org/dc/elements/1.1/"
   xmlns:cc="http://creativecommons.org/ns#"
   xmlns:rdf="http://www.w3.org/1999/02/22-rdf-syntax-ns#"
   xmlns:svg="http://www.w3.org/2000/svg"
   xmlns="http://www.w3.org/2000/svg"
   xmlns:sodipodi="http://sodipodi.sourceforge.net/DTD/sodipodi-0.dtd"
   xmlns:inkscape="http://www.inkscape.org/namespaces/inkscape"
   width="724"
   height="545.70154"
   id="svg3073"
   version="1.1"
   inkscape:version="0.91+devel+osxmenu r12876"
   sodipodi:docname="recdissect2.svg">
  <defs
     id="defs3075" />
  <sodipodi:namedview
     id="base"
     pagecolor="#ffffff"
     bordercolor="#666666"
     borderopacity="1.0"
     inkscape:pageopacity="0.0"
     inkscape:pageshadow="2"
     inkscape:zoom="1"
     inkscape:cx="297.91403"
     inkscape:cy="261.92706"
     inkscape:document-units="px"
     inkscape:current-layer="layer1"
     showgrid="false"
     inkscape:window-width="1375"
     inkscape:window-height="1151"
     inkscape:window-x="420"
     inkscape:window-y="535"
     inkscape:window-maximized="0"
     showguides="true"
     inkscape:guide-bbox="true"
     fit-margin-top="0"
     fit-margin-left="0"
     fit-margin-right="0"
     fit-margin-bottom="0"
     inkscape:snap-bbox="true"
     inkscape:bbox-paths="true"
     inkscape:bbox-nodes="true"
     inkscape:snap-bbox-edge-midpoints="true"
     inkscape:snap-bbox-midpoints="true"
     inkscape:snap-global="false"
     inkscape:object-paths="true"
     inkscape:snap-intersection-paths="true"
     inkscape:object-nodes="true"
     inkscape:snap-smooth-nodes="true"
     inkscape:snap-midpoints="true"
     inkscape:snap-object-midpoints="true"
     inkscape:snap-text-baseline="true"
     inkscape:snap-center="true"
     inkscape:snap-page="false"
     inkscape:snap-grids="false">
    <inkscape:grid
       type="xygrid"
       id="grid3081"
       originx="430.97873px"
       originy="92.367024px" />
    <sodipodi:guide
       position="-207.3876,131.61097"
       orientation="1,0"
       id="guide32540" />
    <sodipodi:guide
       position="277.09544,272.94328"
       orientation="0,1"
       id="guide32552" />
    <sodipodi:guide
       position="731.13776,-23.999926"
       orientation="1,0"
       id="guide11111" />
    <sodipodi:guide
       position="419.13776,510.00008"
       orientation="1,0"
       id="guide11129" />
  </sodipodi:namedview>
  <metadata
     id="metadata3078">
    <rdf:RDF>
      <cc:Work
         rdf:about="">
        <dc:format>image/svg+xml</dc:format>
        <dc:type
           rdf:resource="http://purl.org/dc/dcmitype/StillImage" />
        <dc:title></dc:title>
      </cc:Work>
    </rdf:RDF>
  </metadata>
  <g
     inkscape:groupmode="layer"
     id="layer2"
     inkscape:label="Refinement"
     style="display:inline"
     transform="translate(-189.61447,-180.42852)" />
  <g
     inkscape:label="Base"
     inkscape:groupmode="layer"
     id="layer1"
     transform="translate(430.97873,-599.02755)">
    <text
       xml:space="preserve"
       style="font-style:normal;font-variant:normal;font-weight:normal;font-stretch:normal;font-size:32px;line-height:125%;font-family:'Segoe UI';-inkscape-font-specification:'Segoe UI';letter-spacing:0px;word-spacing:0px;fill:#000000;fill-opacity:1;stroke:none"
       x="434.83554"
       y="69.583588"
       id="text3087"
       sodipodi:linespacing="125%"><tspan
         sodipodi:role="line"
         id="tspan3089"
         x="434.83554"
         y="69.583588" /></text>
    <text
       xml:space="preserve"
       style="font-style:normal;font-variant:normal;font-weight:normal;font-stretch:normal;font-size:32px;line-height:125%;font-family:'Segoe UI';-inkscape-font-specification:'Segoe UI';letter-spacing:0px;word-spacing:0px;fill:#000000;fill-opacity:1;stroke:none"
       x="519.03778"
       y="143.73184"
       id="text3091"
       sodipodi:linespacing="125%"><tspan
         sodipodi:role="line"
         id="tspan3093"
         x="519.03778"
         y="143.73184" /></text>
    <text
       xml:space="preserve"
       style="font-style:normal;font-variant:normal;font-weight:normal;font-stretch:normal;font-size:32px;line-height:125%;font-family:'Segoe UI';-inkscape-font-specification:'Segoe UI';letter-spacing:0px;word-spacing:0px;fill:#000000;fill-opacity:1;stroke:none"
       x="389.59253"
       y="236.73135"
       id="text3095"
       sodipodi:linespacing="125%"><tspan
         sodipodi:role="line"
         id="tspan3097"
         x="389.59253"
         y="236.73135" /></text>
    <g
       id="g31108"
       transform="translate(-3.993728,-86.39519)" />
    <g
       transform="translate(-5.107162,-41.52326)"
       id="g31122" />
    <g
       transform="translate(-3.993728,197.60481)"
       id="g31138" />
    <g
       transform="matrix(0.22360217,0,0,0.22360217,248.11689,838.00439)"
       style="opacity:0.95"
       id="layer1-94"
       inkscape:label="Layer 1">
      <g
         id="g25966"
         transform="matrix(0.35277776,0,0,-0.35277778,-308.16776,-250.06674)" />
    </g>
    <rect
       y="672.73145"
       x="144.65903"
       height="143.69473"
       width="147.24557"
       id="rect11158"
       style="fill:none;fill-opacity:1;stroke:#000000;stroke-width:3;stroke-miterlimit:4;stroke-dasharray:none;stroke-dashoffset:0;stroke-opacity:1" />
    <g
       transform="translate(660.89284,50.47674)"
       id="g11160">
      <ellipse
         rx="32.732471"
         ry="18.387955"
         cy="726.78784"
         cx="-442.02335"
         id="ellipse11162"
         style="fill:none;stroke:#000000;stroke-width:1.88477826;stroke-miterlimit:4;stroke-dasharray:none;stroke-opacity:1" />
    </g>
    <rect
       style="fill:none;fill-opacity:1;stroke:#000000;stroke-width:2;stroke-miterlimit:4;stroke-dasharray:2, 2;stroke-dashoffset:0;stroke-opacity:1"
       id="rect11164"
       width="101.59971"
       height="50.281006"
       x="167.59613"
       y="750.05103" />
    <g
       id="g11178"
       transform="translate(660.89284,-13.52326)">
      <ellipse
         style="fill:none;stroke:#000000;stroke-width:1.88477826;stroke-miterlimit:4;stroke-dasharray:none;stroke-opacity:1"
         id="ellipse11180"
         cx="-442.02335"
         cy="726.78784"
         ry="18.387955"
         rx="32.732471" />
    </g>
    <rect
       y="686.05103"
       x="167.59613"
       height="50.281006"
       width="101.59971"
       id="rect11182"
       style="fill:none;fill-opacity:1;stroke:#000000;stroke-width:2;stroke-miterlimit:4;stroke-dasharray:2, 2;stroke-dashoffset:0;stroke-opacity:1" />
    <g
       id="g11191"
       transform="translate(660.89284,314.47674)">
      <ellipse
         style="fill:none;stroke:#000000;stroke-width:1.88477826;stroke-miterlimit:4;stroke-dasharray:none;stroke-opacity:1"
         id="ellipse11193"
         cx="-442.02335"
         cy="726.78784"
         ry="18.387955"
         rx="32.732471" />
    </g>
    <rect
       y="1014.051"
       x="167.59613"
       height="50.281006"
       width="101.59971"
       id="rect11195"
       style="fill:none;fill-opacity:1;stroke:#000000;stroke-width:2;stroke-miterlimit:4;stroke-dasharray:2, 2;stroke-dashoffset:0;stroke-opacity:1" />
    <g
       transform="translate(518,168)"
       id="g11166">
      <g
         transform="translate(0,80)"
         id="g11168">
        <rect
           style="fill:none;fill-opacity:1;stroke:#000000;stroke-width:3;stroke-miterlimit:4;stroke-dasharray:none;stroke-dashoffset:0;stroke-opacity:1"
           id="rect11170"
           width="147.24557"
           height="140.14011"
           x="-373.34097"
           y="688.93738" />
        <g
           id="g11172"
           transform="translate(142.89284,4.47674)">
          <ellipse
             style="fill:none;stroke:#000000;stroke-width:1.88477826;stroke-miterlimit:4;stroke-dasharray:none;stroke-opacity:1"
             id="ellipse11174"
             cx="-442.02335"
             cy="726.78784"
             ry="18.387955"
             rx="32.732471" />
        </g>
        <rect
           y="704.05103"
           x="-350.40387"
           height="50.281006"
           width="101.59971"
           id="rect11176"
           style="fill:none;fill-opacity:1;stroke:#000000;stroke-width:2;stroke-miterlimit:4;stroke-dasharray:2, 2;stroke-dashoffset:0;stroke-opacity:1" />
      </g>
    </g>
    <g
       id="g11466"
       transform="translate(219.48354,-132.40983)">
      <g
         id="g11468"
         transform="translate(0,80)">
        <rect
           y="652.93738"
           x="-383.34097"
           height="135.69681"
           width="147.24557"
           id="rect11470"
           style="fill:none;fill-opacity:1;stroke:#000000;stroke-width:3;stroke-miterlimit:4;stroke-dasharray:none;stroke-dashoffset:0;stroke-opacity:1" />
        <g
           transform="translate(132.89284,-31.52326)"
           id="g11472">
          <ellipse
             rx="32.732471"
             ry="18.387955"
             cy="726.78784"
             cx="-442.02335"
             id="ellipse11474"
             style="fill:none;stroke:#000000;stroke-width:1.88477826;stroke-miterlimit:4;stroke-dasharray:none;stroke-opacity:1" />
        </g>
        <rect
           style="fill:none;fill-opacity:1;stroke:#000000;stroke-width:2;stroke-miterlimit:4;stroke-dasharray:2, 2;stroke-dashoffset:0;stroke-opacity:1"
           id="rect11476"
           width="101.59971"
           height="50.281006"
           x="-360.40387"
           y="668.05103" />
        <g
           id="g11480"
           transform="translate(132.89284,28.47674)">
          <ellipse
             style="fill:none;stroke:#000000;stroke-width:1.88477826;stroke-miterlimit:4;stroke-dasharray:none;stroke-opacity:1"
             id="ellipse11482"
             cx="-442.02335"
             cy="726.78784"
             ry="18.387955"
             rx="32.732471" />
        </g>
        <rect
           y="728.05103"
           x="-360.40387"
           height="50.281006"
           width="101.59971"
           id="rect11484"
           style="fill:none;fill-opacity:1;stroke:#000000;stroke-width:2;stroke-miterlimit:4;stroke-dasharray:2, 2;stroke-dashoffset:0;stroke-opacity:1" />
        <rect
           style="fill:none;fill-opacity:1;stroke:#000000;stroke-width:3;stroke-miterlimit:4;stroke-dasharray:none;stroke-dashoffset:0;stroke-opacity:1"
           id="rect11490"
           width="147.24557"
           height="135.69681"
           x="-380.67502"
           y="1059.9421" />
        <g
           id="g11492"
           transform="translate(135.55881,375.48145)">
          <ellipse
             style="fill:none;stroke:#000000;stroke-width:1.88477826;stroke-miterlimit:4;stroke-dasharray:none;stroke-opacity:1"
             id="ellipse11494"
             cx="-442.02335"
             cy="726.78784"
             ry="18.387955"
             rx="32.732471" />
        </g>
        <rect
           y="1075.0558"
           x="-357.73792"
           height="50.281006"
           width="101.59971"
           id="rect11496"
           style="fill:none;fill-opacity:1;stroke:#000000;stroke-width:2;stroke-miterlimit:4;stroke-dasharray:2, 2;stroke-dashoffset:0;stroke-opacity:1" />
        <g
           transform="translate(135.55881,435.48145)"
           id="g11498">
          <ellipse
             rx="32.732471"
             ry="18.387955"
             cy="726.78784"
             cx="-442.02335"
             id="ellipse11500"
             style="fill:none;stroke:#000000;stroke-width:1.88477826;stroke-miterlimit:4;stroke-dasharray:none;stroke-opacity:1" />
        </g>
        <rect
           style="fill:none;fill-opacity:1;stroke:#000000;stroke-width:2;stroke-miterlimit:4;stroke-dasharray:2, 2;stroke-dashoffset:0;stroke-opacity:1"
           id="rect11502"
           width="101.59971"
           height="50.281006"
           x="-357.73792"
           y="1135.0558" />
      </g>
    </g>
    <path
       sodipodi:nodetypes="cc"
       inkscape:connector-curvature="0"
       id="path16633"
       d="M 186.66597,710.36463 -56.914495,642.85475"
       style="fill:none;fill-rule:evenodd;stroke:#007115;stroke-width:2;stroke-linecap:round;stroke-linejoin:miter;stroke-miterlimit:4;stroke-dasharray:4, 4;stroke-dashoffset:0;stroke-opacity:1" />
    <path
       style="fill:none;fill-rule:evenodd;stroke:#ff2bfd;stroke-width:2;stroke-linecap:round;stroke-linejoin:miter;stroke-miterlimit:4;stroke-dasharray:4, 4;stroke-dashoffset:0;stroke-opacity:1"
       d="M 185.16163,976.34009 -56.914495,642.85475"
       id="path16635"
       inkscape:connector-curvature="0"
       sodipodi:nodetypes="cc" />
    <path
       sodipodi:nodetypes="cc"
       inkscape:connector-curvature="0"
       id="path16637"
       d="M 185.16163,976.34009 -54.248525,1049.8595"
       style="fill:none;fill-rule:evenodd;stroke:#ff2bfd;stroke-width:2;stroke-linecap:round;stroke-linejoin:miter;stroke-miterlimit:4;stroke-dasharray:4, 4;stroke-dashoffset:0;stroke-opacity:1" />
    <path
       style="fill:none;fill-rule:evenodd;stroke:#007115;stroke-width:2;stroke-linecap:round;stroke-linejoin:miter;stroke-miterlimit:4;stroke-dasharray:4, 4;stroke-dashoffset:0;stroke-opacity:1"
       d="M 186.66597,710.36463 -54.248525,1049.8595"
       id="path16639"
       inkscape:connector-curvature="0"
       sodipodi:nodetypes="cc" />
    <path
       sodipodi:nodetypes="cc"
       inkscape:connector-curvature="0"
       id="path16641"
       d="m -119.71347,1049.8595 c -43.84122,-185.38487 -32.61584,-298.34437 -2.66597,-407.00475"
       style="fill:none;fill-rule:evenodd;stroke:#007115;stroke-width:2;stroke-linecap:round;stroke-linejoin:miter;stroke-miterlimit:4;stroke-dasharray:4, 4;stroke-dashoffset:0;stroke-opacity:1" />
    <path
       style="fill:none;fill-rule:evenodd;stroke:#ff2bfd;stroke-width:2;stroke-linecap:round;stroke-linejoin:miter;stroke-miterlimit:4;stroke-dasharray:4, 4;stroke-dashoffset:0;stroke-opacity:1"
       d="m -119.71347,1049.8595 c -35.38656,-196.65742 -32.58661,-298.82231 -2.66597,-407.00475"
       id="path16643"
       inkscape:connector-curvature="0"
       sodipodi:nodetypes="cc" />
    <text
       sodipodi:linespacing="100%"
       id="text16667"
       y="1129.1703"
       x="-121.3613"
       style="font-style:normal;font-variant:normal;font-weight:bold;font-stretch:normal;font-size:26.64898491px;line-height:100%;font-family:sans-serif;-inkscape-font-specification:'sans-serif, Bold';text-align:end;letter-spacing:0px;word-spacing:0px;writing-mode:lr-tb;text-anchor:end;fill:#ff0000;fill-opacity:1;stroke:none;stroke-width:1px;stroke-linecap:butt;stroke-linejoin:miter;stroke-opacity:1"
       xml:space="preserve"><tspan
         style="font-style:normal;font-variant:normal;font-weight:500;font-stretch:normal;font-size:26.64898491px;line-height:100%;font-family:Futura;-inkscape-font-specification:'Futura, Medium';text-align:end;writing-mode:lr-tb;text-anchor:end;fill:#ff0000;fill-opacity:1"
         y="1129.1703"
         x="-121.3613"
         id="tspan16669"
         sodipodi:role="line">5</tspan></text>
    <text
       xml:space="preserve"
       style="font-style:normal;font-variant:normal;font-weight:bold;font-stretch:normal;font-size:26.64898491px;line-height:100%;font-family:sans-serif;-inkscape-font-specification:'sans-serif, Bold';text-align:end;letter-spacing:0px;word-spacing:0px;writing-mode:lr-tb;text-anchor:end;fill:#ff0000;fill-opacity:1;stroke:none;stroke-width:1px;stroke-linecap:butt;stroke-linejoin:miter;stroke-opacity:1"
       x="-121.3613"
       y="1069.1703"
       id="text16671"
       sodipodi:linespacing="100%"><tspan
         sodipodi:role="line"
         id="tspan16673"
         x="-121.3613"
         y="1069.1703"
         style="font-style:normal;font-variant:normal;font-weight:500;font-stretch:normal;font-size:26.64898491px;line-height:100%;font-family:Futura;-inkscape-font-specification:'Futura, Medium';text-align:end;writing-mode:lr-tb;text-anchor:end;fill:#ff0000;fill-opacity:1">5</tspan></text>
    <text
       sodipodi:linespacing="100%"
       id="text16675"
       y="638.17029"
       x="-123.3613"
       style="font-style:normal;font-variant:normal;font-weight:bold;font-stretch:normal;font-size:26.64898491px;line-height:100%;font-family:sans-serif;-inkscape-font-specification:'sans-serif, Bold';text-align:end;letter-spacing:0px;word-spacing:0px;writing-mode:lr-tb;text-anchor:end;fill:#ff0000;fill-opacity:1;stroke:none;stroke-width:1px;stroke-linecap:butt;stroke-linejoin:miter;stroke-opacity:1"
       xml:space="preserve"><tspan
         style="font-style:normal;font-variant:normal;font-weight:500;font-stretch:normal;font-size:26.64898491px;line-height:100%;font-family:Futura;-inkscape-font-specification:'Futura, Medium';text-align:end;writing-mode:lr-tb;text-anchor:end;fill:#ff0000;fill-opacity:1"
         y="638.17029"
         x="-123.3613"
         id="tspan16677"
         sodipodi:role="line">5</tspan></text>
    <text
       xml:space="preserve"
       style="font-style:normal;font-variant:normal;font-weight:bold;font-stretch:normal;font-size:26.64898491px;line-height:100%;font-family:sans-serif;-inkscape-font-specification:'sans-serif, Bold';text-align:end;letter-spacing:0px;word-spacing:0px;writing-mode:lr-tb;text-anchor:end;fill:#ff0000;fill-opacity:1;stroke:none;stroke-width:1px;stroke-linecap:butt;stroke-linejoin:miter;stroke-opacity:1"
       x="-117.3613"
       y="728.17029"
       id="text16679"
       sodipodi:linespacing="100%"><tspan
         sodipodi:role="line"
         id="tspan16681"
         x="-117.3613"
         y="728.17029"
         style="font-style:normal;font-variant:normal;font-weight:500;font-stretch:normal;font-size:26.64898491px;line-height:100%;font-family:Futura;-inkscape-font-specification:'Futura, Medium';text-align:end;writing-mode:lr-tb;text-anchor:end;fill:#ff0000;fill-opacity:1">5</tspan></text>
    <text
       xml:space="preserve"
       style="font-style:normal;font-variant:normal;font-weight:bold;font-stretch:normal;font-size:26.64898491px;line-height:100%;font-family:sans-serif;-inkscape-font-specification:'sans-serif, Bold';text-align:end;letter-spacing:0px;word-spacing:0px;writing-mode:lr-tb;text-anchor:end;fill:#ff0000;fill-opacity:1;stroke:none;stroke-width:1px;stroke-linecap:butt;stroke-linejoin:miter;stroke-opacity:1"
       x="187.6387"
       y="707.17029"
       id="text16683"
       sodipodi:linespacing="100%"><tspan
         sodipodi:role="line"
         id="tspan16685"
         x="187.6387"
         y="707.17029"
         style="font-style:normal;font-variant:normal;font-weight:500;font-stretch:normal;font-size:26.64898491px;line-height:100%;font-family:Futura;-inkscape-font-specification:'Futura, Medium';text-align:end;writing-mode:lr-tb;text-anchor:end;fill:#ff0000;fill-opacity:1">4</tspan></text>
    <text
       sodipodi:linespacing="100%"
       id="text16687"
       y="773.17029"
       x="185.6387"
       style="font-style:normal;font-variant:normal;font-weight:bold;font-stretch:normal;font-size:26.64898491px;line-height:100%;font-family:sans-serif;-inkscape-font-specification:'sans-serif, Bold';text-align:end;letter-spacing:0px;word-spacing:0px;writing-mode:lr-tb;text-anchor:end;fill:#ff0000;fill-opacity:1;stroke:none;stroke-width:1px;stroke-linecap:butt;stroke-linejoin:miter;stroke-opacity:1"
       xml:space="preserve"><tspan
         style="font-style:normal;font-variant:normal;font-weight:500;font-stretch:normal;font-size:26.64898491px;line-height:100%;font-family:Futura;-inkscape-font-specification:'Futura, Medium';text-align:end;writing-mode:lr-tb;text-anchor:end;fill:#ff0000;fill-opacity:1"
         y="773.17029"
         x="185.6387"
         id="tspan16689"
         sodipodi:role="line">5</tspan></text>
    <text
       xml:space="preserve"
       style="font-style:normal;font-variant:normal;font-weight:bold;font-stretch:normal;font-size:26.64898491px;line-height:100%;font-family:sans-serif;-inkscape-font-specification:'sans-serif, Bold';text-align:end;letter-spacing:0px;word-spacing:0px;writing-mode:lr-tb;text-anchor:end;fill:#ff0000;fill-opacity:1;stroke:none;stroke-width:1px;stroke-linecap:butt;stroke-linejoin:miter;stroke-opacity:1"
       x="185.6387"
       y="1065.1703"
       id="text16691"
       sodipodi:linespacing="100%"><tspan
         sodipodi:role="line"
         id="tspan16693"
         x="185.6387"
         y="1065.1703"
         style="font-style:normal;font-variant:normal;font-weight:500;font-stretch:normal;font-size:26.64898491px;line-height:100%;font-family:Futura;-inkscape-font-specification:'Futura, Medium';text-align:end;writing-mode:lr-tb;text-anchor:end;fill:#ff0000;fill-opacity:1">5</tspan></text>
    <text
       sodipodi:linespacing="100%"
       id="text16695"
       y="1000.1703"
       x="185.6387"
       style="font-style:normal;font-variant:normal;font-weight:bold;font-stretch:normal;font-size:26.64898491px;line-height:100%;font-family:sans-serif;-inkscape-font-specification:'sans-serif, Bold';text-align:end;letter-spacing:0px;word-spacing:0px;writing-mode:lr-tb;text-anchor:end;fill:#ff0000;fill-opacity:1;stroke:none;stroke-width:1px;stroke-linecap:butt;stroke-linejoin:miter;stroke-opacity:1"
       xml:space="preserve"><tspan
         style="font-style:normal;font-variant:normal;font-weight:500;font-stretch:normal;font-size:26.64898491px;line-height:100%;font-family:Futura;-inkscape-font-specification:'Futura, Medium';text-align:end;writing-mode:lr-tb;text-anchor:end;fill:#ff0000;fill-opacity:1"
         y="1000.1703"
         x="185.6387"
         id="tspan16697"
         sodipodi:role="line">4</tspan></text>
    <text
       xml:space="preserve"
       style="font-style:normal;font-variant:normal;font-weight:bold;font-stretch:normal;font-size:18.66666603px;line-height:100%;font-family:sans-serif;-inkscape-font-specification:'sans-serif, Bold';text-align:end;letter-spacing:0px;word-spacing:0px;writing-mode:lr-tb;text-anchor:end;fill:#000000;fill-opacity:1;stroke:none;stroke-width:1px;stroke-linecap:butt;stroke-linejoin:miter;stroke-opacity:1"
       x="-65.223785"
       y="648.76556"
       id="text8977-7"
       sodipodi:linespacing="100%"><tspan
         sodipodi:role="line"
         id="tspan8979-9"
         x="-65.223785"
         y="648.76556"
         style="font-style:normal;font-variant:normal;font-weight:500;font-stretch:normal;font-size:18.66666603px;line-height:100%;font-family:Futura;-inkscape-font-specification:'Futura, Medium';text-align:end;writing-mode:lr-tb;text-anchor:end">3</tspan></text>
    <text
       sodipodi:linespacing="100%"
       id="text16739"
       y="708.76556"
       x="-67.223785"
       style="font-style:normal;font-variant:normal;font-weight:bold;font-stretch:normal;font-size:18.66666603px;line-height:100%;font-family:sans-serif;-inkscape-font-specification:'sans-serif, Bold';text-align:end;letter-spacing:0px;word-spacing:0px;writing-mode:lr-tb;text-anchor:end;fill:#000000;fill-opacity:1;stroke:none;stroke-width:1px;stroke-linecap:butt;stroke-linejoin:miter;stroke-opacity:1"
       xml:space="preserve"><tspan
         style="font-style:normal;font-variant:normal;font-weight:500;font-stretch:normal;font-size:18.66666603px;line-height:100%;font-family:Futura;-inkscape-font-specification:'Futura, Medium';text-align:end;writing-mode:lr-tb;text-anchor:end"
         y="708.76556"
         x="-67.223785"
         id="tspan16741"
         sodipodi:role="line">4</tspan></text>
    <text
       xml:space="preserve"
       style="font-style:normal;font-variant:normal;font-weight:bold;font-stretch:normal;font-size:18.66666603px;line-height:100%;font-family:sans-serif;-inkscape-font-specification:'sans-serif, Bold';text-align:end;letter-spacing:0px;word-spacing:0px;writing-mode:lr-tb;text-anchor:end;fill:#000000;fill-opacity:1;stroke:none;stroke-width:1px;stroke-linecap:butt;stroke-linejoin:miter;stroke-opacity:1"
       x="-65.223785"
       y="1056.7656"
       id="text16743"
       sodipodi:linespacing="100%"><tspan
         sodipodi:role="line"
         id="tspan16745"
         x="-65.223785"
         y="1056.7656"
         style="font-style:normal;font-variant:normal;font-weight:500;font-stretch:normal;font-size:18.66666603px;line-height:100%;font-family:Futura;-inkscape-font-specification:'Futura, Medium';text-align:end;writing-mode:lr-tb;text-anchor:end">5</tspan></text>
    <text
       sodipodi:linespacing="100%"
       id="text16747"
       y="1114.7656"
       x="-65.223785"
       style="font-style:normal;font-variant:normal;font-weight:bold;font-stretch:normal;font-size:18.66666603px;line-height:100%;font-family:sans-serif;-inkscape-font-specification:'sans-serif, Bold';text-align:end;letter-spacing:0px;word-spacing:0px;writing-mode:lr-tb;text-anchor:end;fill:#000000;fill-opacity:1;stroke:none;stroke-width:1px;stroke-linecap:butt;stroke-linejoin:miter;stroke-opacity:1"
       xml:space="preserve"><tspan
         style="font-style:normal;font-variant:normal;font-weight:500;font-stretch:normal;font-size:18.66666603px;line-height:100%;font-family:Futura;-inkscape-font-specification:'Futura, Medium';text-align:end;writing-mode:lr-tb;text-anchor:end"
         y="1114.7656"
         x="-65.223785"
         id="tspan16749"
         sodipodi:role="line">6</tspan></text>
    <text
       sodipodi:linespacing="100%"
       id="text16747-6"
       y="719.89777"
       x="244.91943"
       style="font-style:normal;font-variant:normal;font-weight:bold;font-stretch:normal;font-size:18.66666603px;line-height:100%;font-family:sans-serif;-inkscape-font-specification:'sans-serif, Bold';text-align:end;letter-spacing:0px;word-spacing:0px;writing-mode:lr-tb;text-anchor:end;fill:#000000;fill-opacity:1;stroke:none;stroke-width:1px;stroke-linecap:butt;stroke-linejoin:miter;stroke-opacity:1"
       xml:space="preserve"><tspan
         style="font-style:normal;font-variant:normal;font-weight:500;font-stretch:normal;font-size:18.66666603px;line-height:100%;font-family:Futura;-inkscape-font-specification:'Futura, Medium';text-align:end;writing-mode:lr-tb;text-anchor:end"
         y="719.89777"
         x="244.91943"
         id="tspan16749-2"
         sodipodi:role="line">7</tspan></text>
    <text
       sodipodi:linespacing="100%"
       id="text16747-4"
       y="783.89777"
       x="245.91943"
       style="font-style:normal;font-variant:normal;font-weight:bold;font-stretch:normal;font-size:18.66666603px;line-height:100%;font-family:sans-serif;-inkscape-font-specification:'sans-serif, Bold';text-align:end;letter-spacing:0px;word-spacing:0px;writing-mode:lr-tb;text-anchor:end;fill:#000000;fill-opacity:1;stroke:none;stroke-width:1px;stroke-linecap:butt;stroke-linejoin:miter;stroke-opacity:1"
       xml:space="preserve"><tspan
         style="font-style:normal;font-variant:normal;font-weight:500;font-stretch:normal;font-size:18.66666603px;line-height:100%;font-family:Futura;-inkscape-font-specification:'Futura, Medium';text-align:end;writing-mode:lr-tb;text-anchor:end"
         y="783.89777"
         x="245.91943"
         id="tspan16749-4"
         sodipodi:role="line">8</tspan></text>
    <text
       xml:space="preserve"
       style="font-style:normal;font-variant:normal;font-weight:bold;font-stretch:normal;font-size:18.66666603px;line-height:100%;font-family:sans-serif;-inkscape-font-specification:'sans-serif, Bold';text-align:end;letter-spacing:0px;word-spacing:0px;writing-mode:lr-tb;text-anchor:end;fill:#000000;fill-opacity:1;stroke:none;stroke-width:1px;stroke-linecap:butt;stroke-linejoin:miter;stroke-opacity:1"
       x="245.91943"
       y="985.89777"
       id="text16781"
       sodipodi:linespacing="100%"><tspan
         sodipodi:role="line"
         id="tspan16783"
         x="245.91943"
         y="985.89777"
         style="font-style:normal;font-variant:normal;font-weight:500;font-stretch:normal;font-size:18.66666603px;line-height:100%;font-family:Futura;-inkscape-font-specification:'Futura, Medium';text-align:end;writing-mode:lr-tb;text-anchor:end">9</tspan></text>
    <text
       sodipodi:linespacing="100%"
       id="text16785"
       y="1047.8978"
       x="243.91943"
       style="font-style:normal;font-variant:normal;font-weight:bold;font-stretch:normal;font-size:18.66666603px;line-height:100%;font-family:sans-serif;-inkscape-font-specification:'sans-serif, Bold';text-align:end;letter-spacing:0px;word-spacing:0px;writing-mode:lr-tb;text-anchor:end;fill:#000000;fill-opacity:1;stroke:none;stroke-width:1px;stroke-linecap:butt;stroke-linejoin:miter;stroke-opacity:1"
       xml:space="preserve"><tspan
         style="font-style:normal;font-variant:normal;font-weight:500;font-stretch:normal;font-size:18.66666603px;line-height:100%;font-family:Futura;-inkscape-font-specification:'Futura, Medium';text-align:end;writing-mode:lr-tb;text-anchor:end"
         y="1047.8978"
         x="243.91943"
         id="tspan16787"
         sodipodi:role="line">10</tspan></text>
    <ellipse
       ry="39.88673"
       rx="39.439209"
       cy="871.96326"
       cx="-220.74399"
       id="ellipse32560"
       style="display:inline;fill:none;stroke:#000000;stroke-width:5.16321278;stroke-miterlimit:4;stroke-dasharray:none;stroke-opacity:1" />
    <g
       transform="translate(-48.13776,-0.8248254)"
       id="g11147">
      <g
         transform="translate(0,80)"
         id="g11131">
        <rect
           style="fill:none;fill-opacity:1;stroke:#000000;stroke-width:3;stroke-miterlimit:4;stroke-dasharray:none;stroke-dashoffset:0;stroke-opacity:1"
           id="rect16029"
           width="147.24557"
           height="81.48877"
           x="-373.34097"
           y="688.93738" />
        <g
           id="g31130"
           transform="translate(142.89284,4.47674)">
          <ellipse
             style="fill:none;stroke:#000000;stroke-width:1.88477826;stroke-miterlimit:4;stroke-dasharray:none;stroke-opacity:1"
             id="ellipse31132"
             cx="-442.02335"
             cy="726.78784"
             ry="18.387955"
             rx="32.732471" />
        </g>
        <rect
           y="704.05103"
           x="-350.40387"
           height="50.281006"
           width="101.59971"
           id="rect31162"
           style="fill:none;fill-opacity:1;stroke:#000000;stroke-width:2;stroke-miterlimit:4;stroke-dasharray:2, 2;stroke-dashoffset:0;stroke-opacity:1" />
      </g>
    </g>
    <g
       id="g11137"
       transform="translate(-48.13776,203.17518)">
      <rect
         style="fill:none;fill-opacity:1;stroke:#000000;stroke-width:3;stroke-miterlimit:4;stroke-dasharray:none;stroke-dashoffset:0;stroke-opacity:1"
         id="rect11139"
         width="147.24557"
         height="81.48877"
         x="-373.34097"
         y="688.93738" />
      <g
         id="g11141"
         transform="translate(142.89284,4.47674)">
        <ellipse
           style="fill:none;stroke:#000000;stroke-width:1.88477826;stroke-miterlimit:4;stroke-dasharray:none;stroke-opacity:1"
           id="ellipse11143"
           cx="-442.02335"
           cy="726.78784"
           ry="18.387955"
           rx="32.732471" />
      </g>
      <rect
         y="704.05103"
         x="-350.40387"
         height="50.281006"
         width="101.59971"
         id="rect11145"
         style="fill:none;fill-opacity:1;stroke:#000000;stroke-width:2;stroke-miterlimit:4;stroke-dasharray:2, 2;stroke-dashoffset:0;stroke-opacity:1" />
    </g>
    <text
       sodipodi:linespacing="100%"
       id="text8969-1"
       y="804.34546"
       x="-303.49905"
       style="font-style:normal;font-variant:normal;font-weight:bold;font-stretch:normal;font-size:26.64898491px;line-height:100%;font-family:sans-serif;-inkscape-font-specification:'sans-serif, Bold';text-align:end;letter-spacing:0px;word-spacing:0px;writing-mode:lr-tb;text-anchor:end;fill:#ff0000;fill-opacity:1;stroke:none;stroke-width:1px;stroke-linecap:butt;stroke-linejoin:miter;stroke-opacity:1"
       xml:space="preserve"><tspan
         style="font-style:normal;font-variant:normal;font-weight:500;font-stretch:normal;font-size:26.64898491px;line-height:100%;font-family:Futura;-inkscape-font-specification:'Futura, Medium';text-align:end;writing-mode:lr-tb;text-anchor:end;fill:#ff0000;fill-opacity:1"
         y="804.34546"
         x="-303.49905"
         id="tspan8971-7"
         sodipodi:role="line">9</tspan></text>
    <text
       xml:space="preserve"
       style="font-style:normal;font-variant:normal;font-weight:bold;font-stretch:normal;font-size:26.64898491px;line-height:100%;font-family:sans-serif;-inkscape-font-specification:'sans-serif, Bold';text-align:end;letter-spacing:0px;word-spacing:0px;writing-mode:lr-tb;text-anchor:end;fill:#ff0000;fill-opacity:1;stroke:none;stroke-width:1px;stroke-linecap:butt;stroke-linejoin:miter;stroke-opacity:1"
       x="-303.49905"
       y="928.34546"
       id="text16663"
       sodipodi:linespacing="100%"><tspan
         sodipodi:role="line"
         id="tspan16665"
         x="-303.49905"
         y="928.34546"
         style="font-style:normal;font-variant:normal;font-weight:500;font-stretch:normal;font-size:26.64898491px;line-height:100%;font-family:Futura;-inkscape-font-specification:'Futura, Medium';text-align:end;writing-mode:lr-tb;text-anchor:end;fill:#ff0000;fill-opacity:1">9</tspan></text>
    <text
       xml:space="preserve"
       style="font-style:normal;font-variant:normal;font-weight:bold;font-stretch:normal;font-size:18.66666603px;line-height:100%;font-family:sans-serif;-inkscape-font-specification:'sans-serif, Bold';text-align:end;letter-spacing:0px;word-spacing:0px;writing-mode:lr-tb;text-anchor:end;fill:#000000;fill-opacity:1;stroke:none;stroke-width:1px;stroke-linecap:butt;stroke-linejoin:miter;stroke-opacity:1"
       x="-363.36154"
       y="815.94073"
       id="text8977"
       sodipodi:linespacing="100%"><tspan
         sodipodi:role="line"
         id="tspan8979"
         x="-363.36154"
         y="815.94073"
         style="font-style:normal;font-variant:normal;font-weight:500;font-stretch:normal;font-size:18.66666603px;line-height:100%;font-family:Futura;-inkscape-font-specification:'Futura, Medium';text-align:end;writing-mode:lr-tb;text-anchor:end">1</tspan></text>
    <text
       sodipodi:linespacing="100%"
       id="text16717"
       y="939.94073"
       x="-363.36154"
       style="font-style:normal;font-variant:normal;font-weight:bold;font-stretch:normal;font-size:18.66666603px;line-height:100%;font-family:sans-serif;-inkscape-font-specification:'sans-serif, Bold';text-align:end;letter-spacing:0px;word-spacing:0px;writing-mode:lr-tb;text-anchor:end;fill:#000000;fill-opacity:1;stroke:none;stroke-width:1px;stroke-linecap:butt;stroke-linejoin:miter;stroke-opacity:1"
       xml:space="preserve"><tspan
         style="font-style:normal;font-variant:normal;font-weight:500;font-stretch:normal;font-size:18.66666603px;line-height:100%;font-family:Futura;-inkscape-font-specification:'Futura, Medium';text-align:end;writing-mode:lr-tb;text-anchor:end"
         y="939.94073"
         x="-363.36154"
         id="tspan16719"
         sodipodi:role="line">2</tspan></text>
    <path
       sodipodi:nodetypes="cc"
       inkscape:connector-curvature="0"
       id="path32554"
       d="m -255.21282,846.30088 -59.17519,-35.20345"
       style="fill:none;fill-rule:evenodd;stroke:#4d00fa;stroke-width:4.15748024;stroke-linecap:butt;stroke-linejoin:miter;stroke-miterlimit:4;stroke-dasharray:none;stroke-opacity:1" />
    <path
       style="fill:none;fill-rule:evenodd;stroke:#4d00fa;stroke-width:4.15748024;stroke-linecap:butt;stroke-linejoin:miter;stroke-miterlimit:4;stroke-dasharray:none;stroke-opacity:1"
       d="m -255.21282,888.12687 -59.17519,45.10294"
       id="path9355"
       inkscape:connector-curvature="0"
       sodipodi:nodetypes="cc" />
    <ellipse
       style="display:inline;fill:none;stroke:#000000;stroke-width:5.16321278;stroke-miterlimit:4;stroke-dasharray:none;stroke-opacity:1"
       id="ellipse11181"
       cx="-86.743988"
       cy="937.96326"
       rx="39.439209"
       ry="39.88673" />
    <path
       style="fill:#000000;fill-rule:evenodd;stroke:#00fa28;stroke-width:4.15748024;stroke-linecap:butt;stroke-linejoin:miter;stroke-miterlimit:4;stroke-dasharray:none;stroke-opacity:1;fill-opacity:1"
       d="m -90.21282,897.30088 0.82481,-177.20345"
       id="path11183"
       inkscape:connector-curvature="0"
       sodipodi:nodetypes="cc" />
    <path
       sodipodi:nodetypes="cc"
       inkscape:connector-curvature="0"
       id="path11185"
       d="m -122.21282,1110.3009 c -40.60084,-46.4215 -168.99832,-64.2826 -5.17519,-177.20347"
       style="fill:none;fill-rule:evenodd;stroke:#00fa28;stroke-width:4.15748024;stroke-linecap:butt;stroke-linejoin:miter;stroke-miterlimit:4;stroke-dasharray:none;stroke-opacity:1" />
    <path
       sodipodi:nodetypes="cc"
       inkscape:connector-curvature="0"
       id="path11187"
       d="M -48.21282,920.30088 186.61199,775.09743"
       style="fill:#000000;fill-opacity:1;fill-rule:evenodd;stroke:#00fa28;stroke-width:4.15748024;stroke-linecap:butt;stroke-linejoin:miter;stroke-miterlimit:4;stroke-dasharray:none;stroke-opacity:1" />
    <path
       style="fill:#000000;fill-opacity:1;fill-rule:evenodd;stroke:#00fa28;stroke-width:4.15748024;stroke-linecap:butt;stroke-linejoin:miter;stroke-miterlimit:4;stroke-dasharray:none;stroke-opacity:1"
       d="M -48.21282,920.30088 185.61199,1040.0974"
       id="path11189"
       inkscape:connector-curvature="0"
       sodipodi:nodetypes="cc" />
    <path
       sodipodi:nodetypes="cc"
       inkscape:connector-curvature="0"
       id="path12641"
       d="m -182.18948,857.51696 56.4215,64.42425"
       style="display:inline;fill:none;fill-rule:evenodd;stroke:#ff0000;stroke-width:8.69291306;stroke-linecap:butt;stroke-linejoin:miter;stroke-miterlimit:4;stroke-dasharray:8.69291339, 8.69291339;stroke-dashoffset:0;stroke-opacity:1" />
  </g>
</svg>
