<?xml version="1.0" encoding="UTF-8" standalone="no"?>
<!-- Created with Inkscape (http://www.inkscape.org/) -->

<svg
   xmlns:dc="http://purl.org/dc/elements/1.1/"
   xmlns:cc="http://creativecommons.org/ns#"
   xmlns:rdf="http://www.w3.org/1999/02/22-rdf-syntax-ns#"
   xmlns:svg="http://www.w3.org/2000/svg"
   xmlns="http://www.w3.org/2000/svg"
   xmlns:xlink="http://www.w3.org/1999/xlink"
   xmlns:sodipodi="http://sodipodi.sourceforge.net/DTD/sodipodi-0.dtd"
   xmlns:inkscape="http://www.inkscape.org/namespaces/inkscape"
   width="292mm"
   height="79.067413mm"
   viewBox="0 0 291.99999 79.067414"
   id="svg2"
   version="1.1"
   inkscape:version="0.91+devel+osxmenu r12876"
   sodipodi:docname="representarrow.svg"
   shape-rendering="crispEdges">
  <defs
     id="defs4">
    <linearGradient
       inkscape:collect="always"
       id="linearGradient4611">
      <stop
         style="stop-color:#000000;stop-opacity:1;"
         offset="0"
         id="stop4613" />
      <stop
         style="stop-color:#000000;stop-opacity:0;"
         offset="1"
         id="stop4615" />
    </linearGradient>
    <linearGradient
       inkscape:collect="always"
       id="linearGradient4513">
      <stop
         style="stop-color:#ff8d00;stop-opacity:1"
         offset="0"
         id="stop4515" />
      <stop
         style="stop-color:#00ff66;stop-opacity:0.63137257"
         offset="1"
         id="stop4517" />
    </linearGradient>
    <linearGradient
       inkscape:collect="always"
       xlink:href="#linearGradient4513"
       id="linearGradient4519"
       x1="40.275166"
       y1="110.32139"
       x2="126.75646"
       y2="111.60787"
       gradientUnits="userSpaceOnUse"
       gradientTransform="matrix(2.0566394,0,0,2.0566394,-19.515099,-44.724952)" />
    <radialGradient
       inkscape:collect="always"
       xlink:href="#linearGradient4611"
       id="radialGradient4617"
       cx="111.31936"
       cy="197.79611"
       fx="111.31936"
       fy="197.79611"
       r="148.74374"
       gradientTransform="matrix(0.39641528,-0.21853663,0.1396757,0.25336437,39.563352,160.72336)"
       gradientUnits="userSpaceOnUse" />
  </defs>
  <sodipodi:namedview
     id="base"
     pagecolor="#ffffff"
     bordercolor="#666666"
     borderopacity="1.0"
     inkscape:pageopacity="0.0"
     inkscape:pageshadow="2"
     inkscape:zoom="0.98994949"
     inkscape:cx="306.91371"
     inkscape:cy="50.215804"
     inkscape:document-units="mm"
     inkscape:current-layer="layer1"
     showgrid="false"
     fit-margin-top="0"
     fit-margin-left="0"
     fit-margin-right="0"
     fit-margin-bottom="0"
     showguides="false"
     inkscape:guide-bbox="true"
     inkscape:snap-global="false"
     inkscape:window-width="1280"
     inkscape:window-height="979"
     inkscape:window-x="0"
     inkscape:window-y="23"
     inkscape:window-maximized="0">
    <inkscape:grid
       type="xygrid"
       id="grid4509"
       originx="-7.7925398px"
       originy="-272.31537px" />
    <sodipodi:guide
       position="38.948638,50.981143"
       orientation="0,1"
       id="guide4545" />
    <sodipodi:guide
       position="241.35488,7.3248923"
       orientation="1,0"
       id="guide4579" />
    <sodipodi:guide
       position="10.322318,21.808458"
       orientation="1,0"
       id="guide4581" />
    <sodipodi:guide
       position="100.65863,47.65258"
       orientation="0,1"
       id="guide4583" />
    <sodipodi:guide
       position="187.30966,-5.5948163"
       orientation="1,0"
       id="guide4665" />
  </sodipodi:namedview>
  <metadata
     id="metadata7">
    <rdf:RDF>
      <cc:Work
         rdf:about="">
        <dc:format>image/svg+xml</dc:format>
        <dc:type
           rdf:resource="http://purl.org/dc/dcmitype/StillImage" />
        <dc:title></dc:title>
      </cc:Work>
    </rdf:RDF>
  </metadata>
  <g
     inkscape:label="Layer 1"
     inkscape:groupmode="layer"
     id="layer1"
     transform="translate(-2.0617764,-145.88254)">
    <text
       xml:space="preserve"
       style="font-style:normal;font-variant:normal;font-weight:bold;font-stretch:normal;font-size:11.28888988px;line-height:100%;font-family:sans-serif;-inkscape-font-specification:'sans-serif, Bold';text-align:end;letter-spacing:0px;word-spacing:0px;writing-mode:lr-tb;text-anchor:end;fill:#000000;fill-opacity:1;stroke:none;stroke-width:1px;stroke-linecap:butt;stroke-linejoin:miter;stroke-opacity:1"
       x="74.083328"
       y="175.29167"
       id="text4547"
       sodipodi:linespacing="100%"><tspan
         sodipodi:role="line"
         id="tspan4549"
         x="74.083328"
         y="175.29167"></tspan></text>
    <g
       id="g4711"
       transform="translate(-2.1166668,3.7041669)">
      <path
         sodipodi:nodetypes="ccccccccc"
         inkscape:connector-curvature="0"
         id="path4511"
         d="m 243.56799,143.16209 0,21.76608 -239.4271069,0 0.3779763,34.76278 118.8883706,-0.1994 120.13784,-0.2015 0,21.76611 52.5483,-35.86591 z"
         style="fill:url(#linearGradient4519);fill-opacity:1;fill-rule:evenodd;stroke:url(#radialGradient4617);stroke-width:4.11327887;stroke-linecap:butt;stroke-linejoin:miter;stroke-miterlimit:4;stroke-dasharray:none;stroke-opacity:0" />
      <text
         sodipodi:linespacing="100%"
         id="text4521"
         y="172.28737"
         x="81.748192"
         style="font-style:normal;font-variant:normal;font-weight:bold;font-stretch:normal;font-size:7.97741222px;line-height:100%;font-family:sans-serif;-inkscape-font-specification:'sans-serif, Bold';text-align:end;letter-spacing:0px;word-spacing:0px;writing-mode:lr-tb;text-anchor:end;fill:#000000;fill-opacity:1;stroke:none;stroke-width:1px;stroke-linecap:butt;stroke-linejoin:miter;stroke-opacity:1"
         xml:space="preserve"><tspan
           style="font-style:normal;font-variant:normal;font-weight:bold;font-stretch:normal;font-size:7.97741222px;line-height:100%;font-family:'Century Gothic';-inkscape-font-specification:'Century Gothic, Bold';text-align:end;writing-mode:lr-tb;text-anchor:end"
           y="172.28737"
           x="81.748192"
           id="tspan4523"
           sodipodi:role="line">XML</tspan></text>
      <text
         xml:space="preserve"
         style="font-style:normal;font-variant:normal;font-weight:bold;font-stretch:normal;font-size:7.02160788px;line-height:100%;font-family:sans-serif;-inkscape-font-specification:'sans-serif, Bold';text-align:end;letter-spacing:0px;word-spacing:0px;writing-mode:lr-tb;text-anchor:end;fill:#000000;fill-opacity:1;stroke:none;stroke-width:1px;stroke-linecap:butt;stroke-linejoin:miter;stroke-opacity:1"
         x="52.561378"
         y="172.41539"
         id="text4525"
         sodipodi:linespacing="100%"><tspan
           style="font-style:normal;font-variant:normal;font-weight:bold;font-stretch:normal;font-size:7.02163696px;line-height:100%;font-family:'Century Gothic';-inkscape-font-specification:'Century Gothic, Bold';text-align:end;writing-mode:lr-tb;text-anchor:end"
           sodipodi:role="line"
           id="tspan4527"
           x="54.522499"
           y="172.41539">Repr. ad-hoc </tspan></text>
      <text
         sodipodi:linespacing="100%"
         id="text4529"
         y="178.91743"
         x="11.886322"
         style="font-style:normal;font-variant:normal;font-weight:bold;font-stretch:normal;font-size:5.37582111px;line-height:100%;font-family:sans-serif;-inkscape-font-specification:'sans-serif, Bold';text-align:end;letter-spacing:0px;word-spacing:0px;writing-mode:lr-tb;text-anchor:end;fill:#000000;fill-opacity:1;stroke:none;stroke-width:1px;stroke-linecap:butt;stroke-linejoin:miter;stroke-opacity:1"
         xml:space="preserve"><tspan
           id="tspan4667"
           style="font-style:normal;font-variant:normal;font-weight:bold;font-stretch:normal;font-size:5.37598085px;line-height:100%;font-family:'Century Gothic';-inkscape-font-specification:'Century Gothic, Bold';text-align:start;writing-mode:lr-tb;text-anchor:start"
           y="178.91743"
           x="11.886322"
           sodipodi:role="line">- ≠ formats de </tspan><tspan
           id="tspan4671"
           style="font-style:normal;font-variant:normal;font-weight:bold;font-stretch:normal;font-size:5.37598085px;line-height:100%;font-family:'Century Gothic';-inkscape-font-specification:'Century Gothic, Bold';text-align:start;writing-mode:lr-tb;text-anchor:start"
           y="184.29341"
           x="11.886322"
           sodipodi:role="line">     données</tspan></text>
      <text
         sodipodi:linespacing="100%"
         id="text4535"
         y="175.82094"
         x="7.9374843"
         style="font-style:normal;font-variant:normal;font-weight:bold;font-stretch:normal;font-size:11.28888988px;line-height:100%;font-family:sans-serif;-inkscape-font-specification:'sans-serif, Bold';text-align:end;letter-spacing:0px;word-spacing:0px;writing-mode:lr-tb;text-anchor:end;fill:#000000;fill-opacity:1;stroke:none;stroke-width:1px;stroke-linecap:butt;stroke-linejoin:miter;stroke-opacity:1"
         xml:space="preserve"><tspan
           y="175.82094"
           x="11.068387"
           id="tspan4537"
           sodipodi:role="line"> </tspan></text>
      <text
         xml:space="preserve"
         style="font-style:normal;font-variant:normal;font-weight:bold;font-stretch:normal;font-size:5.37582111px;line-height:100%;font-family:sans-serif;-inkscape-font-specification:'sans-serif, Bold';text-align:end;letter-spacing:0px;word-spacing:0px;writing-mode:lr-tb;text-anchor:end;fill:#000000;fill-opacity:1;stroke:none;stroke-width:1px;stroke-linecap:butt;stroke-linejoin:miter;stroke-opacity:1"
         x="50.749107"
         y="191.24165"
         id="text4541"
         sodipodi:linespacing="100%"><tspan
           style="font-style:normal;font-variant:normal;font-weight:bold;font-stretch:normal;font-size:5.37592983px;line-height:100%;font-family:'Century Gothic';-inkscape-font-specification:'Century Gothic, Bold';text-align:end;writing-mode:lr-tb;text-anchor:end"
           sodipodi:role="line"
           x="50.749107"
           y="191.24165"
           id="tspan4543">- ≠ annotations</tspan></text>
      <text
         xml:space="preserve"
         style="font-style:normal;font-variant:normal;font-weight:bold;font-stretch:normal;font-size:5.37582111px;line-height:100%;font-family:sans-serif;-inkscape-font-specification:'sans-serif, Bold';text-align:end;letter-spacing:0px;word-spacing:0px;writing-mode:lr-tb;text-anchor:end;fill:#000000;fill-opacity:1;stroke:none;stroke-width:1px;stroke-linecap:butt;stroke-linejoin:miter;stroke-opacity:1"
         x="68.71331"
         y="178.8174"
         id="text4551"
         sodipodi:linespacing="100%"><tspan
           id="tspan4559"
           sodipodi:role="line"
           x="68.71331"
           y="178.8174"
           style="font-style:normal;font-variant:normal;font-weight:bold;font-stretch:normal;font-size:5.37592983px;line-height:100%;font-family:'Century Gothic';-inkscape-font-specification:'Century Gothic, Bold';text-align:start;writing-mode:lr-tb;text-anchor:start">+ manip. </tspan><tspan
           id="tspan4569"
           sodipodi:role="line"
           x="68.71331"
           y="184.19333"
           style="font-style:normal;font-variant:normal;font-weight:bold;font-stretch:normal;font-size:5.37592983px;line-height:100%;font-family:'Century Gothic';-inkscape-font-specification:'Century Gothic, Bold';text-align:start;writing-mode:lr-tb;text-anchor:start">   plus aisée</tspan></text>
      <text
         xml:space="preserve"
         style="font-style:normal;font-variant:normal;font-weight:bold;font-stretch:normal;font-size:7.97741222px;line-height:100%;font-family:sans-serif;-inkscape-font-specification:'sans-serif, Bold';text-align:end;letter-spacing:0px;word-spacing:0px;writing-mode:lr-tb;text-anchor:end;fill:#000000;fill-opacity:1;stroke:none;stroke-width:1px;stroke-linecap:butt;stroke-linejoin:miter;stroke-opacity:1"
         x="155.03824"
         y="172.28737"
         id="text4585"
         sodipodi:linespacing="100%"><tspan
           sodipodi:role="line"
           id="tspan4587"
           x="155.03824"
           y="172.28737"
           style="font-style:normal;font-variant:normal;font-weight:bold;font-stretch:normal;font-size:7.97741222px;line-height:100%;font-family:'Century Gothic';-inkscape-font-specification:'Century Gothic, Bold';text-align:end;writing-mode:lr-tb;text-anchor:end">XML + LMF</tspan></text>
      <text
         sodipodi:linespacing="100%"
         id="text4589"
         y="190.60397"
         x="69.142448"
         style="font-style:normal;font-variant:normal;font-weight:bold;font-stretch:normal;font-size:5.37582111px;line-height:100%;font-family:sans-serif;-inkscape-font-specification:'sans-serif, Bold';text-align:end;letter-spacing:0px;word-spacing:0px;writing-mode:lr-tb;text-anchor:end;fill:#000000;fill-opacity:1;stroke:none;stroke-width:1px;stroke-linecap:butt;stroke-linejoin:miter;stroke-opacity:1"
         xml:space="preserve"><tspan
           id="tspan4597"
           style="font-style:normal;font-variant:normal;font-weight:bold;font-stretch:normal;font-size:5.37592983px;line-height:100%;font-family:'Century Gothic';-inkscape-font-specification:'Century Gothic, Bold';text-align:start;writing-mode:lr-tb;text-anchor:start"
           y="190.60397"
           x="69.142448"
           sodipodi:role="line">- arbres</tspan></text>
      <text
         sodipodi:linespacing="100%"
         id="text4605"
         y="179.03162"
         x="117.91065"
         style="font-style:normal;font-variant:normal;font-weight:bold;font-stretch:normal;font-size:5.37582111px;line-height:100%;font-family:sans-serif;-inkscape-font-specification:'sans-serif, Bold';text-align:end;letter-spacing:0px;word-spacing:0px;writing-mode:lr-tb;text-anchor:end;fill:#000000;fill-opacity:1;stroke:none;stroke-width:1px;stroke-linecap:butt;stroke-linejoin:miter;stroke-opacity:1"
         xml:space="preserve"><tspan
           id="tspan4607"
           y="179.03162"
           x="117.91065"
           sodipodi:role="line"
           style="font-style:normal;font-variant:normal;font-weight:bold;font-stretch:normal;font-size:5.37598085px;line-height:100%;font-family:'Century Gothic';-inkscape-font-specification:'Century Gothic, Bold';text-align:start;writing-mode:lr-tb;text-anchor:start">+ annotations </tspan><tspan
           id="tspan4609"
           y="184.40759"
           x="117.91065"
           sodipodi:role="line"
           style="font-style:normal;font-variant:normal;font-weight:bold;font-stretch:normal;font-size:5.37598085px;line-height:100%;font-family:'Century Gothic';-inkscape-font-specification:'Century Gothic, Bold';text-align:start;writing-mode:lr-tb;text-anchor:start">   compatibles</tspan></text>
      <text
         sodipodi:linespacing="100%"
         id="text4623"
         y="172.28737"
         x="223.82899"
         style="font-style:normal;font-variant:normal;font-weight:bold;font-stretch:normal;font-size:7.97741222px;line-height:100%;font-family:sans-serif;-inkscape-font-specification:'sans-serif, Bold';text-align:end;letter-spacing:0px;word-spacing:0px;writing-mode:lr-tb;text-anchor:end;fill:#000000;fill-opacity:1;stroke:none;stroke-width:1px;stroke-linecap:butt;stroke-linejoin:miter;stroke-opacity:1"
         xml:space="preserve"><tspan
           style="font-style:normal;font-variant:normal;font-weight:bold;font-stretch:normal;font-size:7.97741222px;line-height:100%;font-family:'Century Gothic';-inkscape-font-specification:'Century Gothic, Bold';text-align:end;writing-mode:lr-tb;text-anchor:end"
           y="172.28737"
           x="223.82899"
           id="tspan4625"
           sodipodi:role="line">OWL/Ontolex</tspan></text>
      <text
         xml:space="preserve"
         style="font-style:normal;font-variant:normal;font-weight:bold;font-stretch:normal;font-size:5.37582111px;line-height:100%;font-family:sans-serif;-inkscape-font-specification:'sans-serif, Bold';text-align:end;letter-spacing:0px;word-spacing:0px;writing-mode:lr-tb;text-anchor:end;fill:#000000;fill-opacity:1;stroke:none;stroke-width:1px;stroke-linecap:butt;stroke-linejoin:miter;stroke-opacity:1"
         x="69.142448"
         y="197.48305"
         id="text4635"
         sodipodi:linespacing="100%"><tspan
           sodipodi:role="line"
           x="69.142448"
           y="197.48305"
           style="font-style:normal;font-variant:normal;font-weight:bold;font-stretch:normal;font-size:5.37592983px;line-height:100%;font-family:'Century Gothic';-inkscape-font-specification:'Century Gothic, Bold';text-align:start;writing-mode:lr-tb;text-anchor:start"
           id="tspan4637">- accès difficile</tspan></text>
      <text
         xml:space="preserve"
         style="font-style:normal;font-variant:normal;font-weight:bold;font-stretch:normal;font-size:5.37582111px;line-height:100%;font-family:sans-serif;-inkscape-font-specification:'sans-serif, Bold';text-align:end;letter-spacing:0px;word-spacing:0px;writing-mode:lr-tb;text-anchor:end;fill:#000000;fill-opacity:1;stroke:none;stroke-width:1px;stroke-linecap:butt;stroke-linejoin:miter;stroke-opacity:1"
         x="215.53802"
         y="178.9314"
         id="text4639"
         sodipodi:linespacing="100%"><tspan
           id="tspan4647"
           style="font-style:normal;font-variant:normal;font-weight:bold;font-stretch:normal;font-size:5.37592983px;line-height:100%;font-family:'Century Gothic';-inkscape-font-specification:'Century Gothic, Bold';text-align:end;writing-mode:lr-tb;text-anchor:end"
           sodipodi:role="line"
           x="215.53802"
           y="178.9314">+ graphes</tspan></text>
      <text
         sodipodi:linespacing="100%"
         id="text4651"
         y="185.38153"
         x="222.15521"
         style="font-style:normal;font-variant:normal;font-weight:bold;font-stretch:normal;font-size:5.37582111px;line-height:100%;font-family:sans-serif;-inkscape-font-specification:'sans-serif, Bold';text-align:end;letter-spacing:0px;word-spacing:0px;writing-mode:lr-tb;text-anchor:end;fill:#000000;fill-opacity:1;stroke:none;stroke-width:1px;stroke-linecap:butt;stroke-linejoin:miter;stroke-opacity:1"
         xml:space="preserve"><tspan
           y="185.38153"
           x="222.15521"
           sodipodi:role="line"
           style="font-style:normal;font-variant:normal;font-weight:bold;font-stretch:normal;font-size:5.37592983px;line-height:100%;font-family:'Century Gothic';-inkscape-font-specification:'Century Gothic, Bold';text-align:end;writing-mode:lr-tb;text-anchor:end"
           id="tspan4653">+ accès aisé</tspan></text>
      <text
         xml:space="preserve"
         style="font-style:normal;font-variant:normal;font-weight:bold;font-stretch:normal;font-size:5.37582111px;line-height:100%;font-family:sans-serif;-inkscape-font-specification:'sans-serif, Bold';text-align:end;letter-spacing:0px;word-spacing:0px;writing-mode:lr-tb;text-anchor:end;fill:#000000;fill-opacity:1;stroke:none;stroke-width:1px;stroke-linecap:butt;stroke-linejoin:miter;stroke-opacity:1"
         x="252.05003"
         y="191.03525"
         id="text4655"
         sodipodi:linespacing="100%"><tspan
           id="tspan4657"
           style="font-style:normal;font-variant:normal;font-weight:bold;font-stretch:normal;font-size:5.37592983px;line-height:100%;font-family:'Century Gothic';-inkscape-font-specification:'Century Gothic, Bold';text-align:end;writing-mode:lr-tb;text-anchor:end"
           sodipodi:role="line"
           x="252.05003"
           y="191.03525">+ alignements explicites</tspan></text>
      <text
         sodipodi:linespacing="100%"
         id="text4659"
         y="198.08136"
         x="250.20067"
         style="font-style:normal;font-variant:normal;font-weight:bold;font-stretch:normal;font-size:5.37582111px;line-height:100%;font-family:sans-serif;-inkscape-font-specification:'sans-serif, Bold';text-align:end;letter-spacing:0px;word-spacing:0px;writing-mode:lr-tb;text-anchor:end;fill:#000000;fill-opacity:1;stroke:none;stroke-width:1px;stroke-linecap:butt;stroke-linejoin:miter;stroke-opacity:1"
         xml:space="preserve"><tspan
           y="198.08136"
           x="250.20067"
           sodipodi:role="line"
           style="font-style:normal;font-variant:normal;font-weight:bold;font-stretch:normal;font-size:5.37592983px;line-height:100%;font-family:'Century Gothic';-inkscape-font-specification:'Century Gothic, Bold';text-align:end;writing-mode:lr-tb;text-anchor:end"
           id="tspan4661">+ format auto-descriptif</tspan></text>
    </g>
  </g>
</svg>
