<?xml version="1.0" encoding="UTF-8" standalone="no"?>
<!-- Created with Inkscape (http://www.inkscape.org/) -->

<svg
   xmlns:dc="http://purl.org/dc/elements/1.1/"
   xmlns:cc="http://creativecommons.org/ns#"
   xmlns:rdf="http://www.w3.org/1999/02/22-rdf-syntax-ns#"
   xmlns:svg="http://www.w3.org/2000/svg"
   xmlns="http://www.w3.org/2000/svg"
   xmlns:sodipodi="http://sodipodi.sourceforge.net/DTD/sodipodi-0.dtd"
   xmlns:inkscape="http://www.inkscape.org/namespaces/inkscape"
   width="171.69582mm"
   height="121.21947mm"
   viewBox="0 0 171.69582 121.2195"
   id="svg5991"
   version="1.1"
   inkscape:version="0.91+devel+osxmenu r12876"
   sodipodi:docname="sigcrosssim.svg">
  <defs
     id="defs5993">
    <marker
       inkscape:stockid="Arrow1Lend"
       orient="auto"
       refY="0"
       refX="0"
       id="marker4826"
       style="overflow:visible"
       inkscape:isstock="true">
      <path
         id="path4559"
         d="M 0,0 5,-5 -12.5,0 5,5 0,0 Z"
         style="fill:#000000;fill-opacity:1;fill-rule:evenodd;stroke:#000000;stroke-width:1.00000003pt;stroke-opacity:1"
         transform="matrix(-0.8,0,0,-0.8,-10,0)"
         inkscape:connector-curvature="0" />
    </marker>
    <marker
       inkscape:stockid="Arrow1Lstart"
       orient="auto"
       refY="0"
       refX="0"
       id="Arrow1Lstart"
       style="overflow:visible"
       inkscape:isstock="true">
      <path
         id="path4556"
         d="M 0,0 5,-5 -12.5,0 5,5 0,0 Z"
         style="fill:#000000;fill-opacity:1;fill-rule:evenodd;stroke:#000000;stroke-width:1.00000003pt;stroke-opacity:1"
         transform="matrix(0.8,0,0,0.8,10,0)"
         inkscape:connector-curvature="0" />
    </marker>
    <marker
       inkscape:isstock="true"
       style="overflow:visible"
       id="marker4894"
       refX="0"
       refY="0"
       orient="auto"
       inkscape:stockid="Arrow1Lend">
      <path
         transform="matrix(-0.8,0,0,-0.8,-10,0)"
         style="fill:#000000;fill-opacity:1;fill-rule:evenodd;stroke:#000000;stroke-width:1.00000003pt;stroke-opacity:1"
         d="M 0,0 5,-5 -12.5,0 5,5 0,0 Z"
         id="path4896"
         inkscape:connector-curvature="0" />
    </marker>
    <marker
       inkscape:stockid="Arrow1Lend"
       orient="auto"
       refY="0"
       refX="0"
       id="Arrow1Lend"
       style="overflow:visible"
       inkscape:isstock="true"
       inkscape:collect="always">
      <path
         id="path4575"
         d="M 0,0 5,-5 -12.5,0 5,5 0,0 Z"
         style="fill:#000000;fill-opacity:1;fill-rule:evenodd;stroke:#000000;stroke-width:1.00000003pt;stroke-opacity:1"
         transform="matrix(-0.8,0,0,-0.8,-10,0)"
         inkscape:connector-curvature="0" />
    </marker>
    <marker
       inkscape:stockid="Arrow2Lend"
       orient="auto"
       refY="0"
       refX="0"
       id="Arrow2Lend"
       style="overflow:visible"
       inkscape:isstock="true">
      <path
         id="path4593"
         style="fill:#000000;fill-opacity:1;fill-rule:evenodd;stroke:#000000;stroke-width:0.625;stroke-linejoin:round;stroke-opacity:1"
         d="M 8.7185878,4.0337352 -2.2072895,0.01601326 8.7185884,-4.0017078 c -1.7454984,2.3720609 -1.7354408,5.6174519 -6e-7,8.035443 z"
         transform="matrix(-1.1,0,0,-1.1,-1.1,0)"
         inkscape:connector-curvature="0" />
    </marker>
  </defs>
  <sodipodi:namedview
     id="base"
     pagecolor="#ffffff"
     bordercolor="#666666"
     borderopacity="1.0"
     inkscape:pageopacity="0.0"
     inkscape:pageshadow="2"
     inkscape:zoom="0.98994949"
     inkscape:cx="151.34529"
     inkscape:cy="176.43481"
     inkscape:document-units="mm"
     inkscape:current-layer="layer1"
     showgrid="false"
     showguides="true"
     inkscape:window-width="1733"
     inkscape:window-height="1105"
     inkscape:window-x="0"
     inkscape:window-y="23"
     inkscape:window-maximized="0"
     fit-margin-top="0"
     fit-margin-left="0"
     fit-margin-right="0"
     fit-margin-bottom="0">
    <inkscape:grid
       type="xygrid"
       id="grid4564"
       originx="-14.891096px"
       originy="-513.84767px" />
  </sodipodi:namedview>
  <metadata
     id="metadata5996">
    <rdf:RDF>
      <cc:Work
         rdf:about="">
        <dc:format>image/svg+xml</dc:format>
        <dc:type
           rdf:resource="http://purl.org/dc/dcmitype/StillImage" />
        <dc:title></dc:title>
      </cc:Work>
    </rdf:RDF>
  </metadata>
  <g
     inkscape:label="Layer 1"
     inkscape:groupmode="layer"
     id="layer1"
     transform="translate(-3.9399397,-39.825002)">
    <rect
       ry="1.3229176"
       rx="1.3229276"
       y="86.743576"
       x="30.751926"
       height="13.030734"
       width="33.431789"
       id="rect4689"
       style="fill:#d9d9d9;fill-opacity:1;stroke:#000000;stroke-width:0.20000002;stroke-miterlimit:4;stroke-dasharray:none;stroke-dashoffset:0;stroke-opacity:1" />
    <rect
       style="fill:#d9d9d9;fill-opacity:1;stroke:#000000;stroke-width:0.20000002;stroke-miterlimit:4;stroke-dasharray:none;stroke-dashoffset:0;stroke-opacity:1"
       id="rect6559"
       width="33.431789"
       height="13.030734"
       x="121.37377"
       y="99.187057"
       rx="1.3229276"
       ry="1.3229176" />
    <text
       sodipodi:linespacing="100%"
       id="text6575"
       y="104.84677"
       x="138.87996"
       style="font-style:normal;font-variant:normal;font-weight:normal;font-stretch:normal;font-size:5.66149139px;line-height:100%;font-family:'Segoe UI';-inkscape-font-specification:'Segoe UI, Normal';text-align:end;letter-spacing:0px;word-spacing:0px;writing-mode:lr-tb;text-anchor:end;fill:#000000;fill-opacity:1;stroke:none;stroke-width:1px;stroke-linecap:butt;stroke-linejoin:miter;stroke-opacity:1"
       xml:space="preserve"><tspan
         id="tspan6579"
         style="font-style:normal;font-variant:normal;font-weight:normal;font-stretch:normal;font-size:5.66152191px;line-height:100%;font-family:'Segoe UI';-inkscape-font-specification:'Segoe UI, Normal';text-align:center;writing-mode:lr-tb;text-anchor:middle"
         y="104.84677"
         x="138.87996"
         sodipodi:role="line">Signature</tspan><tspan
         style="font-style:normal;font-variant:normal;font-weight:normal;font-stretch:normal;font-size:5.66152191px;line-height:100%;font-family:'Segoe UI';-inkscape-font-specification:'Segoe UI, Normal';text-align:center;writing-mode:lr-tb;text-anchor:middle"
         y="110.50829"
         x="138.87996"
         sodipodi:role="line"
         id="tspan6583">cible C</tspan></text>
    <text
       sodipodi:linespacing="100%"
       id="text4525"
       y="92.141426"
       x="47.484539"
       style="font-style:normal;font-variant:normal;font-weight:normal;font-stretch:normal;font-size:5.66149139px;line-height:100%;font-family:'Segoe UI';-inkscape-font-specification:'Segoe UI, Normal';text-align:end;letter-spacing:0px;word-spacing:0px;writing-mode:lr-tb;text-anchor:end;fill:#000000;fill-opacity:1;stroke:none;stroke-width:1px;stroke-linecap:butt;stroke-linejoin:miter;stroke-opacity:1"
       xml:space="preserve"><tspan
         style="font-style:normal;font-variant:normal;font-weight:normal;font-stretch:normal;font-size:5.66152191px;line-height:100%;font-family:'Segoe UI';-inkscape-font-specification:'Segoe UI, Normal';text-align:center;writing-mode:lr-tb;text-anchor:middle"
         y="92.141426"
         x="48.258575"
         id="tspan4527"
         sodipodi:role="line">Signature </tspan><tspan
         id="tspan4529"
         style="font-style:normal;font-variant:normal;font-weight:normal;font-stretch:normal;font-size:5.66152191px;line-height:100%;font-family:'Segoe UI';-inkscape-font-specification:'Segoe UI, Normal';text-align:center;writing-mode:lr-tb;text-anchor:middle"
         y="97.802948"
         x="47.484539"
         sodipodi:role="line">source S</tspan></text>
    <path
       style="fill:none;fill-rule:evenodd;stroke:#000000;stroke-width:0.56500006;stroke-linecap:butt;stroke-linejoin:miter;stroke-miterlimit:4;stroke-dasharray:none;stroke-opacity:1;marker-end:url(#Arrow1Lend)"
       d="m 137.58334,98.562504 0,-37.041668 -68.791679,0"
       id="path4566"
       inkscape:connector-curvature="0" />
    <rect
       ry="1.3229176"
       rx="1.3229276"
       y="55.795361"
       x="31.565845"
       height="13.030734"
       width="33.431789"
       id="rect4874"
       style="fill:#a9a9a9;fill-opacity:1;stroke:#000000;stroke-width:0.20000002;stroke-miterlimit:4;stroke-dasharray:none;stroke-dashoffset:0;stroke-opacity:1" />
    <text
       xml:space="preserve"
       style="font-style:normal;font-variant:normal;font-weight:normal;font-stretch:normal;font-size:5.16310406px;line-height:100%;font-family:'Segoe UI';-inkscape-font-specification:'Segoe UI, Normal';text-align:end;letter-spacing:0px;word-spacing:0px;writing-mode:lr-tb;text-anchor:end;fill:#000000;fill-opacity:1;stroke:none;stroke-width:1px;stroke-linecap:butt;stroke-linejoin:miter;stroke-opacity:1"
       x="48.132786"
       y="61.090771"
       id="text4876"
       sodipodi:linespacing="100%"><tspan
         sodipodi:role="line"
         x="48.132786"
         y="61.090771"
         style="font-style:normal;font-variant:normal;font-weight:normal;font-stretch:normal;font-size:5.16313219px;line-height:100%;font-family:'Segoe UI';-inkscape-font-specification:'Segoe UI, Normal';text-align:center;writing-mode:lr-tb;text-anchor:middle"
         id="tspan4878">Signature</tspan><tspan
         sodipodi:role="line"
         x="48.132786"
         y="66.253906"
         style="font-style:normal;font-variant:normal;font-weight:normal;font-stretch:normal;font-size:5.16313219px;line-height:100%;font-family:'Segoe UI';-inkscape-font-specification:'Segoe UI, Normal';text-align:center;writing-mode:lr-tb;text-anchor:middle"
         id="tspan4882">cible proj. CP</tspan></text>
    <text
       xml:space="preserve"
       style="font-style:normal;font-variant:normal;font-weight:normal;font-stretch:normal;font-size:7.09055042px;line-height:100%;font-family:'Segoe UI';-inkscape-font-specification:'Segoe UI, Normal';text-align:end;letter-spacing:0px;word-spacing:0px;writing-mode:lr-tb;text-anchor:end;fill:#000000;fill-opacity:1;stroke:none;stroke-width:1px;stroke-linecap:butt;stroke-linejoin:miter;stroke-opacity:1"
       x="143.0988"
       y="47.071186"
       id="text11815"
       sodipodi:linespacing="100%"><tspan
         sodipodi:role="line"
         x="143.0988"
         y="47.071186"
         style="font-style:normal;font-variant:normal;font-weight:normal;font-stretch:normal;font-size:7.09059px;line-height:100%;font-family:'Segoe UI';-inkscape-font-specification:'Segoe UI, Normal';text-align:center;writing-mode:lr-tb;text-anchor:middle"
         id="tspan11817">Espace langue cible</tspan></text>
    <path
       inkscape:connector-curvature="0"
       id="path4892"
       d="m 49.139433,99.870593 0,37.041667 68.791687,0"
       style="fill:none;fill-rule:evenodd;stroke:#000000;stroke-width:0.56500006;stroke-linecap:butt;stroke-linejoin:miter;stroke-miterlimit:4;stroke-dasharray:none;stroke-opacity:1;marker-end:url(#marker4894)" />
    <g
       id="g11622"
       transform="translate(-34.210498,-7.0336288)">
      <g
         transform="translate(28.59784,-25.390606)"
         id="g11624">
        <rect
           style="fill:#a9a9a9;fill-opacity:1;stroke:#000000;stroke-width:0.20000002;stroke-miterlimit:4;stroke-dasharray:none;stroke-dashoffset:0;stroke-opacity:1"
           id="rect11626"
           width="33.431789"
           height="13.030734"
           x="127.24296"
           y="162.5192"
           rx="1.3229276"
           ry="1.3229176" />
        <text
           sodipodi:linespacing="100%"
           id="text11628"
           y="167.81461"
           x="143.80991"
           style="font-style:normal;font-variant:normal;font-weight:normal;font-stretch:normal;font-size:5.16310406px;line-height:100%;font-family:'Segoe UI';-inkscape-font-specification:'Segoe UI, Normal';text-align:end;letter-spacing:0px;word-spacing:0px;writing-mode:lr-tb;text-anchor:end;fill:#000000;fill-opacity:1;stroke:none;stroke-width:1px;stroke-linecap:butt;stroke-linejoin:miter;stroke-opacity:1"
           xml:space="preserve"><tspan
             id="tspan11630"
             style="font-style:normal;font-variant:normal;font-weight:normal;font-stretch:normal;font-size:5.16313219px;line-height:100%;font-family:'Segoe UI';-inkscape-font-specification:'Segoe UI, Normal';text-align:center;writing-mode:lr-tb;text-anchor:middle"
             y="167.81461"
             x="143.80991"
             sodipodi:role="line">Signature</tspan><tspan
             id="tspan11632"
             style="font-style:normal;font-variant:normal;font-weight:normal;font-stretch:normal;font-size:5.16313219px;line-height:100%;font-family:'Segoe UI';-inkscape-font-specification:'Segoe UI, Normal';text-align:center;writing-mode:lr-tb;text-anchor:middle"
             y="172.97774"
             x="143.80991"
             sodipodi:role="line">source proj. SP</tspan></text>
      </g>
    </g>
    <path
       style="fill:none;fill-rule:evenodd;stroke:#000000;stroke-width:0.76500005;stroke-linecap:butt;stroke-linejoin:miter;stroke-miterlimit:4;stroke-dasharray:1.53000006, 0.76500003, 0.38250001, 0.76500003;stroke-dashoffset:0;stroke-opacity:1"
       d="m 93.662505,39.825002 0,119.062498"
       id="path11798"
       inkscape:connector-curvature="0" />
    <ellipse
       style="opacity:1;fill:#000000;fill-opacity:0;stroke:#000000;stroke-width:0.76500005;stroke-linecap:round;stroke-miterlimit:4;stroke-dasharray:0.76500003, 2.29500008;stroke-dashoffset:0;stroke-opacity:1"
       id="path11827"
       cx="138.90625"
       cy="122.375"
       rx="30.427088"
       ry="31.74999" />
    <ellipse
       ry="31.560612"
       rx="30.427088"
       cy="77.206451"
       cx="47.500069"
       id="ellipse11829"
       style="opacity:1;fill:#000000;fill-opacity:0;stroke:#000000;stroke-width:0.76500005;stroke-linecap:round;stroke-miterlimit:4;stroke-dasharray:0.76500003, 2.29500008;stroke-dashoffset:0;stroke-opacity:1" />
    <text
       xml:space="preserve"
       style="font-style:normal;font-variant:normal;font-weight:normal;font-stretch:normal;font-size:5.66149139px;line-height:100%;font-family:'Segoe UI';-inkscape-font-specification:'Segoe UI, Normal';text-align:end;letter-spacing:0px;word-spacing:0px;writing-mode:lr-tb;text-anchor:end;fill:#000000;fill-opacity:1;stroke:none;stroke-width:1px;stroke-linecap:butt;stroke-linejoin:miter;stroke-opacity:1"
       x="138.80435"
       y="121.17535"
       id="text5348"
       sodipodi:linespacing="100%"><tspan
         id="tspan5352"
         sodipodi:role="line"
         x="138.80435"
         y="121.17535"
         style="font-style:normal;font-variant:normal;font-weight:normal;font-stretch:normal;font-size:5.66152191px;line-height:100%;font-family:'Segoe UI';-inkscape-font-specification:'Segoe UI, Normal';text-align:center;writing-mode:lr-tb;text-anchor:middle">Calcul de</tspan><tspan
         sodipodi:role="line"
         x="138.80435"
         y="126.83687"
         style="font-style:normal;font-variant:normal;font-weight:normal;font-stretch:normal;font-size:5.66152191px;line-height:100%;font-family:'Segoe UI';-inkscape-font-specification:'Segoe UI, Normal';text-align:center;writing-mode:lr-tb;text-anchor:middle"
         id="tspan5366">similarité/distance</tspan></text>
    <text
       sodipodi:linespacing="100%"
       id="text5360"
       y="77.362137"
       x="47.846478"
       style="font-style:normal;font-variant:normal;font-weight:normal;font-stretch:normal;font-size:5.66149139px;line-height:100%;font-family:'Segoe UI';-inkscape-font-specification:'Segoe UI, Normal';text-align:end;letter-spacing:0px;word-spacing:0px;writing-mode:lr-tb;text-anchor:end;fill:#000000;fill-opacity:1;stroke:none;stroke-width:1px;stroke-linecap:butt;stroke-linejoin:miter;stroke-opacity:1"
       xml:space="preserve"><tspan
         style="font-style:normal;font-variant:normal;font-weight:normal;font-stretch:normal;font-size:5.66152191px;line-height:100%;font-family:'Segoe UI';-inkscape-font-specification:'Segoe UI, Normal';text-align:center;writing-mode:lr-tb;text-anchor:middle"
         y="77.362137"
         x="48.620514"
         sodipodi:role="line"
         id="tspan5364">Calcul de </tspan><tspan
         style="font-style:normal;font-variant:normal;font-weight:normal;font-stretch:normal;font-size:5.66152191px;line-height:100%;font-family:'Segoe UI';-inkscape-font-specification:'Segoe UI, Normal';text-align:center;writing-mode:lr-tb;text-anchor:middle"
         y="83.023659"
         x="47.846478"
         sodipodi:role="line"
         id="tspan14647">similarité/distance</tspan></text>
    <text
       sodipodi:linespacing="100%"
       id="text8360"
       y="66.17981"
       x="124.29018"
       style="font-style:normal;font-variant:normal;font-weight:normal;font-stretch:normal;font-size:5.66149139px;line-height:100%;font-family:'Segoe UI';-inkscape-font-specification:'Segoe UI, Normal';text-align:end;letter-spacing:0px;word-spacing:0px;writing-mode:lr-tb;text-anchor:end;fill:#000000;fill-opacity:1;stroke:none;stroke-width:1px;stroke-linecap:butt;stroke-linejoin:miter;stroke-opacity:1"
       xml:space="preserve"><tspan
         id="tspan8364"
         style="font-style:normal;font-variant:normal;font-weight:normal;font-stretch:normal;font-size:5.66152191px;line-height:100%;font-family:'Segoe UI';-inkscape-font-specification:'Segoe UI, Normal';text-align:center;writing-mode:lr-tb;text-anchor:middle"
         y="66.17981"
         x="124.29018"
         sodipodi:role="line">Projection</tspan></text>
    <text
       xml:space="preserve"
       style="font-style:normal;font-variant:normal;font-weight:normal;font-stretch:normal;font-size:5.66149139px;line-height:100%;font-family:'Segoe UI';-inkscape-font-specification:'Segoe UI, Normal';text-align:end;letter-spacing:0px;word-spacing:0px;writing-mode:lr-tb;text-anchor:end;fill:#000000;fill-opacity:1;stroke:none;stroke-width:1px;stroke-linecap:butt;stroke-linejoin:miter;stroke-opacity:1"
       x="62.226479"
       y="135.38733"
       id="text8368"
       sodipodi:linespacing="100%"><tspan
         sodipodi:role="line"
         x="62.226479"
         y="135.38733"
         style="font-style:normal;font-variant:normal;font-weight:normal;font-stretch:normal;font-size:5.66152191px;line-height:100%;font-family:'Segoe UI';-inkscape-font-specification:'Segoe UI, Normal';text-align:center;writing-mode:lr-tb;text-anchor:middle"
         id="tspan8370">Projection</tspan></text>
    <text
       xml:space="preserve"
       style="font-style:normal;font-variant:normal;font-weight:normal;font-stretch:normal;font-size:5.66149139px;line-height:100%;font-family:'Segoe UI';-inkscape-font-specification:'Segoe UI, Normal';text-align:end;letter-spacing:0px;word-spacing:0px;writing-mode:lr-tb;text-anchor:end;fill:#000000;fill-opacity:1;stroke:none;stroke-width:1px;stroke-linecap:butt;stroke-linejoin:miter;stroke-opacity:1"
       x="24.086346"
       y="44.534992"
       id="text8542"
       sodipodi:linespacing="100%"><tspan
         id="tspan8546"
         sodipodi:role="line"
         x="24.086346"
         y="44.534992"
         style="font-style:normal;font-variant:normal;font-weight:normal;font-stretch:normal;font-size:5.66152191px;line-height:100%;font-family:'Segoe UI';-inkscape-font-specification:'Segoe UI, Normal';text-align:center;writing-mode:lr-tb;text-anchor:middle">D(S||C)=d(S,CP)</tspan></text>
    <text
       sodipodi:linespacing="100%"
       id="text8550"
       y="159.71205"
       x="156.91933"
       style="font-style:normal;font-variant:normal;font-weight:normal;font-stretch:normal;font-size:5.66149139px;line-height:100%;font-family:'Segoe UI';-inkscape-font-specification:'Segoe UI, Normal';text-align:end;letter-spacing:0px;word-spacing:0px;writing-mode:lr-tb;text-anchor:end;fill:#000000;fill-opacity:1;stroke:none;stroke-width:1px;stroke-linecap:butt;stroke-linejoin:miter;stroke-opacity:1"
       xml:space="preserve"><tspan
         style="font-style:normal;font-variant:normal;font-weight:normal;font-stretch:normal;font-size:5.66152191px;line-height:100%;font-family:'Segoe UI';-inkscape-font-specification:'Segoe UI, Normal';text-align:center;writing-mode:lr-tb;text-anchor:middle"
         y="159.71205"
         x="156.91933"
         sodipodi:role="line"
         id="tspan8552">D(C||S)=d(C,SP)</tspan></text>
    <text
       sodipodi:linespacing="100%"
       id="text8630"
       y="157.44278"
       x="39.900501"
       style="font-style:normal;font-variant:normal;font-weight:normal;font-stretch:normal;font-size:7.09055042px;line-height:100%;font-family:'Segoe UI';-inkscape-font-specification:'Segoe UI, Normal';text-align:end;letter-spacing:0px;word-spacing:0px;writing-mode:lr-tb;text-anchor:end;fill:#000000;fill-opacity:1;stroke:none;stroke-width:1px;stroke-linecap:butt;stroke-linejoin:miter;stroke-opacity:1"
       xml:space="preserve"><tspan
         id="tspan8632"
         style="font-style:normal;font-variant:normal;font-weight:normal;font-stretch:normal;font-size:7.09059px;line-height:100%;font-family:'Segoe UI';-inkscape-font-specification:'Segoe UI, Normal';text-align:center;writing-mode:lr-tb;text-anchor:middle"
         y="157.44278"
         x="39.900501"
         sodipodi:role="line">Espace langue source</tspan></text>
  </g>
</svg>
